,dates,death_025_quantiles,death_975_quantiles,case_025_quantiles,case_975_quantiles
0,2021-10-16,1843.08903,1858.608954,116977.172478,118499.913808
1,2021-10-23,1866.340689,1886.735503,119793.728986,121826.325147
2,2021-10-30,1890.426644,1917.179898,122848.25203599999,125445.98796
3,2021-11-6,1913.189163,1947.97887,125529.591104,128839.138468
