,dates,death_025_quantiles,death_975_quantiles,case_025_quantiles,case_975_quantiles
0,2021-05-22,1558.29901697669,1589.29323714583,92514.04570397284,93866.41257957308
1,2021-05-29,1584.61240618475,1623.95159918002,93994.6864226954,95863.77352653725
2,2021-06-05,1597.75257705183,1655.93648277274,95601.95509365747,98081.15084882488
3,2021-06-12,1624.54934535541,1685.29870703572,97346.71926169842,100034.50967137922
