,dates,death_025_quantiles,death_975_quantiles,case_025_quantiles,case_975_quantiles
0,2021-11-13,1962.2854889381624,1982.7818073318224,129192.38850505222,130652.39017571625
1,2021-11-20,1993.2192631744333,2020.051701909411,132190.1486534361,134343.62501144072
2,2021-11-27,2024.2233451085044,2052.9231099986814,135373.0107716004,138089.15648172068
3,2021-12-04,2054.390696097543,2091.4695135874344,138445.62080206868,141527.74927574734
