,dates,death_025_quantiles,death_975_quantiles,case_025_quantiles,case_975_quantiles
0,2021-08-21,1666.467267498556,1686.6424364252175,98586.23288131175,99434.04683248949
1,2021-08-28,1659.6537355136047,1691.0463511995974,99991.99650772923,101467.54137566742
2,2021-09-04,1653.560646701476,1690.727196190945,101213.46971181229,103106.24124792097
3,2021-09-11,1651.581418283146,1691.0629193148127,103069.70740112425,105046.74245158011
