,dates,death_025_quantiles,death_975_quantiles,case_025_quantiles,case_975_quantiles
0,2021-11-06,1937.238697808897,1952.743298549876,124916.63651451672,126260.88104050764
1,2021-11-13,1963.4147437692136,1990.2159234427645,127228.670158735,129023.7212708292
2,2021-11-20,1988.908360166463,2019.275595721051,129521.4962161215,131958.59961250247
3,2021-11-27,2017.806112887211,2055.1706593893864,132238.16460285944,134935.14640523854
