,dates,death_025_quantiles,death_975_quantiles,case_025_quantiles,case_975_quantiles
0,2022-02-05,2811.7138211001948,2889.7426932166445,216928.63451078237,226602.73342750233
1,2022-02-12,2903.6770286529386,3002.340796340434,227960.5799952491,242407.69165570155
2,2022-02-19,2973.891095465159,3136.078261579406,239394.99439100732,256567.26279465941
3,2022-02-26,3086.398390014441,3221.6620359138087,252804.61365340208,269110.39628044463
