,dates,death_025_quantiles,death_975_quantiles,case_025_quantiles,case_975_quantiles
0,2021-11-06,1995.354219623495,2015.884421271515,85282.46563657165,86648.7374198231
1,2021-11-13,2032.7517626372603,2062.6683027166305,87059.67106497141,89403.76092077137
2,2021-11-20,2067.104847006505,2107.7618613291243,89295.81973175818,91741.1814622696
3,2021-11-27,2112.574331852493,2151.2059129503778,91005.9873095627,94354.78415887195
