,dates,death_025_quantiles,death_975_quantiles,case_025_quantiles,case_975_quantiles
0,2021-06-05,1690.681069142098,1723.2078654790548,62529.0,63139.52197440133
1,2021-06-12,1711.5044861793228,1748.877311771319,62648.62598954645,63357.20853124309
2,2021-06-19,1723.9524752250015,1777.0942213832968,62648.62598954645,63326.09102691734
3,2021-06-26,1739.425050500805,1796.9798758370218,62648.62598954645,63029.70600194099
