,dates,death_025_quantiles,death_975_quantiles,case_025_quantiles,case_975_quantiles
0,2021-06-26,1718.797805628385,1740.637796809663,62872.0,63344.860772849555
1,2021-07-03,1727.5872798291,1758.4091130528006,63094.768787878624,63916.68625091287
2,2021-07-10,1734.2004422521093,1775.7374178333146,63449.96624570988,64472.07467218704
3,2021-07-17,1735.0560622244666,1784.1242592924866,63897.09169033443,65006.73006213166
