,dates,death_025_quantiles,death_975_quantiles,case_025_quantiles,case_975_quantiles
0,2021-09-04,1767.8865393542374,1790.233578083071,66760.16722112052,67670.77164254304
1,2021-09-11,1774.6405141379178,1806.428628082688,67765.296662436,68731.00947255756
2,2021-09-18,1779.325495684791,1815.8358180918,68605.5406800741,69722.78401495874
3,2021-09-25,1791.0818841150835,1832.4966405422624,69584.15775213562,70847.60534876611
