,dates,death_025_quantiles,death_975_quantiles,case_025_quantiles,case_975_quantiles
0,2022-01-29,2510.6931651911336,2862.4493762835345,129264.0,288823.8585414813
1,2022-02-05,2575.9402398958982,2916.551085111664,138267.2803830125,338943.0847629817
2,2022-02-12,2638.106312414616,2978.6349544354025,148094.86290819314,353155.8820970917
3,2022-02-19,2682.598889445114,2997.6332864919195,156279.13603388448,313128.5719467448
