,dates,death_025_quantiles,death_975_quantiles,case_025_quantiles,case_975_quantiles
0,2021-07-31,2302.0695774366422,2338.339631121798,161523.9862817802,163399.2221032467
1,2021-08-07,2305.329174627589,2353.4430117899524,163198.89877249917,165938.30377870356
2,2021-08-14,2316.593914732538,2378.920294059426,166476.69036866113,169236.38069089362
3,2021-08-21,2325.153547909877,2400.351134678684,169558.87733509662,173114.30746268824
