,dates,death_025_quantiles,death_975_quantiles,case_025_quantiles,case_975_quantiles
0,2021-12-18,3299.281410060789,3362.0097117610203,268993.01700958563,276001.17358991265
1,2021-12-25,3399.701298891313,3487.933804481036,276356.49995656195,286376.7432172783
2,2022-01-01,3508.128549051028,3629.996693002831,286735.31469795946,296966.8016434376
3,2022-01-08,3617.895359087057,3742.2736052208,296062.75935863476,307383.1035012737
