,dates,death_025_quantiles,death_975_quantiles,case_025_quantiles,case_975_quantiles
0,2022-02-12,3961.371785885413,4082.739939993294,370053.12518835854,385062.0695240781
1,2022-02-19,4046.122094044781,4192.137145970399,380368.4055695024,403739.3358384005
2,2022-02-26,4124.105233438371,4304.262991807349,397147.1256749396,420840.0413454411
3,2022-03-05,4215.4742293394565,4389.857747509368,414325.47425963695,441702.4106940836
