date,deaths,cases,location
2020-08-14,7932.0,204023,Illinois
2020-08-15,7937.0,205851,Illinois
2020-08-16,7955.0,207412,Illinois
2020-08-17,7967.0,209185,Illinois
2020-08-18,7994.0,210924,Illinois
2020-08-19,8017.0,213220,Illinois
2020-08-20,8044.0,215052,Illinois
2020-08-21,8066.0,217345,Illinois
2020-08-22,8083.0,219701,Illinois
2020-08-23,8089.0,221594,Illinois
2020-08-24,8097.0,223206,Illinois
2020-08-25,8126.0,224887,Illinois
2020-08-26,8163.0,227043,Illinois
2020-08-27,8186.0,228750,Illinois
2020-08-28,8206.0,231186,Illinois
2020-08-29,8217.0,233066,Illinois
2020-08-30,8228.0,235058,Illinois
2020-08-31,8235.0,236724,Illinois
2020-09-01,8273.0,238216,Illinois
2020-09-02,8300.0,240344,Illinois
2020-09-03,8324.0,241704,Illinois
2020-09-04,8362.0,247298,Illinois
2020-09-05,8385.0,250102,Illinois
2020-09-06,8390.0,251515,Illinois
2020-09-07,8398.0,252884,Illinois
2020-09-08,8405.0,254276,Illinois
2020-09-09,8433.0,255613,Illinois
2020-09-10,8461.0,257566,Illinois
2020-09-11,8505.0,259879,Illinois
2020-09-12,8527.0,261999,Illinois
2020-09-13,8541.0,263459,Illinois
2020-09-14,8546.0,264831,Illinois
2020-09-15,8564.0,266295,Illinois
2020-09-16,8599.0,268238,Illinois
2020-09-17,8624.0,270294,Illinois
2020-09-18,8647.0,272517,Illinois
2020-09-19,8672.0,275041,Illinois
2020-09-20,8686.0,276443,Illinois
2020-09-21,8693.0,277920,Illinois
2020-09-22,8722.0,279453,Illinois
2020-09-23,8744.0,281303,Illinois
2020-09-24,8774.0,283559,Illinois
2020-09-25,8807.0,286332,Illinois
2020-09-26,8832.0,288773,Illinois
2020-09-27,8845.0,290373,Illinois
2020-09-28,8858.0,292082,Illinois
2020-09-29,8881.0,293448,Illinois
2020-09-30,8916.0,295720,Illinois
2020-10-01,8940.0,297884,Illinois
2020-10-02,8992.0,300340,Illinois
2020-10-03,9023.0,302782,Illinois
2020-10-04,9040.0,304235,Illinois
2020-10-05,9054.0,306088,Illinois
2020-10-06,9085.0,307705,Illinois
2020-10-07,9127.0,310335,Illinois
2020-10-08,9159.0,313429,Illinois
2020-10-09,9191.0,316546,Illinois
2020-10-10,9221.0,319451,Illinois
2020-10-11,9230.0,322178,Illinois
2020-10-12,9243.0,324918,Illinois
2020-10-13,9273.0,327771,Illinois
2020-10-14,9320.0,330637,Illinois
2020-10-15,9373.0,334651,Illinois
2020-10-16,9425.0,339757,Illinois
2020-10-17,9452.0,343386,Illinois
2020-10-18,9474.0,347631,Illinois
2020-10-19,9496.0,350744,Illinois
2020-10-20,9537.0,354457,Illinois
2020-10-21,9605.0,358799,Illinois
2020-10-22,9647.0,363740,Illinois
2020-10-23,9688.0,368740,Illinois
2020-10-24,9751.0,374901,Illinois
2020-10-25,9775.0,378958,Illinois
2020-10-26,9792.0,383687,Illinois
2020-10-27,9838.0,387687,Illinois
2020-10-28,9889.0,393797,Illinois
2020-10-29,9945.0,400159,Illinois
2020-10-30,9994.0,408648,Illinois
2020-10-31,10040.0,416547,Illinois
2020-11-01,10075.0,423527,Illinois
2020-11-02,10093.0,429749,Illinois
2020-11-03,10161.0,436265,Illinois
2020-11-04,10216.0,443803,Illinois
2020-11-05,10313.0,453738,Illinois
2020-11-06,10397.0,465540,Illinois
2020-11-07,10488.0,477978,Illinois
2020-11-08,10538.0,487987,Illinois
2020-11-09,10563.0,498560,Illinois
2020-11-10,10645.0,511183,Illinois
2020-11-11,10798.0,523840,Illinois
2020-11-12,10846.0,536542,Illinois
2020-11-13,10891.0,551957,Illinois
2020-11-14,11088.0,562985,Illinois
2020-11-15,11162.0,573616,Illinois
2020-11-16,11204.0,585248,Illinois
2020-11-17,11317.0,597849,Illinois
2020-11-18,11468.0,606771,Illinois
2020-11-19,11648.0,621383,Illinois
2020-11-20,11795.0,634395,Illinois
2020-11-21,11952.0,646286,Illinois
2020-11-22,12051.0,656298,Illinois
2020-11-23,12112.0,664620,Illinois
2020-11-24,12262.0,674089,Illinois
2020-11-25,12440.0,685467,Illinois
2020-11-26,12596.0,697489,Illinois
2020-11-27,12686.0,705063,Illinois
2020-11-28,12838.0,712936,Illinois
2020-11-29,12882.0,720114,Illinois
2020-11-30,12985.0,726304,Illinois
2020-12-01,13131.0,738846,Illinois
2020-12-02,13397.0,748603,Illinois
2020-12-03,13625.0,759562,Illinois
2020-12-04,13782.0,770088,Illinois
2020-12-05,14017.0,779975,Illinois
2020-12-06,14116.0,787573,Illinois
2020-12-07,14216.0,796264,Illinois
2020-12-08,14384.0,804174,Illinois
2020-12-09,14613.0,812430,Illinois
2020-12-10,14845.0,823531,Illinois
2020-12-11,15067.0,832951,Illinois
2020-12-12,15232.0,841688,Illinois
2020-12-13,15339.0,848904,Illinois
2020-12-14,15455.0,856118,Illinois
2020-12-15,15587.0,863477,Illinois
2020-12-16,15777.0,870600,Illinois
2020-12-17,15985.0,879428,Illinois
2020-12-18,16206.0,886805,Illinois
2020-12-19,16326.0,894367,Illinois
2020-12-20,16407.0,900370,Illinois
2020-12-21,16527.0,905069,Illinois
2020-12-22,16671.0,911308,Illinois
2020-12-23,16842.0,918070,Illinois
2020-12-24,16960.0,925107,Illinois
2020-12-25,17154.0,930849,Illinois
2020-12-26,17224.0,934142,Illinois
2020-12-27,17336.0,937909,Illinois
2020-12-28,17470.0,942362,Illinois
2020-12-29,17596.0,948006,Illinois
2020-12-30,17811.0,955380,Illinois
2020-12-31,17978.0,963389,Illinois
2021-01-01,17978.0,963389,Illinois
2021-01-02,18217.0,975352,Illinois
2021-01-03,18322.0,979821,Illinois
2021-01-04,18412.0,984880,Illinois
2021-01-05,18562.0,991719,Illinois
2021-01-06,18735.0,999288,Illinois
2021-01-07,18941.0,1008045,Illinois
2021-01-08,19108.0,1017322,Illinois
2021-01-09,19210.0,1024039,Illinois
2021-01-10,19293.0,1028750,Illinois
2021-01-11,19363.0,1033526,Illinois
2021-01-12,19497.0,1040168,Illinois
2021-01-13,19617.0,1046030,Illinois
2021-01-14,19724.0,1052682,Illinois
2021-01-15,19873.0,1059324,Illinois
2021-01-16,20020.0,1064667,Illinois
2021-01-17,20050.0,1068829,Illinois
2021-01-18,20118.0,1072214,Illinois
2021-01-19,20153.0,1076532,Illinois
2021-01-20,20285.0,1081354,Illinois
2021-01-21,20423.0,1086333,Illinois
2021-01-22,20534.0,1093375,Illinois
2021-01-23,20645.0,1098527,Illinois
2021-01-24,20680.0,1101819,Illinois
2021-01-25,20744.0,1104763,Illinois
2021-01-26,20853.0,1108430,Illinois
2021-01-27,20949.0,1112181,Illinois
2021-01-28,21074.0,1116372,Illinois
2021-01-29,21146.0,1120528,Illinois
2021-01-30,21213.0,1123873,Illinois
2021-01-31,21253.0,1126301,Illinois
2021-02-01,21273.0,1128613,Illinois
2021-02-02,21336.0,1130917,Illinois
2021-02-03,21420.0,1134231,Illinois
2021-02-04,21497.0,1137559,Illinois
2021-02-05,21603.0,1141219,Illinois
2021-02-06,21676.0,1144281,Illinois
2021-02-07,21738.0,1146346,Illinois
2021-02-08,21779.0,1148088,Illinois
2021-02-09,21802.0,1150170,Illinois
2021-02-10,21869.0,1152995,Illinois
2021-02-11,21985.0,1155833,Illinois
2021-02-12,22027.0,1158431,Illinois
2021-02-13,22087.0,1160523,Illinois
2021-02-14,22121.0,1162154,Illinois
2021-02-15,22166.0,1163574,Illinois
2021-02-16,22199.0,1164922,Illinois
2021-02-17,22224.0,1166717,Illinois
2021-02-18,22297.0,1168684,Illinois
2021-02-19,22368.0,1170902,Illinois
2021-02-20,22426.0,1172736,Illinois
2021-02-21,22466.0,1174330,Illinois
2021-02-22,22506.0,1175568,Illinois
2021-02-23,22528.0,1177241,Illinois
2021-02-24,22575.0,1179250,Illinois
2021-02-25,22607.0,1181144,Illinois
2021-02-26,22675.0,1183569,Illinois
2021-02-27,22710.0,1185367,Illinois
2021-02-28,22735.0,1186613,Illinois
2021-03-01,22759.0,1187757,Illinois
2021-03-02,22803.0,1189326,Illinois
2021-03-03,22853.0,1191440,Illinois
2021-03-04,22902.0,1193177,Illinois
2021-03-05,22947.0,1194629,Illinois
2021-03-06,23003.0,1197187,Illinois
2021-03-07,23015.0,1198257,Illinois
2021-03-08,23021.0,1199441,Illinois
2021-03-09,23040.0,1200938,Illinois
2021-03-10,23068.0,1202633,Illinois
2021-03-11,23123.0,1204323,Illinois
2021-03-12,23164.0,1206084,Illinois
2021-03-13,23189.0,1207757,Illinois
2021-03-14,23207.0,1209245,Illinois
2021-03-15,23217.0,1210032,Illinois
2021-03-16,23236.0,1212014,Illinois
2021-03-17,23255.0,1213668,Illinois
2021-03-18,23287.0,1215992,Illinois
2021-03-19,23304.0,1218387,Illinois
2021-03-20,23329.0,1220326,Illinois
2021-03-21,23357.0,1221775,Illinois
2021-03-22,23379.0,1222992,Illinois
2021-03-23,23391.0,1224804,Illinois
2021-03-24,23408.0,1227613,Illinois
2021-03-25,23442.0,1229806,Illinois
2021-03-26,23472.0,1232801,Illinois
2021-03-27,23498.0,1235485,Illinois
2021-03-28,23521.0,1237732,Illinois
2021-03-29,23527.0,1239502,Illinois
2021-03-30,23542.0,1241903,Illinois
2021-03-31,23579.0,1244499,Illinois
2021-04-01,23601.0,1248021,Illinois
2021-04-02,23626.0,1251255,Illinois
2021-04-03,23635.0,1254091,Illinois
2020-08-14,3056.0,78632,Indiana
2020-08-15,3068.0,79676,Indiana
2020-08-16,3080.0,80415,Indiana
2020-08-17,3103.0,81006,Indiana
2020-08-18,3108.0,81847,Indiana
2020-08-19,3124.0,82336,Indiana
2020-08-20,3141.0,83277,Indiana
2020-08-21,3149.0,84317,Indiana
2020-08-22,3164.0,85317,Indiana
2020-08-23,3176.0,85932,Indiana
2020-08-24,3190.0,87592,Indiana
2020-08-25,3201.0,88421,Indiana
2020-08-26,3204.0,89359,Indiana
2020-08-27,3220.0,90504,Indiana
2020-08-28,3229.0,91313,Indiana
2020-08-29,3241.0,92434,Indiana
2020-08-30,3250.0,93313,Indiana
2020-08-31,3263.0,94196,Indiana
2020-09-01,3270.0,94891,Indiana
2020-09-02,3280.0,95750,Indiana
2020-09-03,3286.0,96854,Indiana
2020-09-04,3300.0,97884,Indiana
2020-09-05,3311.0,98961,Indiana
2020-09-06,3325.0,99804,Indiana
2020-09-07,3336.0,100394,Indiana
2020-09-08,3351.0,100780,Indiana
2020-09-09,3364.0,101485,Indiana
2020-09-10,3376.0,102243,Indiana
2020-09-11,3388.0,103505,Indiana
2020-09-12,3392.0,104561,Indiana
2020-09-13,3410.0,105804,Indiana
2020-09-14,3424.0,106540,Indiana
2020-09-15,3436.0,107229,Indiana
2020-09-16,3444.0,107809,Indiana
2020-09-17,3459.0,108646,Indiana
2020-09-18,3471.0,109683,Indiana
2020-09-19,3481.0,110759,Indiana
2020-09-20,3488.0,111505,Indiana
2020-09-21,3499.0,112027,Indiana
2020-09-22,3514.0,112626,Indiana
2020-09-23,3531.0,113337,Indiana
2020-09-24,3544.0,114236,Indiana
2020-09-25,3557.0,115407,Indiana
2020-09-26,3581.0,116549,Indiana
2020-09-27,3593.0,117450,Indiana
2020-09-28,3613.0,118322,Indiana
2020-09-29,3632.0,119066,Indiana
2020-09-30,3645.0,120019,Indiana
2020-10-01,3663.0,121176,Indiana
2020-10-02,3681.0,122640,Indiana
2020-10-03,3705.0,124059,Indiana
2020-10-04,3720.0,125146,Indiana
2020-10-05,3733.0,125976,Indiana
2020-10-06,3748.0,126946,Indiana
2020-10-07,3766.0,128227,Indiana
2020-10-08,3789.0,129677,Indiana
2020-10-09,3814.0,131493,Indiana
2020-10-10,3831.0,133411,Indiana
2020-10-11,3852.0,134981,Indiana
2020-10-12,3875.0,136555,Indiana
2020-10-13,3904.0,138104,Indiana
2020-10-14,3924.0,139269,Indiana
2020-10-15,3959.0,141212,Indiana
2020-10-16,4001.0,143495,Indiana
2020-10-17,4025.0,145977,Indiana
2020-10-18,4055.0,147582,Indiana
2020-10-19,4075.0,149166,Indiana
2020-10-20,4111.0,150664,Indiana
2020-10-21,4144.0,152396,Indiana
2020-10-22,4180.0,155246,Indiana
2020-10-23,4209.0,157713,Indiana
2020-10-24,4234.0,160454,Indiana
2020-10-25,4264.0,162607,Indiana
2020-10-26,4306.0,164581,Indiana
2020-10-27,4346.0,166564,Indiana
2020-10-28,4381.0,169112,Indiana
2020-10-29,4420.0,172730,Indiana
2020-10-30,4469.0,175893,Indiana
2020-10-31,4504.0,179358,Indiana
2020-11-01,4544.0,182108,Indiana
2020-11-02,4587.0,185185,Indiana
2020-11-03,4630.0,188066,Indiana
2020-11-04,4682.0,191764,Indiana
2020-11-05,4722.0,196176,Indiana
2020-11-06,4779.0,200823,Indiana
2020-11-07,4828.0,205722,Indiana
2020-11-08,4888.0,210374,Indiana
2020-11-09,4932.0,214509,Indiana
2020-11-10,4992.0,219338,Indiana
2020-11-11,5051.0,224374,Indiana
2020-11-12,5094.0,230965,Indiana
2020-11-13,5140.0,236565,Indiana
2020-11-14,5191.0,244887,Indiana
2020-11-15,5260.0,251597,Indiana
2020-11-16,5323.0,256744,Indiana
2020-11-17,5405.0,262207,Indiana
2020-11-18,5479.0,268222,Indiana
2020-11-19,5556.0,275503,Indiana
2020-11-20,5628.0,282311,Indiana
2020-11-21,5697.0,289183,Indiana
2020-11-22,5774.0,295357,Indiana
2020-11-23,5860.0,300913,Indiana
2020-11-24,5941.0,306538,Indiana
2020-11-25,6021.0,312521,Indiana
2020-11-26,6112.0,318894,Indiana
2020-11-27,6196.0,324537,Indiana
2020-11-28,6270.0,329008,Indiana
2020-11-29,6351.0,333312,Indiana
2020-11-30,6432.0,338977,Indiana
2020-12-01,6518.0,344373,Indiana
2020-12-02,6617.0,350970,Indiana
2020-12-03,6704.0,359430,Indiana
2020-12-04,6802.0,367329,Indiana
2020-12-05,6899.0,375019,Indiana
2020-12-06,6987.0,381617,Indiana
2020-12-07,7081.0,387278,Indiana
2020-12-08,7187.0,392663,Indiana
2020-12-09,7289.0,398417,Indiana
2020-12-10,7395.0,404935,Indiana
2020-12-11,7505.0,412135,Indiana
2020-12-12,7600.0,419536,Indiana
2020-12-13,7689.0,425434,Indiana
2020-12-14,7796.0,430401,Indiana
2020-12-15,7888.0,434642,Indiana
2020-12-16,7980.0,440850,Indiana
2020-12-17,8093.0,447190,Indiana
2020-12-18,8200.0,453139,Indiana
2020-12-19,8294.0,457871,Indiana
2020-12-20,8380.0,464354,Indiana
2020-12-21,8487.0,468219,Indiana
2020-12-22,8566.0,471876,Indiana
2020-12-23,8658.0,476538,Indiana
2020-12-24,8731.0,482734,Indiana
2020-12-25,8811.0,488180,Indiana
2020-12-26,8904.0,492021,Indiana
2020-12-27,8996.0,493841,Indiana
2020-12-28,9097.0,496306,Indiana
2020-12-29,9216.0,500282,Indiana
2020-12-30,9314.0,505017,Indiana
2020-12-31,9390.0,511485,Indiana
2021-01-01,9468.0,517773,Indiana
2021-01-02,9562.0,523090,Indiana
2021-01-03,9625.0,526071,Indiana
2021-01-04,9735.0,529688,Indiana
2021-01-05,9800.0,533083,Indiana
2021-01-06,9883.0,539229,Indiana
2021-01-07,9958.0,546499,Indiana
2021-01-08,10021.0,552594,Indiana
2021-01-09,10089.0,558560,Indiana
2021-01-10,10147.0,563653,Indiana
2021-01-11,10217.0,567338,Indiana
2021-01-12,10271.0,570477,Indiana
2021-01-13,10334.0,574119,Indiana
2021-01-14,10400.0,578494,Indiana
2021-01-15,10465.0,583160,Indiana
2021-01-16,10534.0,587049,Indiana
2021-01-17,10602.0,590211,Indiana
2021-01-18,10670.0,592709,Indiana
2021-01-19,10720.0,595436,Indiana
2021-01-20,10786.0,598313,Indiana
2021-01-21,10837.0,601937,Indiana
2021-01-22,10903.0,605426,Indiana
2021-01-23,10950.0,608519,Indiana
2021-01-24,10996.0,611039,Indiana
2021-01-25,11037.0,613228,Indiana
2021-01-26,11087.0,614946,Indiana
2021-01-27,11137.0,617176,Indiana
2021-01-28,11180.0,619995,Indiana
2021-01-29,11220.0,622625,Indiana
2021-01-30,11262.0,624959,Indiana
2021-01-31,11296.0,626682,Indiana
2021-02-01,11331.0,628391,Indiana
2021-02-02,11371.0,629903,Indiana
2021-02-03,11408.0,631331,Indiana
2021-02-04,11597.0,633667,Indiana
2021-02-05,11686.0,635171,Indiana
2021-02-06,11752.0,637987,Indiana
2021-02-07,11817.0,639711,Indiana
2021-02-08,11875.0,640744,Indiana
2021-02-09,11942.0,641874,Indiana
2021-02-10,12001.0,643305,Indiana
2021-02-11,12027.0,645006,Indiana
2021-02-12,12117.0,646425,Indiana
2021-02-13,12149.0,647657,Indiana
2021-02-14,12173.0,648875,Indiana
2021-02-15,12191.0,649652,Indiana
2021-02-16,12231.0,650530,Indiana
2021-02-17,12250.0,651453,Indiana
2021-02-18,12281.0,652210,Indiana
2021-02-19,12325.0,653245,Indiana
2021-02-20,12336.0,654660,Indiana
2021-02-21,12372.0,655541,Indiana
2021-02-22,12407.0,656358,Indiana
2021-02-23,12450.0,657037,Indiana
2021-02-24,12467.0,658043,Indiana
2021-02-25,12494.0,659127,Indiana
2021-02-26,12531.0,660071,Indiana
2021-02-27,12556.0,660942,Indiana
2021-02-28,12573.0,661673,Indiana
2021-03-01,12595.0,662213,Indiana
2021-03-02,12623.0,662750,Indiana
2021-03-03,12633.0,663511,Indiana
2021-03-04,12663.0,664446,Indiana
2021-03-05,12697.0,665285,Indiana
2021-03-06,12726.0,666516,Indiana
2021-03-07,12737.0,667262,Indiana
2021-03-08,12744.0,667736,Indiana
2021-03-09,12762.0,668308,Indiana
2021-03-10,12775.0,669164,Indiana
2021-03-11,12802.0,670074,Indiana
2021-03-12,12824.0,671023,Indiana
2021-03-13,12846.0,671859,Indiana
2021-03-14,12856.0,672554,Indiana
2021-03-15,12864.0,672967,Indiana
2021-03-16,12876.0,673528,Indiana
2021-03-17,12893.0,674430,Indiana
2021-03-18,12907.0,675388,Indiana
2021-03-19,12922.0,676247,Indiana
2021-03-20,12926.0,677135,Indiana
2021-03-21,12946.0,677905,Indiana
2021-03-22,12947.0,678416,Indiana
2021-03-23,12959.0,679079,Indiana
2021-03-24,12975.0,680046,Indiana
2021-03-25,12982.0,680998,Indiana
2021-03-26,13002.0,682099,Indiana
2021-03-27,13011.0,683076,Indiana
2021-03-28,13023.0,684020,Indiana
2021-03-29,13028.0,684733,Indiana
2021-03-30,13038.0,685453,Indiana
2021-03-31,13039.0,686497,Indiana
2021-04-01,13048.0,687713,Indiana
2021-04-02,13069.0,688916,Indiana
2021-04-03,13074.0,689965,Indiana
2020-08-14,6566.0,100724,Michigan
2020-08-15,6586.0,101782,Michigan
2020-08-16,6592.0,102259,Michigan
2020-08-17,6592.0,102749,Michigan
2020-08-18,6608.0,103402,Michigan
2020-08-19,6618.0,104091,Michigan
2020-08-20,6634.0,104618,Michigan
2020-08-21,6634.0,104618,Michigan
2020-08-22,6655.0,106044,Michigan
2020-08-23,6659.0,106808,Michigan
2020-08-24,6663.0,107686,Michigan
2020-08-25,6684.0,108637,Michigan
2020-08-26,6690.0,109480,Michigan
2020-08-27,6706.0,110343,Michigan
2020-08-28,6712.0,111136,Michigan
2020-08-29,6712.0,111136,Michigan
2020-08-30,6748.0,112526,Michigan
2020-08-31,6753.0,113025,Michigan
2020-09-01,6767.0,113820,Michigan
2020-09-02,6781.0,114468,Michigan
2020-09-03,6791.0,115242,Michigan
2020-09-04,6798.0,116295,Michigan
2020-09-05,6806.0,117191,Michigan
2020-09-06,6806.0,117191,Michigan
2020-09-07,6810.0,118403,Michigan
2020-09-08,6811.0,118902,Michigan
2020-09-09,6886.0,119872,Michigan
2020-09-10,6894.0,120846,Michigan
2020-09-11,6900.0,122251,Michigan
2020-09-12,6911.0,123058,Michigan
2020-09-13,6911.0,123058,Michigan
2020-09-14,6921.0,124287,Michigan
2020-09-15,6932.0,124976,Michigan
2020-09-16,6943.0,125742,Michigan
2020-09-17,6955.0,126722,Michigan
2020-09-18,6954.0,127500,Michigan
2020-09-19,6969.0,128087,Michigan
2020-09-20,6969.0,128087,Michigan
2020-09-21,6981.0,129662,Michigan
2020-09-22,6997.0,130357,Michigan
2020-09-23,7013.0,131259,Michigan
2020-09-24,7019.0,132337,Michigan
2020-09-25,7027.0,133377,Michigan
2020-09-26,7044.0,134373,Michigan
2020-09-27,7044.0,134373,Michigan
2020-09-28,7051.0,135702,Michigan
2020-09-29,7072.0,136820,Michigan
2020-09-30,7083.0,138014,Michigan
2020-10-01,7102.0,139012,Michigan
2020-10-02,7110.0,139996,Michigan
2020-10-03,7124.0,141271,Michigan
2020-10-04,7124.0,141271,Michigan
2020-10-05,7139.0,142726,Michigan
2020-10-06,7161.0,143877,Michigan
2020-10-07,7169.0,145092,Michigan
2020-10-08,7193.0,146493,Michigan
2020-10-09,7200.0,147816,Michigan
2020-10-10,7219.0,149453,Michigan
2020-10-11,7219.0,149453,Michigan
2020-10-12,7225.0,151396,Michigan
2020-10-13,7255.0,152862,Michigan
2020-10-14,7268.0,154455,Michigan
2020-10-15,7302.0,156913,Michigan
2020-10-16,7317.0,159119,Michigan
2020-10-17,7340.0,161105,Michigan
2020-10-18,7340.0,161105,Michigan
2020-10-19,7363.0,164123,Michigan
2020-10-20,7383.0,165994,Michigan
2020-10-21,7418.0,167872,Michigan
2020-10-22,7464.0,170076,Michigan
2020-10-23,7484.0,172122,Michigan
2020-10-24,7522.0,175612,Michigan
2020-10-25,7522.0,175612,Michigan
2020-10-26,7552.0,179669,Michigan
2020-10-27,7585.0,182344,Michigan
2020-10-28,7606.0,185934,Michigan
2020-10-29,7653.0,190043,Michigan
2020-10-30,7665.0,193388,Michigan
2020-10-31,7699.0,197406,Michigan
2020-11-01,7699.0,197406,Michigan
2020-11-02,7716.0,204326,Michigan
2020-11-03,7761.0,207763,Michigan
2020-11-04,7782.0,212160,Michigan
2020-11-05,7833.0,218263,Michigan
2020-11-06,7880.0,222509,Michigan
2020-11-07,7945.0,229073,Michigan
2020-11-08,7945.0,229073,Michigan
2020-11-09,8008.0,238308,Michigan
2020-11-10,8094.0,245252,Michigan
2020-11-11,8136.0,251872,Michigan
2020-11-12,8185.0,259183,Michigan
2020-11-13,8308.0,268362,Michigan
2020-11-14,8376.0,275792,Michigan
2020-11-15,8376.0,275792,Michigan
2020-11-16,8431.0,288954,Michigan
2020-11-17,8511.0,296840,Michigan
2020-11-18,8573.0,303058,Michigan
2020-11-19,8717.0,311041,Michigan
2020-11-20,8774.0,321181,Michigan
2020-11-21,8875.0,329021,Michigan
2020-11-22,8875.0,329021,Michigan
2020-11-23,8940.0,340964,Michigan
2020-11-24,9094.0,347746,Michigan
2020-11-25,9170.0,352433,Michigan
2020-11-26,9170.0,352433,Michigan
2020-11-27,9357.0,369801,Michigan
2020-11-28,9467.0,378152,Michigan
2020-11-29,9467.0,378152,Michigan
2020-11-30,9564.0,388942,Michigan
2020-12-01,9759.0,395453,Michigan
2020-12-02,9842.0,402886,Michigan
2020-12-03,10035.0,410843,Michigan
2020-12-04,10117.0,420268,Michigan
2020-12-05,10321.0,426576,Michigan
2020-12-06,10321.0,426576,Michigan
2020-12-07,10422.0,436400,Michigan
2020-12-08,10625.0,443076,Michigan
2020-12-09,10706.0,448418,Michigan
2020-12-10,10900.0,454720,Michigan
2020-12-11,10965.0,460346,Michigan
2020-12-12,11195.0,465159,Michigan
2020-12-13,11195.0,465159,Michigan
2020-12-14,11289.0,472780,Michigan
2020-12-15,11495.0,478171,Michigan
2020-12-16,11588.0,482815,Michigan
2020-12-17,11801.0,487356,Michigan
2020-12-18,11868.0,491875,Michigan
2020-12-19,12074.0,496056,Michigan
2020-12-20,12074.0,496056,Michigan
2020-12-21,12153.0,501115,Michigan
2020-12-22,12342.0,504629,Michigan
2020-12-23,12415.0,508449,Michigan
2020-12-24,12415.0,508449,Michigan
2020-12-25,12415.0,508449,Michigan
2020-12-26,12690.0,516326,Michigan
2020-12-27,12690.0,516326,Michigan
2020-12-28,12754.0,519876,Michigan
2020-12-29,12966.0,523839,Michigan
2020-12-30,13018.0,528621,Michigan
2020-12-31,13018.0,528621,Michigan
2021-01-01,13018.0,528621,Michigan
2021-01-02,13306.0,538121,Michigan
2021-01-03,13306.0,538121,Michigan
2021-01-04,13391.0,543611,Michigan
2021-01-05,13608.0,546642,Michigan
2021-01-06,13667.0,551498,Michigan
2021-01-07,13873.0,555747,Michigan
2021-01-08,13913.0,559655,Michigan
2021-01-09,14145.0,562553,Michigan
2021-01-10,14145.0,562553,Michigan
2021-01-11,14192.0,567682,Michigan
2021-01-12,14296.0,570150,Michigan
2021-01-13,14336.0,573278,Michigan
2021-01-14,14511.0,576573,Michigan
2021-01-15,14550.0,579574,Michigan
2021-01-16,14669.0,581785,Michigan
2021-01-17,14669.0,581785,Michigan
2021-01-18,14686.0,585128,Michigan
2021-01-19,14702.0,586673,Michigan
2021-01-20,14770.0,589869,Michigan
2021-01-21,14933.0,592382,Michigan
2021-01-22,14951.0,594920,Michigan
2021-01-23,15181.0,596746,Michigan
2021-01-24,15181.0,596746,Michigan
2021-01-25,15219.0,600093,Michigan
2021-01-26,15305.0,602168,Michigan
2021-01-27,15314.0,604233,Michigan
2021-01-28,15402.0,606488,Michigan
2021-01-29,15410.0,608627,Michigan
2021-01-30,15525.0,610138,Michigan
2021-01-31,15525.0,610138,Michigan
2021-02-01,15536.0,612710,Michigan
2021-02-02,15609.0,614143,Michigan
2021-02-03,15644.0,615860,Michigan
2021-02-04,15725.0,617745,Michigan
2021-02-05,15750.0,619499,Michigan
2021-02-06,15854.0,620685,Michigan
2021-02-07,15854.0,620685,Michigan
2021-02-08,15863.0,622813,Michigan
2021-02-09,15925.0,623731,Michigan
2021-02-10,15939.0,624970,Michigan
2021-02-11,16019.0,626477,Michigan
2021-02-12,16027.0,628012,Michigan
2021-02-13,16119.0,628956,Michigan
2021-02-14,16119.0,628956,Michigan
2021-02-15,16130.0,630408,Michigan
2021-02-16,16149.0,631532,Michigan
2021-02-17,16160.0,632772,Michigan
2021-02-18,16251.0,633973,Michigan
2021-02-19,16274.0,635446,Michigan
2021-02-20,16342.0,636269,Michigan
2021-02-21,16342.0,636269,Michigan
2021-02-22,16343.0,637928,Michigan
2021-02-23,16380.0,639712,Michigan
2021-02-24,16389.0,641270,Michigan
2021-02-25,16436.0,642868,Michigan
2021-02-26,16438.0,644125,Michigan
2021-02-27,16508.0,645550,Michigan
2021-02-28,16508.0,645550,Michigan
2021-03-01,16519.0,647415,Michigan
2021-03-02,16544.0,649057,Michigan
2021-03-03,16550.0,650762,Michigan
2021-03-04,16589.0,652589,Michigan
2021-03-05,16601.0,654380,Michigan
2021-03-06,16658.0,656072,Michigan
2021-03-07,16658.0,656072,Michigan
2021-03-08,16662.0,658355,Michigan
2021-03-09,16692.0,659890,Michigan
2021-03-10,16700.0,662572,Michigan
2021-03-11,16722.0,665141,Michigan
2021-03-12,16729.0,668085,Michigan
2021-03-13,16769.0,670088,Michigan
2021-03-14,16769.0,670088,Michigan
2021-03-15,16779.0,673916,Michigan
2021-03-16,16805.0,676494,Michigan
2021-03-17,16809.0,680279,Michigan
2021-03-18,16843.0,683398,Michigan
2021-03-19,16857.0,687815,Michigan
2021-03-20,16906.0,691070,Michigan
2021-03-21,16906.0,691070,Michigan
2021-03-22,16912.0,696838,Michigan
2021-03-23,16932.0,701378,Michigan
2021-03-24,16949.0,706550,Michigan
2021-03-25,17003.0,712393,Michigan
2021-03-26,17023.0,718455,Michigan
2021-03-27,17047.0,723700,Michigan
2021-03-28,17047.0,723700,Michigan
2021-03-29,17056.0,732938,Michigan
2021-03-30,17108.0,739244,Michigan
2021-03-31,17119.0,746351,Michigan
2021-04-01,17174.0,753449,Michigan
2021-04-02,17194.0,759600,Michigan
2021-04-03,17259.0,768892,Michigan
2020-08-14,7434.0,127732,Pennsylvania
2020-08-15,7451.0,128531,Pennsylvania
2020-08-16,7453.0,129070,Pennsylvania
2020-08-17,7453.0,129647,Pennsylvania
2020-08-18,7474.0,130247,Pennsylvania
2020-08-19,7508.0,130905,Pennsylvania
2020-08-20,7520.0,131692,Pennsylvania
2020-08-21,7537.0,132417,Pennsylvania
2020-08-22,7555.0,133160,Pennsylvania
2020-08-23,7557.0,133679,Pennsylvania
2020-08-24,7557.0,134204,Pennsylvania
2020-08-25,7582.0,134760,Pennsylvania
2020-08-26,7613.0,135279,Pennsylvania
2020-08-27,7622.0,135912,Pennsylvania
2020-08-28,7642.0,136781,Pennsylvania
2020-08-29,7656.0,137576,Pennsylvania
2020-08-30,7658.0,138134,Pennsylvania
2020-08-31,7659.0,138795,Pennsylvania
2020-09-01,7678.0,139548,Pennsylvania
2020-09-02,7705.0,140532,Pennsylvania
2020-09-03,7724.0,141570,Pennsylvania
2020-09-04,7735.0,142495,Pennsylvania
2020-09-05,7750.0,143280,Pennsylvania
2020-09-06,7750.0,143824,Pennsylvania
2020-09-07,7771.0,144540,Pennsylvania
2020-09-08,7780.0,145156,Pennsylvania
2020-09-09,7794.0,146029,Pennsylvania
2020-09-10,7807.0,146696,Pennsylvania
2020-09-11,7829.0,147703,Pennsylvania
2020-09-12,7829.0,148635,Pennsylvania
2020-09-13,7829.0,148635,Pennsylvania
2020-09-14,7855.0,150000,Pennsylvania
2020-09-15,7860.0,151044,Pennsylvania
2020-09-16,7882.0,151850,Pennsylvania
2020-09-17,7893.0,152775,Pennsylvania
2020-09-18,7921.0,153522,Pennsylvania
2020-09-19,7940.0,154236,Pennsylvania
2020-09-20,7960.0,154867,Pennsylvania
2020-09-21,7985.0,155693,Pennsylvania
2020-09-22,8002.0,156477,Pennsylvania
2020-09-23,8038.0,157336,Pennsylvania
2020-09-24,8054.0,158181,Pennsylvania
2020-09-25,8065.0,159014,Pennsylvania
2020-09-26,8083.0,159933,Pennsylvania
2020-09-27,8086.0,160744,Pennsylvania
2020-09-28,8088.0,161594,Pennsylvania
2020-09-29,8101.0,163180,Pennsylvania
2020-09-30,8130.0,164099,Pennsylvania
2020-10-01,8144.0,165044,Pennsylvania
2020-10-02,8162.0,166238,Pennsylvania
2020-10-03,8180.0,166238,Pennsylvania
2020-10-04,8195.0,168126,Pennsylvania
2020-10-05,8207.0,169101,Pennsylvania
2020-10-06,8223.0,170224,Pennsylvania
2020-10-07,8247.0,171527,Pennsylvania
2020-10-08,8268.0,172948,Pennsylvania
2020-10-09,8292.0,174329,Pennsylvania
2020-10-10,8324.0,175797,Pennsylvania
2020-10-11,8330.0,176781,Pennsylvania
2020-10-12,8347.0,177819,Pennsylvania
2020-10-13,8361.0,179651,Pennsylvania
2020-10-14,8391.0,180935,Pennsylvania
2020-10-15,8413.0,182486,Pennsylvania
2020-10-16,8434.0,184165,Pennsylvania
2020-10-17,8442.0,185668,Pennsylvania
2020-10-18,8465.0,186754,Pennsylvania
2020-10-19,8475.0,188381,Pennsylvania
2020-10-20,8516.0,189970,Pennsylvania
2020-10-21,8546.0,191333,Pennsylvania
2020-10-22,8574.0,193401,Pennsylvania
2020-10-23,8608.0,195655,Pennsylvania
2020-10-24,8636.0,197370,Pennsylvania
2020-10-25,8647.0,198713,Pennsylvania
2020-10-26,8659.0,201248,Pennsylvania
2020-10-27,8683.0,203520,Pennsylvania
2020-10-28,8707.0,205852,Pennsylvania
2020-10-29,8743.0,208087,Pennsylvania
2020-10-30,8774.0,210586,Pennsylvania
2020-10-31,8800.0,212791,Pennsylvania
2020-11-01,8803.0,214416,Pennsylvania
2020-11-02,8812.0,217243,Pennsylvania
2020-11-03,8842.0,220074,Pennsylvania
2020-11-04,8878.0,222883,Pennsylvania
2020-11-05,8923.0,225698,Pennsylvania
2020-11-06,8964.0,229346,Pennsylvania
2020-11-07,9001.0,232493,Pennsylvania
2020-11-08,9005.0,235014,Pennsylvania
2020-11-09,9008.0,239724,Pennsylvania
2020-11-10,9079.0,244046,Pennsylvania
2020-11-11,9136.0,248015,Pennsylvania
2020-11-12,9182.0,254155,Pennsylvania
2020-11-13,9210.0,259988,Pennsylvania
2020-11-14,9252.0,264222,Pennsylvania
2020-11-15,9290.0,268696,Pennsylvania
2020-11-16,9310.0,275235,Pennsylvania
2020-11-17,9346.0,280957,Pennsylvania
2020-11-18,9463.0,287425,Pennsylvania
2020-11-19,9569.0,294294,Pennsylvania
2020-11-20,9676.0,301304,Pennsylvania
2020-11-21,9775.0,306988,Pennsylvania
2020-11-22,9816.0,313358,Pennsylvania
2020-11-23,9846.0,320158,Pennsylvania
2020-11-24,9924.0,326513,Pennsylvania
2020-11-25,10070.0,333465,Pennsylvania
2020-11-26,10172.0,340642,Pennsylvania
2020-11-27,10195.0,349238,Pennsylvania
2020-11-28,10234.0,355945,Pennsylvania
2020-11-29,10297.0,360944,Pennsylvania
2020-11-30,10335.0,366835,Pennsylvania
2020-12-01,10504.0,372530,Pennsylvania
2020-12-02,10676.0,380951,Pennsylvania
2020-12-03,10871.0,392434,Pennsylvania
2020-12-04,11052.0,404521,Pennsylvania
2020-12-05,11191.0,415635,Pennsylvania
2020-12-06,11255.0,423100,Pennsylvania
2020-12-07,11319.0,432207,Pennsylvania
2020-12-08,11521.0,442311,Pennsylvania
2020-12-09,11726.0,450924,Pennsylvania
2020-12-10,11961.0,462954,Pennsylvania
2020-12-11,12183.0,476249,Pennsylvania
2020-12-12,12371.0,485330,Pennsylvania
2020-12-13,12490.0,495099,Pennsylvania
2020-12-14,12552.0,505174,Pennsylvania
2020-12-15,12796.0,514749,Pennsylvania
2020-12-16,13109.0,524940,Pennsylvania
2020-12-17,13329.0,534948,Pennsylvania
2020-12-18,13549.0,544116,Pennsylvania
2020-12-19,13754.0,552895,Pennsylvania
2020-12-20,13834.0,559256,Pennsylvania
2020-12-21,13890.0,569099,Pennsylvania
2020-12-22,14197.0,576787,Pennsylvania
2020-12-23,14440.0,586474,Pennsylvania
2020-12-24,14707.0,595808,Pennsylvania
2020-12-25,14837.0,601940,Pennsylvania
2020-12-26,14858.0,608767,Pennsylvania
2020-12-27,14969.0,613272,Pennsylvania
2020-12-28,15055.0,618902,Pennsylvania
2020-12-29,15343.0,627526,Pennsylvania
2020-12-30,15665.0,636061,Pennsylvania
2020-12-31,15947.0,645390,Pennsylvania
2021-01-01,16155.0,652091,Pennsylvania
2021-01-02,16179.0,660580,Pennsylvania
2021-01-03,16230.0,664913,Pennsylvania
2021-01-04,16335.0,670039,Pennsylvania
2021-01-05,16536.0,678998,Pennsylvania
2021-01-06,16915.0,688398,Pennsylvania
2021-01-07,17173.0,698005,Pennsylvania
2021-01-08,17376.0,708221,Pennsylvania
2021-01-09,17626.0,717277,Pennsylvania
2021-01-10,17717.0,723865,Pennsylvania
2021-01-11,17802.0,730773,Pennsylvania
2021-01-12,18045.0,737994,Pennsylvania
2021-01-13,18412.0,746002,Pennsylvania
2021-01-14,18710.0,753164,Pennsylvania
2021-01-15,18935.0,759243,Pennsylvania
2021-01-16,19143.0,765489,Pennsylvania
2021-01-17,19255.0,770985,Pennsylvania
2021-01-18,19330.0,774566,Pennsylvania
2021-01-19,19423.0,781947,Pennsylvania
2021-01-20,19811.0,787584,Pennsylvania
2021-01-21,20063.0,793138,Pennsylvania
2021-01-22,20269.0,798438,Pennsylvania
2021-01-23,20454.0,803585,Pennsylvania
2021-01-24,20532.0,807102,Pennsylvania
2021-01-25,20593.0,812098,Pennsylvania
2021-01-26,20818.0,816761,Pennsylvania
2021-01-27,21032.0,822582,Pennsylvania
2021-01-28,21264.0,828632,Pennsylvania
2021-01-29,21437.0,838016,Pennsylvania
2021-01-30,21562.0,842475,Pennsylvania
2021-01-31,21617.0,846046,Pennsylvania
2021-02-01,21651.0,849966,Pennsylvania
2021-02-02,21775.0,854197,Pennsylvania
2021-02-03,21919.0,857332,Pennsylvania
2021-02-04,22048.0,860721,Pennsylvania
2021-02-05,22208.0,865448,Pennsylvania
2021-02-06,22353.0,869222,Pennsylvania
2021-02-07,22416.0,873146,Pennsylvania
2021-02-08,22443.0,876165,Pennsylvania
2021-02-09,22590.0,880838,Pennsylvania
2021-02-10,22726.0,883928,Pennsylvania
2021-02-11,22835.0,887863,Pennsylvania
2021-02-12,22948.0,891135,Pennsylvania
2021-02-13,23043.0,894660,Pennsylvania
2021-02-14,23065.0,896996,Pennsylvania
2021-02-15,23086.0,898654,Pennsylvania
2021-02-16,23100.0,901876,Pennsylvania
2021-02-17,23284.0,905370,Pennsylvania
2021-02-18,23381.0,908637,Pennsylvania
2021-02-19,23466.0,911421,Pennsylvania
2021-02-20,23540.0,913912,Pennsylvania
2021-02-21,23565.0,915639,Pennsylvania
2021-02-22,23580.0,917565,Pennsylvania
2021-02-23,23677.0,920385,Pennsylvania
2021-02-24,23759.0,923174,Pennsylvania
2021-02-25,23840.0,925563,Pennsylvania
2021-02-26,23895.0,928633,Pennsylvania
2021-02-27,23895.0,931531,Pennsylvania
2021-02-28,23967.0,933261,Pennsylvania
2021-03-01,23984.0,935822,Pennsylvania
2021-03-02,24062.0,938296,Pennsylvania
2021-03-03,24134.0,940923,Pennsylvania
2021-03-04,24208.0,943933,Pennsylvania
2021-03-05,24255.0,946734,Pennsylvania
2021-03-06,24306.0,949127,Pennsylvania
2021-03-07,24334.0,950773,Pennsylvania
2021-03-08,24344.0,952818,Pennsylvania
2021-03-09,24388.0,955743,Pennsylvania
2021-03-10,24427.0,958349,Pennsylvania
2021-03-11,24474.0,961092,Pennsylvania
2021-03-12,24510.0,964147,Pennsylvania
2021-03-13,24510.0,966538,Pennsylvania
2021-03-14,24510.0,968259,Pennsylvania
2021-03-15,24566.0,970281,Pennsylvania
2021-03-16,24660.0,973370,Pennsylvania
2021-03-17,24698.0,976442,Pennsylvania
2021-03-18,24722.0,979638,Pennsylvania
2021-03-19,24758.0,983109,Pennsylvania
2021-03-20,24783.0,986712,Pennsylvania
2021-03-21,24796.0,988656,Pennsylvania
2021-03-22,24774.0,991089,Pennsylvania
2021-03-23,24817.0,994694,Pennsylvania
2021-03-24,24857.0,999311,Pennsylvania
2021-03-25,24898.0,1002909,Pennsylvania
2021-03-26,24932.0,1007892,Pennsylvania
2021-03-27,24960.0,1013488,Pennsylvania
2021-03-28,24971.0,1013731,Pennsylvania
2021-03-29,24991.0,1017881,Pennsylvania
2021-03-30,25029.0,1022992,Pennsylvania
2021-03-31,25074.0,1027678,Pennsylvania
2021-04-01,25111.0,1031542,Pennsylvania
2021-04-02,25135.0,1035559,Pennsylvania
2021-04-03,25166.0,1040692,Pennsylvania
2020-08-14,1025.0,64227,Wisconsin
2020-08-15,1038.0,65056,Wisconsin
2020-08-16,1039.0,65741,Wisconsin
2020-08-17,1039.0,66196,Wisconsin
2020-08-18,1039.0,66196,Wisconsin
2020-08-19,1060.0,67493,Wisconsin
2020-08-20,1067.0,68233,Wisconsin
2020-08-21,1068.0,69059,Wisconsin
2020-08-22,1081.0,70009,Wisconsin
2020-08-23,1081.0,70462,Wisconsin
2020-08-24,1081.0,70854,Wisconsin
2020-08-25,1094.0,71492,Wisconsin
2020-08-26,1100.0,72260,Wisconsin
2020-08-27,1111.0,73138,Wisconsin
2020-08-28,1113.0,73981,Wisconsin
2020-08-29,1119.0,74800,Wisconsin
2020-08-30,1122.0,75337,Wisconsin
2020-08-31,1122.0,75603,Wisconsin
2020-09-01,1130.0,76584,Wisconsin
2020-09-02,1142.0,77129,Wisconsin
2020-09-03,1146.0,77856,Wisconsin
2020-09-04,1153.0,79354,Wisconsin
2020-09-05,1168.0,80300,Wisconsin
2020-09-06,1168.0,81193,Wisconsin
2020-09-07,1168.0,81760,Wisconsin
2020-09-08,1168.0,82477,Wisconsin
2020-09-09,1183.0,83334,Wisconsin
2020-09-10,1193.0,84881,Wisconsin
2020-09-11,1197.0,86250,Wisconsin
2020-09-12,1209.0,87603,Wisconsin
2020-09-13,1210.0,89185,Wisconsin
2020-09-14,1210.0,89956,Wisconsin
2020-09-15,1220.0,91304,Wisconsin
2020-09-16,1228.0,92712,Wisconsin
2020-09-17,1231.0,94746,Wisconsin
2020-09-18,1238.0,97279,Wisconsin
2020-09-19,1241.0,99562,Wisconsin
2020-09-20,1242.0,101227,Wisconsin
2020-09-21,1244.0,102498,Wisconsin
2020-09-22,1251.0,104170,Wisconsin
2020-09-23,1259.0,105932,Wisconsin
2020-09-24,1265.0,108324,Wisconsin
2020-09-25,1274.0,110828,Wisconsin
2020-09-26,1281.0,113645,Wisconsin
2020-09-27,1281.0,115862,Wisconsin
2020-09-28,1283.0,117588,Wisconsin
2020-09-29,1300.0,119955,Wisconsin
2020-09-30,1327.0,122274,Wisconsin
2020-10-01,1348.0,125161,Wisconsin
2020-10-02,1353.0,127906,Wisconsin
2020-10-03,1372.0,130798,Wisconsin
2020-10-04,1377.0,132663,Wisconsin
2020-10-05,1381.0,134359,Wisconsin
2020-10-06,1399.0,136379,Wisconsin
2020-10-07,1415.0,138698,Wisconsin
2020-10-08,1424.0,141830,Wisconsin
2020-10-09,1440.0,144818,Wisconsin
2020-10-10,1458.0,147560,Wisconsin
2020-10-11,1465.0,150236,Wisconsin
2020-10-12,1474.0,152192,Wisconsin
2020-10-13,1508.0,155471,Wisconsin
2020-10-14,1536.0,158578,Wisconsin
2020-10-15,1553.0,162325,Wisconsin
2020-10-16,1574.0,166186,Wisconsin
2020-10-17,1574.0,166186,Wisconsin
2020-10-18,1574.0,166186,Wisconsin
2020-10-19,1600.0,183142,Wisconsin
2020-10-20,1633.0,187828,Wisconsin
2020-10-21,1681.0,192191,Wisconsin
2020-10-22,1703.0,195823,Wisconsin
2020-10-23,1745.0,200466,Wisconsin
2020-10-24,1770.0,205139,Wisconsin
2020-10-25,1778.0,208917,Wisconsin
2020-10-26,1788.0,211928,Wisconsin
2020-10-27,1852.0,217429,Wisconsin
2020-10-28,1897.0,221559,Wisconsin
2020-10-29,1948.0,226704,Wisconsin
2020-10-30,1972.0,232061,Wisconsin
2020-10-31,2031.0,237869,Wisconsin
2020-11-01,2047.0,241422,Wisconsin
2020-11-02,2050.0,244927,Wisconsin
2020-11-03,2102.0,251031,Wisconsin
2020-11-04,2156.0,257287,Wisconsin
2020-11-05,2194.0,263571,Wisconsin
2020-11-06,2256.0,269982,Wisconsin
2020-11-07,2301.0,277503,Wisconsin
2020-11-08,2312.0,281910,Wisconsin
2020-11-09,2329.0,286380,Wisconsin
2020-11-10,2395.0,293812,Wisconsin
2020-11-11,2457.0,301349,Wisconsin
2020-11-12,2621.0,309572,Wisconsin
2020-11-13,2683.0,318023,Wisconsin
2020-11-14,2739.0,323604,Wisconsin
2020-11-15,2751.0,329924,Wisconsin
2020-11-16,2764.0,334562,Wisconsin
2020-11-17,2867.0,342155,Wisconsin
2020-11-18,2925.0,350665,Wisconsin
2020-11-19,3010.0,358113,Wisconsin
2020-11-20,3091.0,365190,Wisconsin
2020-11-21,3143.0,372219,Wisconsin
2020-11-22,3150.0,376238,Wisconsin
2020-11-23,3158.0,379693,Wisconsin
2020-11-24,3272.0,386441,Wisconsin
2020-11-25,3343.0,392438,Wisconsin
2020-11-26,3415.0,398104,Wisconsin
2020-11-27,3434.0,399526,Wisconsin
2020-11-28,3464.0,404999,Wisconsin
2020-11-29,3487.0,409054,Wisconsin
2020-11-30,3494.0,411730,Wisconsin
2020-12-01,3611.0,416365,Wisconsin
2020-12-02,3703.0,420930,Wisconsin
2020-12-03,3773.0,426534,Wisconsin
2020-12-04,3842.0,432207,Wisconsin
2020-12-05,3934.0,437918,Wisconsin
2020-12-06,3952.0,441067,Wisconsin
2020-12-07,3973.0,443389,Wisconsin
2020-12-08,4054.0,448009,Wisconsin
2020-12-09,4142.0,452180,Wisconsin
2020-12-10,4209.0,456889,Wisconsin
2020-12-11,4266.0,461367,Wisconsin
2020-12-12,4324.0,465991,Wisconsin
2020-12-13,4339.0,468956,Wisconsin
2020-12-14,4352.0,471285,Wisconsin
2020-12-15,4408.0,475340,Wisconsin
2020-12-16,4493.0,478162,Wisconsin
2020-12-17,4561.0,482443,Wisconsin
2020-12-18,4632.0,486364,Wisconsin
2020-12-19,4722.0,490679,Wisconsin
2020-12-20,4743.0,492724,Wisconsin
2020-12-21,4751.0,494353,Wisconsin
2020-12-22,4879.0,497380,Wisconsin
2020-12-23,4953.0,500443,Wisconsin
2020-12-24,5019.0,503706,Wisconsin
2020-12-25,5025.0,505345,Wisconsin
2020-12-26,5029.0,506022,Wisconsin
2020-12-27,5039.0,508580,Wisconsin
2020-12-28,5060.0,510137,Wisconsin
2020-12-29,5152.0,513056,Wisconsin
2020-12-30,5192.0,516226,Wisconsin
2020-12-31,5242.0,520438,Wisconsin
2021-01-01,5254.0,522523,Wisconsin
2021-01-02,5256.0,523652,Wisconsin
2021-01-03,5261.0,526245,Wisconsin
2021-01-04,5269.0,527871,Wisconsin
2021-01-05,5366.0,531890,Wisconsin
2021-01-06,5435.0,535999,Wisconsin
2021-01-07,5477.0,540508,Wisconsin
2021-01-08,5529.0,544618,Wisconsin
2021-01-09,5567.0,548134,Wisconsin
2021-01-10,5570.0,550260,Wisconsin
2021-01-11,5575.0,551942,Wisconsin
2021-01-12,5633.0,555249,Wisconsin
2021-01-13,5679.0,558020,Wisconsin
2021-01-14,5728.0,561160,Wisconsin
2021-01-15,5770.0,563866,Wisconsin
2021-01-16,5905.0,566275,Wisconsin
2021-01-17,5906.0,568166,Wisconsin
2021-01-18,5926.0,569335,Wisconsin
2021-01-19,5973.0,571268,Wisconsin
2021-01-20,6035.0,573119,Wisconsin
2021-01-21,6090.0,575688,Wisconsin
2021-01-22,6135.0,577991,Wisconsin
2021-01-23,6184.0,580003,Wisconsin
2021-01-24,6190.0,581377,Wisconsin
2021-01-25,6199.0,582477,Wisconsin
2021-01-26,6264.0,584041,Wisconsin
2021-01-27,6302.0,585600,Wisconsin
2021-01-28,6334.0,587580,Wisconsin
2021-01-29,6390.0,589384,Wisconsin
2021-01-30,6430.0,590997,Wisconsin
2021-01-31,6434.0,592140,Wisconsin
2021-02-01,6436.0,592921,Wisconsin
2021-02-02,6480.0,594217,Wisconsin
2021-02-03,6496.0,595756,Wisconsin
2021-02-04,6545.0,597475,Wisconsin
2021-02-05,6575.0,598902,Wisconsin
2021-02-06,6611.0,600016,Wisconsin
2021-02-07,6613.0,600782,Wisconsin
2021-02-08,6614.0,601391,Wisconsin
2021-02-09,6663.0,602256,Wisconsin
2021-02-10,6705.0,603255,Wisconsin
2021-02-11,6723.0,604683,Wisconsin
2021-02-12,6734.0,605785,Wisconsin
2021-02-13,6744.0,606651,Wisconsin
2021-02-14,6745.0,607213,Wisconsin
2021-02-15,6749.0,607639,Wisconsin
2021-02-16,6788.0,608418,Wisconsin
2021-02-17,6798.0,609189,Wisconsin
2021-02-18,6816.0,610055,Wisconsin
2021-02-19,6852.0,610974,Wisconsin
2021-02-20,6871.0,611789,Wisconsin
2021-02-21,6871.0,612240,Wisconsin
2021-02-22,6871.0,612712,Wisconsin
2021-02-23,6910.0,613419,Wisconsin
2021-02-24,6936.0,614260,Wisconsin
2021-02-25,6994.0,615225,Wisconsin
2021-02-26,6999.0,616018,Wisconsin
2021-02-27,7014.0,616886,Wisconsin
2021-02-28,7014.0,617367,Wisconsin
2021-03-01,7014.0,617700,Wisconsin
2021-03-02,7050.0,618307,Wisconsin
2021-03-03,7069.0,619087,Wisconsin
2021-03-04,7082.0,619942,Wisconsin
2021-03-05,7094.0,620663,Wisconsin
2021-03-06,7103.0,621275,Wisconsin
2021-03-07,7106.0,621654,Wisconsin
2021-03-08,7106.0,621842,Wisconsin
2021-03-09,7134.0,622444,Wisconsin
2021-03-10,7150.0,623150,Wisconsin
2021-03-11,7160.0,623801,Wisconsin
2021-03-12,7164.0,624508,Wisconsin
2021-03-13,7178.0,625045,Wisconsin
2021-03-14,7176.0,625359,Wisconsin
2021-03-15,7177.0,625690,Wisconsin
2021-03-16,7182.0,626364,Wisconsin
2021-03-17,7201.0,627060,Wisconsin
2021-03-18,7208.0,627743,Wisconsin
2021-03-19,7222.0,628428,Wisconsin
2021-03-20,7240.0,628969,Wisconsin
2021-03-21,7240.0,629407,Wisconsin
2021-03-22,7240.0,629787,Wisconsin
2021-03-23,7240.0,629787,Wisconsin
2021-03-24,7263.0,631301,Wisconsin
2021-03-25,7267.0,632123,Wisconsin
2021-03-26,7271.0,632945,Wisconsin
2021-03-27,7274.0,633663,Wisconsin
2021-03-28,7274.0,634133,Wisconsin
2021-03-29,7277.0,634453,Wisconsin
2021-03-30,7292.0,635314,Wisconsin
2021-03-31,7315.0,636041,Wisconsin
2021-04-01,7326.0,636908,Wisconsin
2021-04-02,7336.0,637801,Wisconsin
2021-04-03,7341.0,638590,Wisconsin