date,deaths,cases,location
2020-06-05,5795,125915,Illinois
2020-06-06,5864,126890,Illinois
2020-06-07,5904,127757,Illinois
2020-06-08,5924,128415,Illinois
2020-06-09,6018,129212,Illinois
2020-06-10,6095,129837,Illinois
2020-06-11,6185,130603,Illinois
2020-06-12,6260,131198,Illinois
2020-06-13,6289,131871,Illinois
2020-06-14,6308,132543,Illinois
2020-06-15,6326,133016,Illinois
2020-06-16,6398,133639,Illinois
2020-06-17,6485,134185,Illinois
2020-06-18,6537,134778,Illinois
2020-06-19,6580,135470,Illinois
2020-06-20,6625,136104,Illinois
2020-06-21,6647,136762,Illinois
2020-06-22,6671,137224,Illinois
2020-06-23,6707,137825,Illinois
2020-06-24,6770,138540,Illinois
2020-06-25,6810,139434,Illinois
2020-06-26,6847,140291,Illinois
2020-06-27,6873,141077,Illinois
2020-06-28,6888,141723,Illinois
2020-06-29,6902,142461,Illinois
2020-06-30,6923,143185,Illinois
2020-07-01,6951,144013,Illinois
2020-07-02,6951,144013,Illinois
2020-07-03,7005,145750,Illinois
2020-07-04,7014,146612,Illinois
2020-07-05,7020,147251,Illinois
2020-07-06,7026,147865,Illinois
2020-07-07,7273,149574,Illinois
2020-07-08,7309,150554,Illinois
2020-07-09,7329,151572,Illinois
2020-07-10,7345,152899,Illinois
2020-07-11,7369,154094,Illinois
2020-07-12,7388,155048,Illinois
2020-07-13,7394,155931,Illinois
2020-07-14,7419,156638,Illinois
2020-07-15,7427,157825,Illinois
2020-07-16,7452,159082,Illinois
2020-07-17,7465,160509,Illinois
2020-07-18,7483,161785,Illinois
2020-07-19,7488,162750,Illinois
2020-07-20,7494,163922,Illinois
2020-07-21,7517,164864,Illinois
2020-07-22,7540,166475,Illinois
2020-07-23,7560,168096,Illinois
2020-07-24,7577,169696,Illinois
2020-07-25,7589,171122,Illinois
2020-07-26,7590,172663,Illinois
2020-07-27,7608,173894,Illinois
2020-07-28,7638,174968,Illinois
2020-07-29,7654,176363,Illinois
2020-07-30,7670,178135,Illinois
2020-07-31,7692,180115,Illinois
2020-08-01,7700,181754,Illinois
2020-08-02,7714,183224,Illinois
2020-08-03,7723,184522,Illinois
2020-08-04,7742,185993,Illinois
2020-08-05,7770,187752,Illinois
2020-08-06,7791,189705,Illinois
2020-08-07,7822,191808,Illinois
2020-08-08,7840,193998,Illinois
2020-08-09,7845,195380,Illinois
2020-08-10,7846,196699,Illinois
2020-08-11,7866,198248,Illinois
2020-08-12,7881,199893,Illinois
2020-08-13,7905,201727,Illinois
2020-08-14,7932,204023,Illinois
2020-08-15,7937,205851,Illinois
2020-08-16,7955,207412,Illinois
2020-08-17,7967,209185,Illinois
2020-08-18,7994,210924,Illinois
2020-08-19,8017,213220,Illinois
2020-08-20,8044,215052,Illinois
2020-08-21,8066,217345,Illinois
2020-08-22,8083,219701,Illinois
2020-08-23,8089,221594,Illinois
2020-08-24,8097,223206,Illinois
2020-08-25,8126,224887,Illinois
2020-08-26,8163,227043,Illinois
2020-08-27,8186,228750,Illinois
2020-08-28,8206,231186,Illinois
2020-08-29,8217,233066,Illinois
2020-08-30,8228,235058,Illinois
2020-08-31,8235,236724,Illinois
2020-09-01,8273,238216,Illinois
2020-09-02,8300,240344,Illinois
2020-09-03,8324,241704,Illinois
2020-09-04,8362,247298,Illinois
2020-09-05,8385,250102,Illinois
2020-09-06,8390,251515,Illinois
2020-09-07,8398,252884,Illinois
2020-09-08,8405,254276,Illinois
2020-09-09,8433,255613,Illinois
2020-09-10,8461,257566,Illinois
2020-09-11,8505,259879,Illinois
2020-09-12,8527,261999,Illinois
2020-09-13,8541,263459,Illinois
2020-09-14,8546,264831,Illinois
2020-09-15,8564,266295,Illinois
2020-09-16,8599,268238,Illinois
2020-09-17,8624,270294,Illinois
2020-09-18,8647,272517,Illinois
2020-09-19,8672,275041,Illinois
2020-09-20,8686,276443,Illinois
2020-09-21,8693,277920,Illinois
2020-09-22,8722,279453,Illinois
2020-09-23,8744,281303,Illinois
2020-09-24,8774,283559,Illinois
2020-09-25,8807,286332,Illinois
2020-09-26,8832,288773,Illinois
2020-09-27,8845,290373,Illinois
2020-09-28,8858,292082,Illinois
2020-09-29,8881,293448,Illinois
2020-09-30,8916,295720,Illinois
2020-10-01,8940,297884,Illinois
2020-10-02,8992,300340,Illinois
2020-10-03,9023,302782,Illinois
2020-10-04,9040,304235,Illinois
2020-10-05,9054,306088,Illinois
2020-10-06,9085,307705,Illinois
2020-10-07,9127,310335,Illinois
2020-10-08,9159,313429,Illinois
2020-10-09,9191,316546,Illinois
2020-10-10,9221,319451,Illinois
2020-10-11,9230,322178,Illinois
2020-10-12,9243,324918,Illinois
2020-10-13,9273,327771,Illinois
2020-10-14,9320,330637,Illinois
2020-10-15,9373,334651,Illinois
2020-10-16,9425,339757,Illinois
2020-10-17,9452,343386,Illinois
2020-10-18,9474,347631,Illinois
2020-10-19,9496,350744,Illinois
2020-10-20,9537,354457,Illinois
2020-10-21,9605,358799,Illinois
2020-10-22,9647,363740,Illinois
2020-10-23,9688,368740,Illinois
2020-10-24,9751,374901,Illinois
2020-10-25,9775,378958,Illinois
2020-10-26,9792,383687,Illinois
2020-10-27,9838,387687,Illinois
2020-10-28,9889,393797,Illinois
2020-10-29,9945,400159,Illinois
2020-10-30,9994,408648,Illinois
2020-10-31,10040,416547,Illinois
2020-11-01,10075,423527,Illinois
2020-11-02,10093,429749,Illinois
2020-11-03,10161,436265,Illinois
2020-11-04,10216,443803,Illinois
2020-11-05,10313,453738,Illinois
2020-11-06,10397,465540,Illinois
2020-11-07,10488,477978,Illinois
2020-11-08,10538,487987,Illinois
2020-11-09,10563,498560,Illinois
2020-11-10,10645,511183,Illinois
2020-11-11,10798,523840,Illinois
2020-11-12,10846,536542,Illinois
2020-11-13,10891,551957,Illinois
2020-11-14,11088,562985,Illinois
2020-11-15,11162,573616,Illinois
2020-11-16,11204,585248,Illinois
2020-11-17,11317,597849,Illinois
2020-11-18,11468,606771,Illinois
2020-11-19,11648,621383,Illinois
2020-11-20,11795,634395,Illinois
2020-11-21,11951,646286,Illinois
2020-11-22,12050,656298,Illinois
2020-11-23,12111,664620,Illinois
2020-11-24,12261,674089,Illinois
2020-11-25,12439,685467,Illinois
2020-11-26,12594,697489,Illinois
2020-11-27,12685,705063,Illinois
2020-11-28,12838,712936,Illinois
2020-11-29,12882,720114,Illinois
2020-11-30,12985,726304,Illinois
2020-12-01,13131,738846,Illinois
2020-12-02,13397,748603,Illinois
2020-12-03,13624,759562,Illinois
2020-12-04,13782,770088,Illinois
2020-12-05,14016,779975,Illinois
2020-12-06,14116,787573,Illinois
2020-12-07,14214,796264,Illinois
2020-12-08,14384,804174,Illinois
2020-12-09,14612,812430,Illinois
2020-12-10,14844,823531,Illinois
2020-12-11,15067,832951,Illinois
2020-12-12,15231,841688,Illinois
2020-12-13,15339,848904,Illinois
2020-12-14,15454,856118,Illinois
2020-12-15,15587,863477,Illinois
2020-12-16,15777,870600,Illinois
2020-12-17,15985,879428,Illinois
2020-12-18,16206,886805,Illinois
2020-12-19,16326,894367,Illinois
2020-12-20,16407,900370,Illinois
2020-12-21,16527,905069,Illinois
2020-12-22,16671,911308,Illinois
2020-12-23,16842,918070,Illinois
2020-12-24,16960,925107,Illinois
2020-12-25,17154,930849,Illinois
2020-12-26,17224,934142,Illinois
2020-12-27,17336,937909,Illinois
2020-12-28,17470,942362,Illinois
2020-12-29,17596,948006,Illinois
2020-12-30,17811,955380,Illinois
2020-12-31,17978,963389,Illinois
2021-01-01,17978,963389,Illinois
2021-01-02,18214,975352,Illinois
2020-06-05,2258,36578,Indiana
2020-06-06,2292,36997,Indiana
2020-06-07,2303,37397,Indiana
2020-06-08,2316,37623,Indiana
2020-06-09,2339,38033,Indiana
2020-06-10,2355,38337,Indiana
2020-06-11,2380,38748,Indiana
2020-06-12,2396,39146,Indiana
2020-06-13,2413,39543,Indiana
2020-06-14,2422,39909,Indiana
2020-06-15,2433,40430,Indiana
2020-06-16,2447,40786,Indiana
2020-06-17,2475,41013,Indiana
2020-06-18,2491,41438,Indiana
2020-06-19,2516,41746,Indiana
2020-06-20,2536,42061,Indiana
2020-06-21,2540,42423,Indiana
2020-06-22,2553,42633,Indiana
2020-06-23,2569,42871,Indiana
2020-06-24,2578,43140,Indiana
2020-06-25,2586,43655,Indiana
2020-06-26,2595,44140,Indiana
2020-06-27,2616,44575,Indiana
2020-06-28,2619,44930,Indiana
2020-06-29,2624,45228,Indiana
2020-06-30,2640,45594,Indiana
2020-07-01,2650,45952,Indiana
2020-07-02,2662,46387,Indiana
2020-07-03,2681,46915,Indiana
2020-07-04,2687,47432,Indiana
2020-07-05,2693,48201,Indiana
2020-07-06,2698,48524,Indiana
2020-07-07,2717,48626,Indiana
2020-07-08,2732,49063,Indiana
2020-07-09,2739,49575,Indiana
2020-07-10,2748,50300,Indiana
2020-07-11,2756,51079,Indiana
2020-07-12,2760,51612,Indiana
2020-07-13,2762,52037,Indiana
2020-07-14,2775,52685,Indiana
2020-07-15,2785,53370,Indiana
2020-07-16,2795,54080,Indiana
2020-07-17,2803,54813,Indiana
2020-07-18,2820,55654,Indiana
2020-07-19,2822,56571,Indiana
2020-07-20,2825,57206,Indiana
2020-07-21,2846,57916,Indiana
2020-07-22,2863,58673,Indiana
2020-07-23,2880,59602,Indiana
2020-07-24,2884,60598,Indiana
2020-07-25,2895,61520,Indiana
2020-07-26,2903,62372,Indiana
2020-07-27,2906,62907,Indiana
2020-07-28,2924,63678,Indiana
2020-07-29,2932,64299,Indiana
2020-07-30,2946,65253,Indiana
2020-07-31,2965,66154,Indiana
2020-08-01,2971,67122,Indiana
2020-08-02,2975,67857,Indiana
2020-08-03,2980,68433,Indiana
2020-08-04,2996,69255,Indiana
2020-08-05,3007,69975,Indiana
2020-08-06,3013,71015,Indiana
2020-08-07,3023,72254,Indiana
2020-08-08,3036,73287,Indiana
2020-08-09,3041,74328,Indiana
2020-08-10,3044,74992,Indiana
2020-08-11,3069,75862,Indiana
2020-08-12,3086,76522,Indiana
2020-08-13,3105,77565,Indiana
2020-08-14,3113,78632,Indiana
2020-08-15,3128,79676,Indiana
2020-08-16,3133,80415,Indiana
2020-08-17,3135,81006,Indiana
2020-08-18,3165,81847,Indiana
2020-08-19,3180,82336,Indiana
2020-08-20,3191,83277,Indiana
2020-08-21,3208,84317,Indiana
2020-08-22,3218,85317,Indiana
2020-08-23,3220,85932,Indiana
2020-08-24,3225,87592,Indiana
2020-08-25,3241,88421,Indiana
2020-08-26,3259,89359,Indiana
2020-08-27,3266,90504,Indiana
2020-08-28,3277,91313,Indiana
2020-08-29,3285,92434,Indiana
2020-08-30,3291,93313,Indiana
2020-08-31,3296,94196,Indiana
2020-09-01,3312,94891,Indiana
2020-09-02,3325,95750,Indiana
2020-09-03,3332,96854,Indiana
2020-09-04,3350,97884,Indiana
2020-09-05,3362,98961,Indiana
2020-09-06,3364,99804,Indiana
2020-09-07,3368,100394,Indiana
2020-09-08,3380,100780,Indiana
2020-09-09,3397,101485,Indiana
2020-09-10,3410,102243,Indiana
2020-09-11,3420,103505,Indiana
2020-09-12,3437,104561,Indiana
2020-09-13,3438,105804,Indiana
2020-09-14,3439,106540,Indiana
2020-09-15,3460,107229,Indiana
2020-09-16,3472,107809,Indiana
2020-09-17,3478,108646,Indiana
2020-09-18,3495,109683,Indiana
2020-09-19,3503,110759,Indiana
2020-09-20,3506,111505,Indiana
2020-09-21,3512,112027,Indiana
2020-09-22,3520,112626,Indiana
2020-09-23,3530,113337,Indiana
2020-09-24,3548,114236,Indiana
2020-09-25,3566,115407,Indiana
2020-09-26,3577,116549,Indiana
2020-09-27,3580,117450,Indiana
2020-09-28,3591,118322,Indiana
2020-09-29,3612,119066,Indiana
2020-09-30,3632,120019,Indiana
2020-10-01,3645,121176,Indiana
2020-10-02,3656,122640,Indiana
2020-10-03,3669,124059,Indiana
2020-10-04,3674,125146,Indiana
2020-10-05,3681,125976,Indiana
2020-10-06,3711,126946,Indiana
2020-10-07,3727,128227,Indiana
2020-10-08,3742,129677,Indiana
2020-10-09,3761,131493,Indiana
2020-10-10,3782,133411,Indiana
2020-10-11,3789,134981,Indiana
2020-10-12,3795,136555,Indiana
2020-10-13,3822,138104,Indiana
2020-10-14,3836,139269,Indiana
2020-10-15,3864,141212,Indiana
2020-10-16,3887,143495,Indiana
2020-10-17,3918,145977,Indiana
2020-10-18,3937,147582,Indiana
2020-10-19,3960,149166,Indiana
2020-10-20,4008,150664,Indiana
2020-10-21,4023,152396,Indiana
2020-10-22,4065,155246,Indiana
2020-10-23,4092,157713,Indiana
2020-10-24,4118,160454,Indiana
2020-10-25,4130,162607,Indiana
2020-10-26,4143,164581,Indiana
2020-10-27,4194,166564,Indiana
2020-10-28,4227,169112,Indiana
2020-10-29,4260,172730,Indiana
2020-10-30,4286,175893,Indiana
2020-10-31,4332,179358,Indiana
2020-11-01,4364,182108,Indiana
2020-11-02,4390,185185,Indiana
2020-11-03,4439,188066,Indiana
2020-11-04,4464,191764,Indiana
2020-11-05,4511,196176,Indiana
2020-11-06,4547,200823,Indiana
2020-11-07,4592,205722,Indiana
2020-11-08,4629,210374,Indiana
2020-11-09,4664,214509,Indiana
2020-11-10,4731,219338,Indiana
2020-11-11,4762,224374,Indiana
2020-11-12,4813,230965,Indiana
2020-11-13,4863,236565,Indiana
2020-11-14,4888,244887,Indiana
2020-11-15,4910,251597,Indiana
2020-11-16,4936,256744,Indiana
2020-11-17,5025,262207,Indiana
2020-11-18,5084,268222,Indiana
2020-11-19,5143,275503,Indiana
2020-11-20,5206,282311,Indiana
2020-11-21,5246,289183,Indiana
2020-11-22,5305,295357,Indiana
2020-11-23,5332,300913,Indiana
2020-11-24,5435,306538,Indiana
2020-11-25,5498,312521,Indiana
2020-11-26,5561,318894,Indiana
2020-11-27,5594,324537,Indiana
2020-11-28,5663,329008,Indiana
2020-11-29,5685,333312,Indiana
2020-11-30,5723,338977,Indiana
2020-12-01,5864,344373,Indiana
2020-12-02,5973,350970,Indiana
2020-12-03,6033,359430,Indiana
2020-12-04,6122,367329,Indiana
2020-12-05,6207,375019,Indiana
2020-12-06,6242,381617,Indiana
2020-12-07,6284,387278,Indiana
2020-12-08,6410,392663,Indiana
2020-12-09,6506,398417,Indiana
2020-12-10,6603,404935,Indiana
2020-12-11,6673,412135,Indiana
2020-12-12,6758,419536,Indiana
2020-12-13,6805,425434,Indiana
2020-12-14,6840,430401,Indiana
2020-12-15,6968,434642,Indiana
2020-12-16,7101,440850,Indiana
2020-12-17,7180,447190,Indiana
2020-12-18,7265,453139,Indiana
2020-12-19,7338,457871,Indiana
2020-12-20,7404,464354,Indiana
2020-12-21,7438,468219,Indiana
2020-12-22,7581,471876,Indiana
2020-12-23,7645,476538,Indiana
2020-12-24,7730,482734,Indiana
2020-12-25,7770,488180,Indiana
2020-12-26,7801,492021,Indiana
2020-12-27,7843,493841,Indiana
2020-12-28,7886,496306,Indiana
2020-12-29,8051,500282,Indiana
2020-12-30,8160,505017,Indiana
2020-12-31,8263,511485,Indiana
2021-01-01,8371,517773,Indiana
2021-01-02,8410,523090,Indiana
2020-06-05,5854,63777,Michigan
2020-06-06,5894,64229,Michigan
2020-06-07,5898,64648,Michigan
2020-06-08,5916,64944,Michigan
2020-06-09,5943,64998,Michigan
2020-06-10,5955,65182,Michigan
2020-06-11,5985,65449,Michigan
2020-06-12,5990,65672,Michigan
2020-06-13,6013,65836,Michigan
2020-06-14,6016,66054,Michigan
2020-06-15,6018,66085,Michigan
2020-06-16,6034,66269,Michigan
2020-06-17,6036,66497,Michigan
2020-06-18,6061,66798,Michigan
2020-06-19,6067,67097,Michigan
2020-06-20,6087,67545,Michigan
2020-06-21,6090,67711,Michigan
2020-06-22,6097,67957,Michigan
2020-06-23,6109,68197,Michigan
2020-06-24,6114,68555,Michigan
2020-06-25,6133,68989,Michigan
2020-06-26,6134,69329,Michigan
2020-06-27,6153,69679,Michigan
2020-06-28,6157,69946,Michigan
2020-06-29,6161,70223,Michigan
2020-06-30,6193,70728,Michigan
2020-07-01,6198,71089,Michigan
2020-07-02,6212,71678,Michigan
2020-07-03,6215,72175,Michigan
2020-07-04,6218,72581,Michigan
2020-07-05,6218,72941,Michigan
2020-07-06,6221,73267,Michigan
2020-07-07,6251,73900,Michigan
2020-07-08,6262,74551,Michigan
2020-07-09,6271,75063,Michigan
2020-07-10,6285,75685,Michigan
2020-07-11,6313,76370,Michigan
2020-07-12,6314,76776,Michigan
2020-07-13,6321,77198,Michigan
2020-07-14,6326,77864,Michigan
2020-07-15,6330,78913,Michigan
2020-07-16,6348,79839,Michigan
2020-07-17,6355,80593,Michigan
2020-07-18,6364,81338,Michigan
2020-07-19,6366,81868,Michigan
2020-07-20,6373,82395,Michigan
2020-07-21,6382,83059,Michigan
2020-07-22,6388,83730,Michigan
2020-07-23,6395,84431,Michigan
2020-07-24,6400,85072,Michigan
2020-07-25,6400,85622,Michigan
2020-07-26,6400,86661,Michigan
2020-07-27,6405,87173,Michigan
2020-07-28,6421,87958,Michigan
2020-07-29,6422,88974,Michigan
2020-07-30,6443,89781,Michigan
2020-07-31,6450,90574,Michigan
2020-08-01,6457,91332,Michigan
2020-08-02,6457,91758,Michigan
2020-08-03,6467,92374,Michigan
2020-08-04,6471,93175,Michigan
2020-08-05,6478,93893,Michigan
2020-08-06,6506,94656,Michigan
2020-08-07,6524,95470,Michigan
2020-08-08,6520,96191,Michigan
2020-08-09,6519,96726,Michigan
2020-08-10,6526,97306,Michigan
2020-08-11,6533,98213,Michigan
2020-08-12,6539,98689,Michigan
2020-08-13,6555,99856,Michigan
2020-08-14,6566,100724,Michigan
2020-08-15,6586,101782,Michigan
2020-08-16,6592,102259,Michigan
2020-08-17,6592,102749,Michigan
2020-08-18,6608,103402,Michigan
2020-08-19,6618,104091,Michigan
2020-08-20,6634,104618,Michigan
2020-08-21,6634,104618,Michigan
2020-08-22,6655,106044,Michigan
2020-08-23,6659,106808,Michigan
2020-08-24,6663,107686,Michigan
2020-08-25,6684,108637,Michigan
2020-08-26,6690,109480,Michigan
2020-08-27,6706,110343,Michigan
2020-08-28,6712,111136,Michigan
2020-08-29,6712,111136,Michigan
2020-08-30,6748,112526,Michigan
2020-08-31,6753,113025,Michigan
2020-09-01,6767,113820,Michigan
2020-09-02,6781,114468,Michigan
2020-09-03,6791,115242,Michigan
2020-09-04,6798,116295,Michigan
2020-09-05,6806,117191,Michigan
2020-09-06,6806,117191,Michigan
2020-09-07,6810,118403,Michigan
2020-09-08,6811,118902,Michigan
2020-09-09,6886,119872,Michigan
2020-09-10,6894,120846,Michigan
2020-09-11,6900,122251,Michigan
2020-09-12,6911,123058,Michigan
2020-09-13,6911,123058,Michigan
2020-09-14,6921,124287,Michigan
2020-09-15,6932,124976,Michigan
2020-09-16,6943,125742,Michigan
2020-09-17,6955,126722,Michigan
2020-09-18,6954,127500,Michigan
2020-09-19,6969,128087,Michigan
2020-09-20,6969,128087,Michigan
2020-09-21,6981,129662,Michigan
2020-09-22,6997,130357,Michigan
2020-09-23,7013,131259,Michigan
2020-09-24,7019,132337,Michigan
2020-09-25,7027,133377,Michigan
2020-09-26,7044,134373,Michigan
2020-09-27,7044,134373,Michigan
2020-09-28,7051,135702,Michigan
2020-09-29,7072,136820,Michigan
2020-09-30,7083,138014,Michigan
2020-10-01,7102,139012,Michigan
2020-10-02,7110,139996,Michigan
2020-10-03,7124,141271,Michigan
2020-10-04,7124,141271,Michigan
2020-10-05,7139,142726,Michigan
2020-10-06,7161,143877,Michigan
2020-10-07,7169,145092,Michigan
2020-10-08,7193,146493,Michigan
2020-10-09,7200,147816,Michigan
2020-10-10,7219,149453,Michigan
2020-10-11,7219,149453,Michigan
2020-10-12,7225,151396,Michigan
2020-10-13,7255,152862,Michigan
2020-10-14,7268,154455,Michigan
2020-10-15,7302,156913,Michigan
2020-10-16,7317,159119,Michigan
2020-10-17,7340,161105,Michigan
2020-10-18,7340,161105,Michigan
2020-10-19,7363,164123,Michigan
2020-10-20,7383,165994,Michigan
2020-10-21,7418,167872,Michigan
2020-10-22,7464,170076,Michigan
2020-10-23,7484,172122,Michigan
2020-10-24,7522,175612,Michigan
2020-10-25,7522,175612,Michigan
2020-10-26,7552,179669,Michigan
2020-10-27,7585,182344,Michigan
2020-10-28,7606,185934,Michigan
2020-10-29,7653,190043,Michigan
2020-10-30,7665,193388,Michigan
2020-10-31,7699,197406,Michigan
2020-11-01,7699,197406,Michigan
2020-11-02,7716,204326,Michigan
2020-11-03,7761,207763,Michigan
2020-11-04,7782,212160,Michigan
2020-11-05,7833,218263,Michigan
2020-11-06,7880,222509,Michigan
2020-11-07,7945,229073,Michigan
2020-11-08,7945,229073,Michigan
2020-11-09,8008,238308,Michigan
2020-11-10,8094,245252,Michigan
2020-11-11,8136,251872,Michigan
2020-11-12,8185,259183,Michigan
2020-11-13,8308,268362,Michigan
2020-11-14,8376,275792,Michigan
2020-11-15,8376,275792,Michigan
2020-11-16,8431,288954,Michigan
2020-11-17,8511,296840,Michigan
2020-11-18,8573,303058,Michigan
2020-11-19,8717,311041,Michigan
2020-11-20,8774,321181,Michigan
2020-11-21,8875,329021,Michigan
2020-11-22,8875,329021,Michigan
2020-11-23,8940,340964,Michigan
2020-11-24,9094,347746,Michigan
2020-11-25,9170,352433,Michigan
2020-11-26,9170,352433,Michigan
2020-11-27,9357,369801,Michigan
2020-11-28,9467,378152,Michigan
2020-11-29,9467,378152,Michigan
2020-11-30,9564,388942,Michigan
2020-12-01,9759,395453,Michigan
2020-12-02,9842,402886,Michigan
2020-12-03,10035,410843,Michigan
2020-12-04,10117,420268,Michigan
2020-12-05,10321,426576,Michigan
2020-12-06,10321,426576,Michigan
2020-12-07,10422,436400,Michigan
2020-12-08,10625,443076,Michigan
2020-12-09,10706,448418,Michigan
2020-12-10,10900,454720,Michigan
2020-12-11,10965,460346,Michigan
2020-12-12,11195,465159,Michigan
2020-12-13,11195,465159,Michigan
2020-12-14,11289,472780,Michigan
2020-12-15,11495,478171,Michigan
2020-12-16,11588,482815,Michigan
2020-12-17,11801,487356,Michigan
2020-12-18,11868,491875,Michigan
2020-12-19,12074,496056,Michigan
2020-12-20,12074,496056,Michigan
2020-12-21,12153,501115,Michigan
2020-12-22,12342,504629,Michigan
2020-12-23,12415,508449,Michigan
2020-12-24,12415,508449,Michigan
2020-12-25,12415,508449,Michigan
2020-12-26,12690,516326,Michigan
2020-12-27,12690,516326,Michigan
2020-12-28,12754,519876,Michigan
2020-12-29,12966,523839,Michigan
2020-12-30,13018,528621,Michigan
2020-12-31,13018,528621,Michigan
2021-01-01,13018,528621,Michigan
2021-01-02,13306,538121,Michigan
2020-06-05,2357,37758,Ohio
2020-06-06,2372,38111,Ohio
2020-06-07,2379,38476,Ohio
2020-06-08,2406,38837,Ohio
2020-06-09,2423,39162,Ohio
2020-06-10,2459,39575,Ohio
2020-06-11,2492,40004,Ohio
2020-06-12,2510,40424,Ohio
2020-06-13,2556,40851,Ohio
2020-06-14,2559,41148,Ohio
2020-06-15,2575,41576,Ohio
2020-06-16,2599,42010,Ohio
2020-06-17,2611,42422,Ohio
2020-06-18,2633,43122,Ohio
2020-06-19,2667,43731,Ohio
2020-06-20,2697,44261,Ohio
2020-06-21,2700,44808,Ohio
2020-06-22,2704,45537,Ohio
2020-06-23,2735,46127,Ohio
2020-06-24,2755,46759,Ohio
2020-06-25,2772,47651,Ohio
2020-06-26,2788,48638,Ohio
2020-06-27,2804,49455,Ohio
2020-06-28,2807,50309,Ohio
2020-06-29,2818,51046,Ohio
2020-06-30,2863,51789,Ohio
2020-07-01,2876,52865,Ohio
2020-07-02,2876,52865,Ohio
2020-07-03,2903,55257,Ohio
2020-07-04,2907,56183,Ohio
2020-07-05,2911,57150,Ohio
2020-07-06,2927,57956,Ohio
2020-07-07,2970,58904,Ohio
2020-07-08,2991,60181,Ohio
2020-07-09,3006,61331,Ohio
2020-07-10,3032,62856,Ohio
2020-07-11,3036,64214,Ohio
2020-07-12,3058,65592,Ohio
2020-07-13,3064,66853,Ohio
2020-07-14,3069,67995,Ohio
2020-07-15,3075,69311,Ohio
2020-07-16,3103,70601,Ohio
2020-07-17,3112,72280,Ohio
2020-07-18,3132,73821,Ohio
2020-07-19,3174,74932,Ohio
2020-07-20,3189,76168,Ohio
2020-07-21,3219,77215,Ohio
2020-07-22,3235,78742,Ohio
2020-07-23,3256,80186,Ohio
2020-07-24,3297,81746,Ohio
2020-07-25,3297,83184,Ohio
2020-07-26,3307,84073,Ohio
2020-07-27,3344,85177,Ohio
2020-07-28,3382,86497,Ohio
2020-07-29,3422,87893,Ohio
2020-07-30,3442,89626,Ohio
2020-07-31,3489,91159,Ohio
2020-08-01,3515,92087,Ohio
2020-08-02,3529,93031,Ohio
2020-08-03,3539,93963,Ohio
2020-08-04,3570,95106,Ohio
2020-08-05,3596,96305,Ohio
2020-08-06,3618,97471,Ohio
2020-08-07,3652,98675,Ohio
2020-08-08,3668,99969,Ohio
2020-08-09,3669,100848,Ohio
2020-08-10,3673,101731,Ohio
2020-08-11,3708,102826,Ohio
2020-08-12,3734,104248,Ohio
2020-08-13,3755,105426,Ohio
2020-08-14,3784,106557,Ohio
2020-08-15,3824,107674,Ohio
2020-08-16,3826,108287,Ohio
2020-08-17,3832,109062,Ohio
2020-08-18,3866,109910,Ohio
2020-08-19,3907,110881,Ohio
2020-08-20,3929,112003,Ohio
2020-08-21,3955,113046,Ohio
2020-08-22,3975,114165,Ohio
2020-08-23,3978,114802,Ohio
2020-08-24,3986,115651,Ohio
2020-08-25,3996,116495,Ohio
2020-08-26,4044,117584,Ohio
2020-08-27,4076,118828,Ohio
2020-08-28,4105,120124,Ohio
2020-08-29,4126,121320,Ohio
2020-08-30,4129,122260,Ohio
2020-08-31,4139,123155,Ohio
2020-09-01,4166,124606,Ohio
2020-09-02,4176,125767,Ohio
2020-09-03,4226,127112,Ohio
2020-09-04,4248,128444,Ohio
2020-09-05,4256,129785,Ohio
2020-09-06,4259,130558,Ohio
2020-09-07,4276,131336,Ohio
2020-09-08,4298,131992,Ohio
2020-09-09,4324,132965,Ohio
2020-09-10,4354,134086,Ohio
2020-09-11,4403,135326,Ohio
2020-09-12,4411,136568,Ohio
2020-09-13,4415,137405,Ohio
2020-09-14,4419,138484,Ohio
2020-09-15,4506,139485,Ohio
2020-09-16,4555,140518,Ohio
2020-09-17,4580,141585,Ohio
2020-09-18,4608,142596,Ohio
2020-09-19,4612,143547,Ohio
2020-09-20,4615,144309,Ohio
2020-09-21,4623,145165,Ohio
2020-09-22,4635,145850,Ohio
2020-09-23,4687,146753,Ohio
2020-09-24,4715,147744,Ohio
2020-09-25,4734,148894,Ohio
2020-09-26,4740,150009,Ohio
2020-09-27,4741,150809,Ohio
2020-09-28,4746,151802,Ohio
2020-09-29,4783,152907,Ohio
2020-09-30,4804,153987,Ohio
2020-10-01,4817,155314,Ohio
2020-10-02,4905,156809,Ohio
2020-10-03,4925,157966,Ohio
2020-10-04,4925,158907,Ohio
2020-10-05,4931,159964,Ohio
2020-10-06,4947,161299,Ohio
2020-10-07,4970,162723,Ohio
2020-10-08,4983,164262,Ohio
2020-10-09,4994,166102,Ohio
2020-10-10,4997,167458,Ohio
2020-10-11,4999,168749,Ohio
2020-10-12,5005,170179,Ohio
2020-10-13,5017,171626,Ohio
2020-10-14,5033,173665,Ohio
2020-10-15,5038,175843,Ohio
2020-10-16,5054,177991,Ohio
2020-10-17,5067,180225,Ohio
2020-10-18,5067,181787,Ohio
2020-10-19,5075,183624,Ohio
2020-10-20,5083,185639,Ohio
2020-10-21,5149,188005,Ohio
2020-10-22,5161,190430,Ohio
2020-10-23,5184,192948,Ohio
2020-10-24,5206,195806,Ohio
2020-10-25,5206,198115,Ohio
2020-10-26,5217,200231,Ohio
2020-10-27,5239,202740,Ohio
2020-10-28,5256,205347,Ohio
2020-10-29,5275,208937,Ohio
2020-10-30,5291,212782,Ohio
2020-10-31,5301,215697,Ohio
2020-11-01,5303,219000,Ohio
2020-11-02,5340,221909,Ohio
2020-11-03,5373,226138,Ohio
2020-11-04,5428,230209,Ohio
2020-11-05,5461,235170,Ohio
2020-11-06,5494,240178,Ohio
2020-11-07,5506,245727,Ohio
2020-11-08,5517,250268,Ohio
2020-11-09,5524,254974,Ohio
2020-11-10,5547,261482,Ohio
2020-11-11,5623,267356,Ohio
2020-11-12,5658,274457,Ohio
2020-11-13,5700,282528,Ohio
2020-11-14,5714,290243,Ohio
2020-11-15,5722,298096,Ohio
2020-11-16,5742,305364,Ohio
2020-11-17,5772,312443,Ohio
2020-11-18,5827,318828,Ohio
2020-11-19,5890,326615,Ohio
2020-11-20,5955,335423,Ohio
2020-11-21,5984,343286,Ohio
2020-11-22,5996,351419,Ohio
2020-11-23,6020,363304,Ohio
2020-11-24,6100,371840,Ohio
2020-11-25,6274,382743,Ohio
2020-11-26,6274,382743,Ohio
2020-11-27,6346,399808,Ohio
2020-11-28,6378,406703,Ohio
2020-11-29,6399,414432,Ohio
2020-11-30,6429,421063,Ohio
2020-12-01,6548,430093,Ohio
2020-12-02,6671,437928,Ohio
2020-12-03,6753,446849,Ohio
2020-12-04,6882,456963,Ohio
2020-12-05,6946,467432,Ohio
2020-12-06,6959,475024,Ohio
2020-12-07,7022,484297,Ohio
2020-12-08,7103,510018,Ohio
2020-12-09,7187,520112,Ohio
2020-12-10,7298,531850,Ohio
2020-12-11,7426,542209,Ohio
2020-12-12,7477,553461,Ohio
2020-12-13,7492,562727,Ohio
2020-12-14,7551,570602,Ohio
2020-12-15,7654,579357,Ohio
2020-12-16,7777,584766,Ohio
2020-12-17,7894,596178,Ohio
2020-12-18,7967,605862,Ohio
2020-12-19,8031,614429,Ohio
2020-12-20,8047,622806,Ohio
2020-12-21,8122,629354,Ohio
2020-12-22,8252,637032,Ohio
2020-12-23,8361,644822,Ohio
2020-12-24,8456,653650,Ohio
2020-12-25,8456,653650,Ohio
2020-12-26,8476,664668,Ohio
2020-12-27,8509,670525,Ohio
2020-12-28,8571,675044,Ohio
2020-12-29,8722,682570,Ohio
2020-12-30,8855,690748,Ohio
2020-12-31,8962,700380,Ohio
2021-01-01,8962,700380,Ohio
2021-01-02,9017,714673,Ohio
2020-06-05,5898,78815,Pennsylvania
2020-06-06,5931,79505,Pennsylvania
2020-06-07,5943,79908,Pennsylvania
2020-06-08,5953,80339,Pennsylvania
2020-06-09,6014,80870,Pennsylvania
2020-06-10,6062,81316,Pennsylvania
2020-06-11,6113,81848,Pennsylvania
2020-06-12,6162,82481,Pennsylvania
2020-06-13,6211,82944,Pennsylvania
2020-06-14,6215,83203,Pennsylvania
2020-06-15,6243,83589,Pennsylvania
2020-06-16,6276,83978,Pennsylvania
2020-06-17,6319,84289,Pennsylvania
2020-06-18,6361,84683,Pennsylvania
2020-06-19,6399,85199,Pennsylvania
2020-06-20,6419,85590,Pennsylvania
2020-06-21,6423,85935,Pennsylvania
2020-06-22,6426,86576,Pennsylvania
2020-06-23,6464,87208,Pennsylvania
2020-06-24,6518,87685,Pennsylvania
2020-06-25,6557,88141,Pennsylvania
2020-06-26,6579,88860,Pennsylvania
2020-06-27,6603,89446,Pennsylvania
2020-06-28,6606,89863,Pennsylvania
2020-06-29,6614,90467,Pennsylvania
2020-06-30,6649,91139,Pennsylvania
2020-07-01,6684,91775,Pennsylvania
2020-07-02,6712,92612,Pennsylvania
2020-07-03,6746,93392,Pennsylvania
2020-07-04,6749,93922,Pennsylvania
2020-07-05,6753,94403,Pennsylvania
2020-07-06,6754,95100,Pennsylvania
2020-07-07,6787,95898,Pennsylvania
2020-07-08,6812,96725,Pennsylvania
2020-07-09,6848,97542,Pennsylvania
2020-07-10,6880,98482,Pennsylvania
2020-07-11,6897,99216,Pennsylvania
2020-07-12,6904,99794,Pennsylvania
2020-07-13,6911,100330,Pennsylvania
2020-07-14,6931,101266,Pennsylvania
2020-07-15,6957,102269,Pennsylvania
2020-07-16,6984,103075,Pennsylvania
2020-07-17,7004,104079,Pennsylvania
2020-07-18,7015,104780,Pennsylvania
2020-07-19,7022,105384,Pennsylvania
2020-07-20,7025,106405,Pennsylvania
2020-07-21,7051,107460,Pennsylvania
2020-07-22,7077,108187,Pennsylvania
2020-07-23,7093,109037,Pennsylvania
2020-07-24,7116,110292,Pennsylvania
2020-07-25,7124,111115,Pennsylvania
2020-07-26,7127,111745,Pennsylvania
2020-07-27,7131,112995,Pennsylvania
2020-07-28,7154,114083,Pennsylvania
2020-07-29,7171,114939,Pennsylvania
2020-07-30,7194,115807,Pennsylvania
2020-07-31,7207,116787,Pennsylvania
2020-08-01,7219,117468,Pennsylvania
2020-08-02,7223,118033,Pennsylvania
2020-08-03,7224,118894,Pennsylvania
2020-08-04,7248,119724,Pennsylvania
2020-08-05,7254,120446,Pennsylvania
2020-08-06,7282,121247,Pennsylvania
2020-08-07,7296,122028,Pennsylvania
2020-08-08,7310,122665,Pennsylvania
2020-08-09,7311,123312,Pennsylvania
2020-08-10,7314,124221,Pennsylvania
2020-08-11,7343,125016,Pennsylvania
2020-08-12,7380,125918,Pennsylvania
2020-08-13,7395,126905,Pennsylvania
2020-08-14,7434,127732,Pennsylvania
2020-08-15,7451,128531,Pennsylvania
2020-08-16,7453,129070,Pennsylvania
2020-08-17,7453,129647,Pennsylvania
2020-08-18,7474,130247,Pennsylvania
2020-08-19,7508,130905,Pennsylvania
2020-08-20,7520,131692,Pennsylvania
2020-08-21,7537,132417,Pennsylvania
2020-08-22,7555,133160,Pennsylvania
2020-08-23,7557,133679,Pennsylvania
2020-08-24,7557,134204,Pennsylvania
2020-08-25,7582,134760,Pennsylvania
2020-08-26,7613,135279,Pennsylvania
2020-08-27,7622,135912,Pennsylvania
2020-08-28,7642,136781,Pennsylvania
2020-08-29,7656,137576,Pennsylvania
2020-08-30,7658,138134,Pennsylvania
2020-08-31,7659,138795,Pennsylvania
2020-09-01,7678,139548,Pennsylvania
2020-09-02,7705,140532,Pennsylvania
2020-09-03,7724,141570,Pennsylvania
2020-09-04,7735,142495,Pennsylvania
2020-09-05,7750,143280,Pennsylvania
2020-09-06,7750,143824,Pennsylvania
2020-09-07,7771,144540,Pennsylvania
2020-09-08,7780,145156,Pennsylvania
2020-09-09,7794,146029,Pennsylvania
2020-09-10,7807,146696,Pennsylvania
2020-09-11,7829,147703,Pennsylvania
2020-09-12,7829,148635,Pennsylvania
2020-09-13,7829,148635,Pennsylvania
2020-09-14,7855,150000,Pennsylvania
2020-09-15,7860,151044,Pennsylvania
2020-09-16,7882,151850,Pennsylvania
2020-09-17,7893,152775,Pennsylvania
2020-09-18,7921,153522,Pennsylvania
2020-09-19,7940,154236,Pennsylvania
2020-09-20,7960,154867,Pennsylvania
2020-09-21,7985,155693,Pennsylvania
2020-09-22,8002,156477,Pennsylvania
2020-09-23,8038,157336,Pennsylvania
2020-09-24,8054,158181,Pennsylvania
2020-09-25,8065,159014,Pennsylvania
2020-09-26,8083,159933,Pennsylvania
2020-09-27,8086,160744,Pennsylvania
2020-09-28,8088,161594,Pennsylvania
2020-09-29,8101,163180,Pennsylvania
2020-09-30,8130,164099,Pennsylvania
2020-10-01,8144,165044,Pennsylvania
2020-10-02,8162,166238,Pennsylvania
2020-10-03,8180,166238,Pennsylvania
2020-10-04,8195,168126,Pennsylvania
2020-10-05,8207,169101,Pennsylvania
2020-10-06,8223,170224,Pennsylvania
2020-10-07,8247,171527,Pennsylvania
2020-10-08,8268,172948,Pennsylvania
2020-10-09,8292,174329,Pennsylvania
2020-10-10,8324,175797,Pennsylvania
2020-10-11,8330,176781,Pennsylvania
2020-10-12,8347,177819,Pennsylvania
2020-10-13,8361,179651,Pennsylvania
2020-10-14,8391,180935,Pennsylvania
2020-10-15,8413,182486,Pennsylvania
2020-10-16,8434,184165,Pennsylvania
2020-10-17,8442,185668,Pennsylvania
2020-10-18,8465,186754,Pennsylvania
2020-10-19,8475,188381,Pennsylvania
2020-10-20,8516,189970,Pennsylvania
2020-10-21,8546,191333,Pennsylvania
2020-10-22,8574,193401,Pennsylvania
2020-10-23,8608,195655,Pennsylvania
2020-10-24,8636,197370,Pennsylvania
2020-10-25,8647,198713,Pennsylvania
2020-10-26,8659,201248,Pennsylvania
2020-10-27,8683,203520,Pennsylvania
2020-10-28,8707,205852,Pennsylvania
2020-10-29,8743,208087,Pennsylvania
2020-10-30,8774,210586,Pennsylvania
2020-10-31,8800,212791,Pennsylvania
2020-11-01,8803,214416,Pennsylvania
2020-11-02,8812,217243,Pennsylvania
2020-11-03,8842,220074,Pennsylvania
2020-11-04,8878,222883,Pennsylvania
2020-11-05,8923,225698,Pennsylvania
2020-11-06,8964,229346,Pennsylvania
2020-11-07,9001,232493,Pennsylvania
2020-11-08,9005,235014,Pennsylvania
2020-11-09,9008,239724,Pennsylvania
2020-11-10,9079,244046,Pennsylvania
2020-11-11,9136,248015,Pennsylvania
2020-11-12,9182,254155,Pennsylvania
2020-11-13,9210,259988,Pennsylvania
2020-11-14,9252,264222,Pennsylvania
2020-11-15,9290,268696,Pennsylvania
2020-11-16,9310,275235,Pennsylvania
2020-11-17,9346,280957,Pennsylvania
2020-11-18,9463,287425,Pennsylvania
2020-11-19,9569,294294,Pennsylvania
2020-11-20,9676,301304,Pennsylvania
2020-11-21,9775,306988,Pennsylvania
2020-11-22,9816,313358,Pennsylvania
2020-11-23,9846,320158,Pennsylvania
2020-11-24,9924,326513,Pennsylvania
2020-11-25,10070,333465,Pennsylvania
2020-11-26,10172,340642,Pennsylvania
2020-11-27,10195,349238,Pennsylvania
2020-11-28,10234,355945,Pennsylvania
2020-11-29,10297,360944,Pennsylvania
2020-11-30,10335,366835,Pennsylvania
2020-12-01,10504,372530,Pennsylvania
2020-12-02,10676,380951,Pennsylvania
2020-12-03,10871,392434,Pennsylvania
2020-12-04,11052,404521,Pennsylvania
2020-12-05,11191,415635,Pennsylvania
2020-12-06,11255,423100,Pennsylvania
2020-12-07,11319,432207,Pennsylvania
2020-12-08,11521,442311,Pennsylvania
2020-12-09,11726,450924,Pennsylvania
2020-12-10,11961,462954,Pennsylvania
2020-12-11,12183,476249,Pennsylvania
2020-12-12,12371,485330,Pennsylvania
2020-12-13,12490,495099,Pennsylvania
2020-12-14,12552,505174,Pennsylvania
2020-12-15,12796,514749,Pennsylvania
2020-12-16,13109,524940,Pennsylvania
2020-12-17,13329,534948,Pennsylvania
2020-12-18,13549,544116,Pennsylvania
2020-12-19,13754,552895,Pennsylvania
2020-12-20,13834,559256,Pennsylvania
2020-12-21,13890,569099,Pennsylvania
2020-12-22,14197,576787,Pennsylvania
2020-12-23,14440,586474,Pennsylvania
2020-12-24,14707,595808,Pennsylvania
2020-12-25,14837,601940,Pennsylvania
2020-12-26,14858,608767,Pennsylvania
2020-12-27,14969,613272,Pennsylvania
2020-12-28,15055,618902,Pennsylvania
2020-12-29,15343,627526,Pennsylvania
2020-12-30,15665,636061,Pennsylvania
2020-12-31,15947,645390,Pennsylvania
2021-01-01,16155,652091,Pennsylvania
2021-01-02,16179,660580,Pennsylvania
2020-06-05,633,20249,Wisconsin
2020-06-06,645,20571,Wisconsin
2020-06-07,647,20835,Wisconsin
2020-06-08,646,21038,Wisconsin
2020-06-09,661,21308,Wisconsin
2020-06-10,671,21593,Wisconsin
2020-06-11,682,21926,Wisconsin
2020-06-12,689,22246,Wisconsin
2020-06-13,691,22518,Wisconsin
2020-06-14,692,22758,Wisconsin
2020-06-15,694,22932,Wisconsin
2020-06-16,703,23198,Wisconsin
2020-06-17,713,23456,Wisconsin
2020-06-18,719,23876,Wisconsin
2020-06-19,730,24154,Wisconsin
2020-06-20,744,24539,Wisconsin
2020-06-21,744,24819,Wisconsin
2020-06-22,745,25068,Wisconsin
2020-06-23,750,25331,Wisconsin
2020-06-24,757,25763,Wisconsin
2020-06-25,766,26227,Wisconsin
2020-06-26,766,26747,Wisconsin
2020-06-27,777,27286,Wisconsin
2020-06-28,777,27743,Wisconsin
2020-06-29,777,28058,Wisconsin
2020-06-30,784,28659,Wisconsin
2020-07-01,786,29199,Wisconsin
2020-07-02,793,29738,Wisconsin
2020-07-03,796,30317,Wisconsin
2020-07-04,796,31055,Wisconsin
2020-07-05,796,31577,Wisconsin
2020-07-06,796,32061,Wisconsin
2020-07-07,805,32556,Wisconsin
2020-07-08,807,33154,Wisconsin
2020-07-09,809,33908,Wisconsin
2020-07-10,814,34753,Wisconsin
2020-07-11,821,35679,Wisconsin
2020-07-12,820,36448,Wisconsin
2020-07-13,820,36942,Wisconsin
2020-07-14,826,37906,Wisconsin
2020-07-15,827,38727,Wisconsin
2020-07-16,831,39627,Wisconsin
2020-07-17,833,40507,Wisconsin
2020-07-18,843,41485,Wisconsin
2020-07-19,844,42315,Wisconsin
2020-07-20,846,43018,Wisconsin
2020-07-21,859,44135,Wisconsin
2020-07-22,865,44847,Wisconsin
2020-07-23,878,45899,Wisconsin
2020-07-24,878,46917,Wisconsin
2020-07-25,891,47870,Wisconsin
2020-07-26,892,48827,Wisconsin
2020-07-27,893,49417,Wisconsin
2020-07-28,906,50179,Wisconsin
2020-07-29,911,51049,Wisconsin
2020-07-30,919,52108,Wisconsin
2020-07-31,934,52940,Wisconsin
2020-08-01,947,54002,Wisconsin
2020-08-02,948,54924,Wisconsin
2020-08-03,949,55328,Wisconsin
2020-08-04,961,56056,Wisconsin
2020-08-05,970,56940,Wisconsin
2020-08-06,978,57779,Wisconsin
2020-08-07,990,58768,Wisconsin
2020-08-08,996,59933,Wisconsin
2020-08-09,998,60554,Wisconsin
2020-08-10,998,61061,Wisconsin
2020-08-11,1006,61785,Wisconsin
2020-08-12,1011,62263,Wisconsin
2020-08-13,1018,63206,Wisconsin
2020-08-14,1025,64227,Wisconsin
2020-08-15,1038,65056,Wisconsin
2020-08-16,1039,65741,Wisconsin
2020-08-17,1039,66196,Wisconsin
2020-08-18,1039,66196,Wisconsin
2020-08-19,1060,67493,Wisconsin
2020-08-20,1067,68233,Wisconsin
2020-08-21,1068,69059,Wisconsin
2020-08-22,1081,70009,Wisconsin
2020-08-23,1081,70462,Wisconsin
2020-08-24,1081,70854,Wisconsin
2020-08-25,1094,71492,Wisconsin
2020-08-26,1100,72260,Wisconsin
2020-08-27,1111,73138,Wisconsin
2020-08-28,1113,73981,Wisconsin
2020-08-29,1119,74800,Wisconsin
2020-08-30,1122,75337,Wisconsin
2020-08-31,1122,75603,Wisconsin
2020-09-01,1130,76584,Wisconsin
2020-09-02,1142,77129,Wisconsin
2020-09-03,1146,77856,Wisconsin
2020-09-04,1153,79354,Wisconsin
2020-09-05,1168,80300,Wisconsin
2020-09-06,1168,81193,Wisconsin
2020-09-07,1168,81760,Wisconsin
2020-09-08,1168,82477,Wisconsin
2020-09-09,1183,83334,Wisconsin
2020-09-10,1193,84881,Wisconsin
2020-09-11,1197,86250,Wisconsin
2020-09-12,1209,87603,Wisconsin
2020-09-13,1210,89185,Wisconsin
2020-09-14,1210,89956,Wisconsin
2020-09-15,1220,91304,Wisconsin
2020-09-16,1228,92712,Wisconsin
2020-09-17,1231,94746,Wisconsin
2020-09-18,1238,97279,Wisconsin
2020-09-19,1241,99562,Wisconsin
2020-09-20,1242,101227,Wisconsin
2020-09-21,1244,102498,Wisconsin
2020-09-22,1251,104170,Wisconsin
2020-09-23,1259,105932,Wisconsin
2020-09-24,1265,108324,Wisconsin
2020-09-25,1274,110828,Wisconsin
2020-09-26,1281,113645,Wisconsin
2020-09-27,1281,115862,Wisconsin
2020-09-28,1283,117588,Wisconsin
2020-09-29,1300,119955,Wisconsin
2020-09-30,1327,122274,Wisconsin
2020-10-01,1348,125161,Wisconsin
2020-10-02,1353,127906,Wisconsin
2020-10-03,1372,130798,Wisconsin
2020-10-04,1377,132663,Wisconsin
2020-10-05,1381,134359,Wisconsin
2020-10-06,1399,136379,Wisconsin
2020-10-07,1415,138698,Wisconsin
2020-10-08,1424,141830,Wisconsin
2020-10-09,1440,144818,Wisconsin
2020-10-10,1458,147560,Wisconsin
2020-10-11,1465,150236,Wisconsin
2020-10-12,1474,152192,Wisconsin
2020-10-13,1508,155471,Wisconsin
2020-10-14,1536,158578,Wisconsin
2020-10-15,1553,162325,Wisconsin
2020-10-16,1574,166186,Wisconsin
2020-10-17,1574,166186,Wisconsin
2020-10-18,1574,166186,Wisconsin
2020-10-19,1600,183142,Wisconsin
2020-10-20,1633,187828,Wisconsin
2020-10-21,1681,192191,Wisconsin
2020-10-22,1703,195823,Wisconsin
2020-10-23,1745,200466,Wisconsin
2020-10-24,1770,205139,Wisconsin
2020-10-25,1778,208917,Wisconsin
2020-10-26,1788,211928,Wisconsin
2020-10-27,1852,217429,Wisconsin
2020-10-28,1897,221559,Wisconsin
2020-10-29,1948,226704,Wisconsin
2020-10-30,1972,232061,Wisconsin
2020-10-31,2031,237869,Wisconsin
2020-11-01,2047,241422,Wisconsin
2020-11-02,2050,244927,Wisconsin
2020-11-03,2102,251031,Wisconsin
2020-11-04,2156,257287,Wisconsin
2020-11-05,2194,263571,Wisconsin
2020-11-06,2256,269982,Wisconsin
2020-11-07,2301,277503,Wisconsin
2020-11-08,2312,281910,Wisconsin
2020-11-09,2329,286380,Wisconsin
2020-11-10,2395,293812,Wisconsin
2020-11-11,2457,301349,Wisconsin
2020-11-12,2621,309572,Wisconsin
2020-11-13,2683,318023,Wisconsin
2020-11-14,2739,323604,Wisconsin
2020-11-15,2751,329924,Wisconsin
2020-11-16,2764,334562,Wisconsin
2020-11-17,2867,342155,Wisconsin
2020-11-18,2925,350665,Wisconsin
2020-11-19,3010,358113,Wisconsin
2020-11-20,3091,365190,Wisconsin
2020-11-21,3143,372219,Wisconsin
2020-11-22,3150,376238,Wisconsin
2020-11-23,3158,379693,Wisconsin
2020-11-24,3272,386441,Wisconsin
2020-11-25,3343,392438,Wisconsin
2020-11-26,3415,398104,Wisconsin
2020-11-27,3434,399526,Wisconsin
2020-11-28,3464,404999,Wisconsin
2020-11-29,3487,409054,Wisconsin
2020-11-30,3494,411730,Wisconsin
2020-12-01,3611,416365,Wisconsin
2020-12-02,3703,420930,Wisconsin
2020-12-03,3773,426534,Wisconsin
2020-12-04,3842,432207,Wisconsin
2020-12-05,3934,437918,Wisconsin
2020-12-06,3952,441067,Wisconsin
2020-12-07,3973,443389,Wisconsin
2020-12-08,4054,448009,Wisconsin
2020-12-09,4142,452180,Wisconsin
2020-12-10,4209,456889,Wisconsin
2020-12-11,4266,461367,Wisconsin
2020-12-12,4324,465991,Wisconsin
2020-12-13,4339,468956,Wisconsin
2020-12-14,4352,471285,Wisconsin
2020-12-15,4408,475340,Wisconsin
2020-12-16,4493,478162,Wisconsin
2020-12-17,4561,482443,Wisconsin
2020-12-18,4632,486364,Wisconsin
2020-12-19,4722,490679,Wisconsin
2020-12-20,4743,492724,Wisconsin
2020-12-21,4751,494353,Wisconsin
2020-12-22,4879,497380,Wisconsin
2020-12-23,4953,500443,Wisconsin
2020-12-24,5019,503706,Wisconsin
2020-12-25,5025,505345,Wisconsin
2020-12-26,5029,506022,Wisconsin
2020-12-27,5039,508580,Wisconsin
2020-12-28,5060,510137,Wisconsin
2020-12-29,5152,513056,Wisconsin
2020-12-30,5192,516226,Wisconsin
2020-12-31,5242,520438,Wisconsin
2021-01-01,5254,522523,Wisconsin
2021-01-02,5256,523652,Wisconsin
