,date,deaths,cases
0,2020-11-12,5094,230965
1,2020-11-13,5140,236565
2,2020-11-14,5191,244887
3,2020-11-15,5260,251597
4,2020-11-16,5323,256744
5,2020-11-17,5405,262207
6,2020-11-18,5479,268222
7,2020-11-19,5556,275503
8,2020-11-20,5628,282311
9,2020-11-21,5697,289183
10,2020-11-22,5774,295357
11,2020-11-23,5860,300913
12,2020-11-24,5941,306538
13,2020-11-25,6021,312521
14,2020-11-26,6112,318894
15,2020-11-27,6196,324537
16,2020-11-28,6270,329008
17,2020-11-29,6351,333312
18,2020-11-30,6432,338977
19,2020-12-01,6518,344373
20,2020-12-02,6617,350970
21,2020-12-03,6704,359430
22,2020-12-04,6802,367329
23,2020-12-05,6899,375019
24,2020-12-06,6987,381617
25,2020-12-07,7081,387278
26,2020-12-08,7187,392663
27,2020-12-09,7289,398417
28,2020-12-10,7395,404935
29,2020-12-11,7505,412135
30,2020-12-12,7600,419536
31,2020-12-13,7689,425434
32,2020-12-14,7796,430401
33,2020-12-15,7888,434642
34,2020-12-16,7980,440850
35,2020-12-17,8093,447190
36,2020-12-18,8200,453139
37,2020-12-19,8294,457871
38,2020-12-20,8380,464354
39,2020-12-21,8487,468219
40,2020-12-22,8566,471876
41,2020-12-23,8658,476538
42,2020-12-24,8731,482734
43,2020-12-25,8811,488180
44,2020-12-26,8904,492021
45,2020-12-27,8996,493841
46,2020-12-28,9097,496306
47,2020-12-29,9216,500282
48,2020-12-30,9314,505017
49,2020-12-31,9390,511485
50,2021-01-01,9468,517773
51,2021-01-02,9562,523090
52,2021-01-03,9625,526071
53,2021-01-04,9735,529688
54,2021-01-05,9800,533083
55,2021-01-06,9883,539229
56,2021-01-07,9958,546499
57,2021-01-08,10021,552594
58,2021-01-09,10089,558560
59,2021-01-10,10147,563653
60,2021-01-11,10217,567338
61,2021-01-12,10271,570477
62,2021-01-13,10334,574119
63,2021-01-14,10400,578494
64,2021-01-15,10465,583160
65,2021-01-16,10534,587049
66,2021-01-17,10602,590211
67,2021-01-18,10670,592709
68,2021-01-19,10720,595436
69,2021-01-20,10786,598313
70,2021-01-21,10837,601937
71,2021-01-22,10903,605426
72,2021-01-23,10950,608519
73,2021-01-24,10996,611039
74,2021-01-25,11037,613228
75,2021-01-26,11087,614946
76,2021-01-27,11137,617176
77,2021-01-28,11180,619995
78,2021-01-29,11220,622625
79,2021-01-30,11262,624959
80,2021-01-31,11296,626682
81,2021-02-01,11331,628391
82,2021-02-02,11371,629903
83,2021-02-03,11408,631331
84,2021-02-04,11597,633667
85,2021-02-05,11686,635171
86,2021-02-06,11752,637987
87,2021-02-07,11817,639711
88,2021-02-08,11875,640744
89,2021-02-09,11942,641874
90,2021-02-10,12001,643305
91,2021-02-11,12027,645006
92,2021-02-12,12117,646425
93,2021-02-13,12149,647657
94,2021-02-14,12173,648875
95,2021-02-15,12191,649652
96,2021-02-16,12231,650530
97,2021-02-17,12250,651453
98,2021-02-18,12281,652210
99,2021-02-19,12325,653245
100,2021-02-20,12336,654660
101,2021-02-21,12372,655541
102,2021-02-22,12407,656358
103,2021-02-23,12450,657037
104,2021-02-24,12467,658043
105,2021-02-25,12494,659127
106,2021-02-26,12531,660071
107,2021-02-27,12556,660942
108,2021-02-28,12573,661673
109,2021-03-01,12595,662213
110,2021-03-02,12623,662750
111,2021-03-03,12633,663511
112,2021-03-04,12663,664446
113,2021-03-05,12697,665285
114,2021-03-06,12726,666516
115,2021-03-07,12737,667262
116,2021-03-08,12744,667736
117,2021-03-09,12762,668308
118,2021-03-10,12775,669164
119,2021-03-11,12802,670074
120,2021-03-12,12824,671023
121,2021-03-13,12846,671859
122,2021-03-14,12856,672554
123,2021-03-15,12864,672967
124,2021-03-16,12876,673528
125,2021-03-17,12893,674430
126,2021-03-18,12907,675388
127,2021-03-19,12922,676247
128,2021-03-20,12926,677135
129,2021-03-21,12946,677905
130,2021-03-22,12947,678416
131,2021-03-23,12959,679079
132,2021-03-24,12975,680046
133,2021-03-25,12982,680998
134,2021-03-26,13002,682099
135,2021-03-27,13011,683076
136,2021-03-28,13023,684020
137,2021-03-29,13028,684733
138,2021-03-30,13038,685453
139,2021-03-31,13039,686497
140,2021-04-01,13048,687713
141,2021-04-02,13069,688916
142,2021-04-03,13074,689965
143,2021-04-04,13074,690910
144,2021-04-05,13075,691625
145,2021-04-06,13084,692240
146,2021-04-07,13099,693452
147,2021-04-08,13114,694836
148,2021-04-09,13131,696175
149,2021-04-10,13138,697533
150,2021-04-11,13148,698692
151,2021-04-12,13151,699823
152,2021-04-13,13167,700775
153,2021-04-14,13187,701971
154,2021-04-15,13194,703345
155,2021-04-16,13211,704632
156,2021-04-17,13216,707111
157,2021-04-18,13224,708067
158,2021-04-19,13226,708779
159,2021-04-20,13234,709455
160,2021-04-21,13248,710607
161,2021-04-22,13252,711787
162,2021-04-23,13256,712858
163,2021-04-24,13271,713959
164,2021-04-25,13274,714786
165,2021-04-26,13280,715468
166,2021-04-27,13293,716306
167,2021-04-28,13312,717564
168,2021-04-29,13324,718948
169,2021-04-30,13332,720425
170,2021-05-01,13338,721577
171,2021-05-02,13349,722646
172,2021-05-03,13350,723443
173,2021-05-04,13363,724214
174,2021-05-05,13373,725353
175,2021-05-06,13379,726600
176,2021-05-07,13397,727764
177,2021-05-08,13405,728811
