,dates,death_025_quantiles,death_975_quantiles,case_025_quantiles,case_975_quantiles
0,2021-06-12,900.2787594393628,921.091499634794,52992.0,53481.070269809185
1,2021-06-19,899.0544904221645,924.6335048155944,53087.4667298167,53734.21112159322
2,2021-06-26,897.2849392880001,930.252062535078,53154.53777712503,53726.75903329025
3,2021-07-03,891.8367150155409,934.4761804686476,53200.8434031944,54098.919700593244
