,dates,death_025_quantiles,death_975_quantiles,case_025_quantiles,case_975_quantiles
0,2021-10-30,1063.9182085224836,1082.2042426830074,69113.81470493035,70141.55882110141
1,2021-11-06,1078.8900256778234,1100.1864075059382,70603.11972709886,72117.49813589838
2,2021-11-13,1089.0519312129195,1116.9838977456006,72257.64966356609,74119.05584171753
3,2021-11-20,1107.6953552994355,1142.1481202382297,74109.38602353504,76054.91936249951
