,dates,death_025_quantiles,death_975_quantiles,case_025_quantiles,case_975_quantiles
0,2021-11-06,1088.870787596538,1102.8047697179547,70683.17884718148,71754.76598104014
1,2021-11-13,1105.528908563319,1124.5970493094874,72124.90202005653,73408.22944703198
2,2021-11-20,1121.9567480290848,1148.5811579523454,73308.74837459823,75296.52199432744
3,2021-11-27,1143.443425056704,1170.5224941260662,75186.77712575374,76922.28705927687
