,dates,death_025_quantiles,death_975_quantiles,case_025_quantiles,case_975_quantiles
0,2021-07-10,916.9496938061284,943.2641806514016,53261.0,53334.478621857335
1,2021-07-17,803.4071511449263,1056.7631939314529,53261.0,53418.75273092199
2,2021-07-24,806.8288812234819,1075.2235524318096,53261.0,53514.95814989928
3,2021-07-31,813.6396883873323,1029.1895172796158,53261.0,53548.21916331603
