,dates,death_025_quantiles,death_975_quantiles,case_025_quantiles,case_975_quantiles
0,2021-09-04,947.575759359746,961.7702512463176,56973.89002666935,57441.97568023344
1,2021-09-11,952.3236791309488,972.9294853574396,57868.549831141485,58562.98751594214
2,2021-09-18,957.5500093614808,985.4036848158784,58975.38648826507,59669.89513458499
3,2021-09-25,963.1045414183908,1000.8632732893408,60037.27579357743,60812.02672946573
