,forecast_date,target,target_end_date,location,type,quantile,value
0,2021-06-04,1 wk ahead inc case,2021-06-05,US,quantile,0.025,
0,2021-06-04,1 wk ahead inc case,2021-06-05,US,quantile,0.1,
0,2021-06-04,1 wk ahead inc case,2021-06-05,US,quantile,0.25,
0,2021-06-04,1 wk ahead inc case,2021-06-05,US,quantile,0.5,
0,2021-06-04,1 wk ahead inc case,2021-06-05,US,quantile,0.75,
0,2021-06-04,1 wk ahead inc case,2021-06-05,US,quantile,0.9,
0,2021-06-04,1 wk ahead inc case,2021-06-05,US,quantile,0.975,
0,2021-06-04,1 wk ahead inc death,2021-06-05,US,quantile,0.01,
0,2021-06-04,1 wk ahead cum death,2021-06-05,US,quantile,0.01,
0,2021-06-04,1 wk ahead inc death,2021-06-05,US,quantile,0.025,
0,2021-06-04,1 wk ahead cum death,2021-06-05,US,quantile,0.025,
0,2021-06-04,1 wk ahead inc death,2021-06-05,US,quantile,0.05,
0,2021-06-04,1 wk ahead cum death,2021-06-05,US,quantile,0.05,
0,2021-06-04,1 wk ahead inc death,2021-06-05,US,quantile,0.1,
0,2021-06-04,1 wk ahead cum death,2021-06-05,US,quantile,0.1,
0,2021-06-04,1 wk ahead inc death,2021-06-05,US,quantile,0.15,
0,2021-06-04,1 wk ahead cum death,2021-06-05,US,quantile,0.15,
0,2021-06-04,1 wk ahead inc death,2021-06-05,US,quantile,0.2,
0,2021-06-04,1 wk ahead cum death,2021-06-05,US,quantile,0.2,
0,2021-06-04,1 wk ahead inc death,2021-06-05,US,quantile,0.25,
0,2021-06-04,1 wk ahead cum death,2021-06-05,US,quantile,0.25,
0,2021-06-04,1 wk ahead inc death,2021-06-05,US,quantile,0.3,
0,2021-06-04,1 wk ahead cum death,2021-06-05,US,quantile,0.3,
0,2021-06-04,1 wk ahead inc death,2021-06-05,US,quantile,0.35,
0,2021-06-04,1 wk ahead cum death,2021-06-05,US,quantile,0.35,
0,2021-06-04,1 wk ahead inc death,2021-06-05,US,quantile,0.4,
0,2021-06-04,1 wk ahead cum death,2021-06-05,US,quantile,0.4,
0,2021-06-04,1 wk ahead inc death,2021-06-05,US,quantile,0.45,
0,2021-06-04,1 wk ahead cum death,2021-06-05,US,quantile,0.45,
0,2021-06-04,1 wk ahead inc death,2021-06-05,US,quantile,0.5,
0,2021-06-04,1 wk ahead cum death,2021-06-05,US,quantile,0.5,
0,2021-06-04,1 wk ahead inc death,2021-06-05,US,quantile,0.55,
0,2021-06-04,1 wk ahead cum death,2021-06-05,US,quantile,0.55,
0,2021-06-04,1 wk ahead inc death,2021-06-05,US,quantile,0.6,
0,2021-06-04,1 wk ahead cum death,2021-06-05,US,quantile,0.6,
0,2021-06-04,1 wk ahead inc death,2021-06-05,US,quantile,0.65,
0,2021-06-04,1 wk ahead cum death,2021-06-05,US,quantile,0.65,
0,2021-06-04,1 wk ahead inc death,2021-06-05,US,quantile,0.7,
0,2021-06-04,1 wk ahead cum death,2021-06-05,US,quantile,0.7,
0,2021-06-04,1 wk ahead inc death,2021-06-05,US,quantile,0.75,
0,2021-06-04,1 wk ahead cum death,2021-06-05,US,quantile,0.75,
0,2021-06-04,1 wk ahead inc death,2021-06-05,US,quantile,0.8,
0,2021-06-04,1 wk ahead cum death,2021-06-05,US,quantile,0.8,
0,2021-06-04,1 wk ahead inc death,2021-06-05,US,quantile,0.85,
0,2021-06-04,1 wk ahead cum death,2021-06-05,US,quantile,0.85,
0,2021-06-04,1 wk ahead inc death,2021-06-05,US,quantile,0.9,
0,2021-06-04,1 wk ahead cum death,2021-06-05,US,quantile,0.9,
0,2021-06-04,1 wk ahead inc death,2021-06-05,US,quantile,0.95,
0,2021-06-04,1 wk ahead cum death,2021-06-05,US,quantile,0.95,
0,2021-06-04,1 wk ahead inc death,2021-06-05,US,quantile,0.975,
0,2021-06-04,1 wk ahead cum death,2021-06-05,US,quantile,0.975,
0,2021-06-04,1 wk ahead inc death,2021-06-05,US,quantile,0.99,
0,2021-06-04,1 wk ahead cum death,2021-06-05,US,quantile,0.99,
0,2021-06-04,1 wk ahead inc case,2021-06-05,US,point,NA,4931.326694793999
0,2021-06-04,1 wk ahead inc death,2021-06-05,US,point,NA,2070.0352942304453
0,2021-06-04,1 wk ahead cum death,2021-06-05,US,point,NA,596376.0352942304
0,2021-06-04,2 wk ahead inc case,2021-06-12,US,quantile,0.025,
0,2021-06-04,2 wk ahead inc case,2021-06-12,US,quantile,0.1,
0,2021-06-04,2 wk ahead inc case,2021-06-12,US,quantile,0.25,
0,2021-06-04,2 wk ahead inc case,2021-06-12,US,quantile,0.5,
0,2021-06-04,2 wk ahead inc case,2021-06-12,US,quantile,0.75,
0,2021-06-04,2 wk ahead inc case,2021-06-12,US,quantile,0.9,
0,2021-06-04,2 wk ahead inc case,2021-06-12,US,quantile,0.975,
0,2021-06-04,2 wk ahead inc death,2021-06-12,US,quantile,0.01,
0,2021-06-04,2 wk ahead cum death,2021-06-12,US,quantile,0.01,
0,2021-06-04,2 wk ahead inc death,2021-06-12,US,quantile,0.025,
0,2021-06-04,2 wk ahead cum death,2021-06-12,US,quantile,0.025,
0,2021-06-04,2 wk ahead inc death,2021-06-12,US,quantile,0.05,
0,2021-06-04,2 wk ahead cum death,2021-06-12,US,quantile,0.05,
0,2021-06-04,2 wk ahead inc death,2021-06-12,US,quantile,0.1,
0,2021-06-04,2 wk ahead cum death,2021-06-12,US,quantile,0.1,
0,2021-06-04,2 wk ahead inc death,2021-06-12,US,quantile,0.15,
0,2021-06-04,2 wk ahead cum death,2021-06-12,US,quantile,0.15,
0,2021-06-04,2 wk ahead inc death,2021-06-12,US,quantile,0.2,
0,2021-06-04,2 wk ahead cum death,2021-06-12,US,quantile,0.2,
0,2021-06-04,2 wk ahead inc death,2021-06-12,US,quantile,0.25,
0,2021-06-04,2 wk ahead cum death,2021-06-12,US,quantile,0.25,
0,2021-06-04,2 wk ahead inc death,2021-06-12,US,quantile,0.3,
0,2021-06-04,2 wk ahead cum death,2021-06-12,US,quantile,0.3,
0,2021-06-04,2 wk ahead inc death,2021-06-12,US,quantile,0.35,
0,2021-06-04,2 wk ahead cum death,2021-06-12,US,quantile,0.35,
0,2021-06-04,2 wk ahead inc death,2021-06-12,US,quantile,0.4,
0,2021-06-04,2 wk ahead cum death,2021-06-12,US,quantile,0.4,
0,2021-06-04,2 wk ahead inc death,2021-06-12,US,quantile,0.45,
0,2021-06-04,2 wk ahead cum death,2021-06-12,US,quantile,0.45,
0,2021-06-04,2 wk ahead inc death,2021-06-12,US,quantile,0.5,
0,2021-06-04,2 wk ahead cum death,2021-06-12,US,quantile,0.5,
0,2021-06-04,2 wk ahead inc death,2021-06-12,US,quantile,0.55,
0,2021-06-04,2 wk ahead cum death,2021-06-12,US,quantile,0.55,
0,2021-06-04,2 wk ahead inc death,2021-06-12,US,quantile,0.6,
0,2021-06-04,2 wk ahead cum death,2021-06-12,US,quantile,0.6,
0,2021-06-04,2 wk ahead inc death,2021-06-12,US,quantile,0.65,
0,2021-06-04,2 wk ahead cum death,2021-06-12,US,quantile,0.65,
0,2021-06-04,2 wk ahead inc death,2021-06-12,US,quantile,0.7,
0,2021-06-04,2 wk ahead cum death,2021-06-12,US,quantile,0.7,
0,2021-06-04,2 wk ahead inc death,2021-06-12,US,quantile,0.75,
0,2021-06-04,2 wk ahead cum death,2021-06-12,US,quantile,0.75,
0,2021-06-04,2 wk ahead inc death,2021-06-12,US,quantile,0.8,
0,2021-06-04,2 wk ahead cum death,2021-06-12,US,quantile,0.8,
0,2021-06-04,2 wk ahead inc death,2021-06-12,US,quantile,0.85,
0,2021-06-04,2 wk ahead cum death,2021-06-12,US,quantile,0.85,
0,2021-06-04,2 wk ahead inc death,2021-06-12,US,quantile,0.9,
0,2021-06-04,2 wk ahead cum death,2021-06-12,US,quantile,0.9,
0,2021-06-04,2 wk ahead inc death,2021-06-12,US,quantile,0.95,
0,2021-06-04,2 wk ahead cum death,2021-06-12,US,quantile,0.95,
0,2021-06-04,2 wk ahead inc death,2021-06-12,US,quantile,0.975,
0,2021-06-04,2 wk ahead cum death,2021-06-12,US,quantile,0.975,
0,2021-06-04,2 wk ahead inc death,2021-06-12,US,quantile,0.99,
0,2021-06-04,2 wk ahead cum death,2021-06-12,US,quantile,0.99,
0,2021-06-04,2 wk ahead inc case,2021-06-12,US,point,NA,0.0
0,2021-06-04,2 wk ahead inc death,2021-06-12,US,point,NA,1090.0276965927333
0,2021-06-04,2 wk ahead cum death,2021-06-12,US,point,NA,597466.0629908232
0,2021-06-04,3 wk ahead inc case,2021-06-19,US,quantile,0.025,
0,2021-06-04,3 wk ahead inc case,2021-06-19,US,quantile,0.1,
0,2021-06-04,3 wk ahead inc case,2021-06-19,US,quantile,0.25,
0,2021-06-04,3 wk ahead inc case,2021-06-19,US,quantile,0.5,
0,2021-06-04,3 wk ahead inc case,2021-06-19,US,quantile,0.75,
0,2021-06-04,3 wk ahead inc case,2021-06-19,US,quantile,0.9,
0,2021-06-04,3 wk ahead inc case,2021-06-19,US,quantile,0.975,
0,2021-06-04,3 wk ahead inc death,2021-06-19,US,quantile,0.01,
0,2021-06-04,3 wk ahead cum death,2021-06-19,US,quantile,0.01,
0,2021-06-04,3 wk ahead inc death,2021-06-19,US,quantile,0.025,
0,2021-06-04,3 wk ahead cum death,2021-06-19,US,quantile,0.025,
0,2021-06-04,3 wk ahead inc death,2021-06-19,US,quantile,0.05,
0,2021-06-04,3 wk ahead cum death,2021-06-19,US,quantile,0.05,
0,2021-06-04,3 wk ahead inc death,2021-06-19,US,quantile,0.1,
0,2021-06-04,3 wk ahead cum death,2021-06-19,US,quantile,0.1,
0,2021-06-04,3 wk ahead inc death,2021-06-19,US,quantile,0.15,
0,2021-06-04,3 wk ahead cum death,2021-06-19,US,quantile,0.15,
0,2021-06-04,3 wk ahead inc death,2021-06-19,US,quantile,0.2,
0,2021-06-04,3 wk ahead cum death,2021-06-19,US,quantile,0.2,
0,2021-06-04,3 wk ahead inc death,2021-06-19,US,quantile,0.25,
0,2021-06-04,3 wk ahead cum death,2021-06-19,US,quantile,0.25,
0,2021-06-04,3 wk ahead inc death,2021-06-19,US,quantile,0.3,
0,2021-06-04,3 wk ahead cum death,2021-06-19,US,quantile,0.3,
0,2021-06-04,3 wk ahead inc death,2021-06-19,US,quantile,0.35,
0,2021-06-04,3 wk ahead cum death,2021-06-19,US,quantile,0.35,
0,2021-06-04,3 wk ahead inc death,2021-06-19,US,quantile,0.4,
0,2021-06-04,3 wk ahead cum death,2021-06-19,US,quantile,0.4,
0,2021-06-04,3 wk ahead inc death,2021-06-19,US,quantile,0.45,
0,2021-06-04,3 wk ahead cum death,2021-06-19,US,quantile,0.45,
0,2021-06-04,3 wk ahead inc death,2021-06-19,US,quantile,0.5,
0,2021-06-04,3 wk ahead cum death,2021-06-19,US,quantile,0.5,
0,2021-06-04,3 wk ahead inc death,2021-06-19,US,quantile,0.55,
0,2021-06-04,3 wk ahead cum death,2021-06-19,US,quantile,0.55,
0,2021-06-04,3 wk ahead inc death,2021-06-19,US,quantile,0.6,
0,2021-06-04,3 wk ahead cum death,2021-06-19,US,quantile,0.6,
0,2021-06-04,3 wk ahead inc death,2021-06-19,US,quantile,0.65,
0,2021-06-04,3 wk ahead cum death,2021-06-19,US,quantile,0.65,
0,2021-06-04,3 wk ahead inc death,2021-06-19,US,quantile,0.7,
0,2021-06-04,3 wk ahead cum death,2021-06-19,US,quantile,0.7,
0,2021-06-04,3 wk ahead inc death,2021-06-19,US,quantile,0.75,
0,2021-06-04,3 wk ahead cum death,2021-06-19,US,quantile,0.75,
0,2021-06-04,3 wk ahead inc death,2021-06-19,US,quantile,0.8,
0,2021-06-04,3 wk ahead cum death,2021-06-19,US,quantile,0.8,
0,2021-06-04,3 wk ahead inc death,2021-06-19,US,quantile,0.85,
0,2021-06-04,3 wk ahead cum death,2021-06-19,US,quantile,0.85,
0,2021-06-04,3 wk ahead inc death,2021-06-19,US,quantile,0.9,
0,2021-06-04,3 wk ahead cum death,2021-06-19,US,quantile,0.9,
0,2021-06-04,3 wk ahead inc death,2021-06-19,US,quantile,0.95,
0,2021-06-04,3 wk ahead cum death,2021-06-19,US,quantile,0.95,
0,2021-06-04,3 wk ahead inc death,2021-06-19,US,quantile,0.975,
0,2021-06-04,3 wk ahead cum death,2021-06-19,US,quantile,0.975,
0,2021-06-04,3 wk ahead inc death,2021-06-19,US,quantile,0.99,
0,2021-06-04,3 wk ahead cum death,2021-06-19,US,quantile,0.99,
0,2021-06-04,3 wk ahead inc case,2021-06-19,US,point,NA,0.0
0,2021-06-04,3 wk ahead inc death,2021-06-19,US,point,NA,600.1031297802692
0,2021-06-04,3 wk ahead cum death,2021-06-19,US,point,NA,598066.1661206034
0,2021-06-04,4 wk ahead inc case,2021-06-26,US,quantile,0.025,
0,2021-06-04,4 wk ahead inc case,2021-06-26,US,quantile,0.1,
0,2021-06-04,4 wk ahead inc case,2021-06-26,US,quantile,0.25,
0,2021-06-04,4 wk ahead inc case,2021-06-26,US,quantile,0.5,
0,2021-06-04,4 wk ahead inc case,2021-06-26,US,quantile,0.75,
0,2021-06-04,4 wk ahead inc case,2021-06-26,US,quantile,0.9,
0,2021-06-04,4 wk ahead inc case,2021-06-26,US,quantile,0.975,
0,2021-06-04,4 wk ahead inc death,2021-06-26,US,quantile,0.01,
0,2021-06-04,4 wk ahead cum death,2021-06-26,US,quantile,0.01,
0,2021-06-04,4 wk ahead inc death,2021-06-26,US,quantile,0.025,
0,2021-06-04,4 wk ahead cum death,2021-06-26,US,quantile,0.025,
0,2021-06-04,4 wk ahead inc death,2021-06-26,US,quantile,0.05,
0,2021-06-04,4 wk ahead cum death,2021-06-26,US,quantile,0.05,
0,2021-06-04,4 wk ahead inc death,2021-06-26,US,quantile,0.1,
0,2021-06-04,4 wk ahead cum death,2021-06-26,US,quantile,0.1,
0,2021-06-04,4 wk ahead inc death,2021-06-26,US,quantile,0.15,
0,2021-06-04,4 wk ahead cum death,2021-06-26,US,quantile,0.15,
0,2021-06-04,4 wk ahead inc death,2021-06-26,US,quantile,0.2,
0,2021-06-04,4 wk ahead cum death,2021-06-26,US,quantile,0.2,
0,2021-06-04,4 wk ahead inc death,2021-06-26,US,quantile,0.25,
0,2021-06-04,4 wk ahead cum death,2021-06-26,US,quantile,0.25,
0,2021-06-04,4 wk ahead inc death,2021-06-26,US,quantile,0.3,
0,2021-06-04,4 wk ahead cum death,2021-06-26,US,quantile,0.3,
0,2021-06-04,4 wk ahead inc death,2021-06-26,US,quantile,0.35,
0,2021-06-04,4 wk ahead cum death,2021-06-26,US,quantile,0.35,
0,2021-06-04,4 wk ahead inc death,2021-06-26,US,quantile,0.4,
0,2021-06-04,4 wk ahead cum death,2021-06-26,US,quantile,0.4,
0,2021-06-04,4 wk ahead inc death,2021-06-26,US,quantile,0.45,
0,2021-06-04,4 wk ahead cum death,2021-06-26,US,quantile,0.45,
0,2021-06-04,4 wk ahead inc death,2021-06-26,US,quantile,0.5,
0,2021-06-04,4 wk ahead cum death,2021-06-26,US,quantile,0.5,
0,2021-06-04,4 wk ahead inc death,2021-06-26,US,quantile,0.55,
0,2021-06-04,4 wk ahead cum death,2021-06-26,US,quantile,0.55,
0,2021-06-04,4 wk ahead inc death,2021-06-26,US,quantile,0.6,
0,2021-06-04,4 wk ahead cum death,2021-06-26,US,quantile,0.6,
0,2021-06-04,4 wk ahead inc death,2021-06-26,US,quantile,0.65,
0,2021-06-04,4 wk ahead cum death,2021-06-26,US,quantile,0.65,
0,2021-06-04,4 wk ahead inc death,2021-06-26,US,quantile,0.7,
0,2021-06-04,4 wk ahead cum death,2021-06-26,US,quantile,0.7,
0,2021-06-04,4 wk ahead inc death,2021-06-26,US,quantile,0.75,
0,2021-06-04,4 wk ahead cum death,2021-06-26,US,quantile,0.75,
0,2021-06-04,4 wk ahead inc death,2021-06-26,US,quantile,0.8,
0,2021-06-04,4 wk ahead cum death,2021-06-26,US,quantile,0.8,
0,2021-06-04,4 wk ahead inc death,2021-06-26,US,quantile,0.85,
0,2021-06-04,4 wk ahead cum death,2021-06-26,US,quantile,0.85,
0,2021-06-04,4 wk ahead inc death,2021-06-26,US,quantile,0.9,
0,2021-06-04,4 wk ahead cum death,2021-06-26,US,quantile,0.9,
0,2021-06-04,4 wk ahead inc death,2021-06-26,US,quantile,0.95,
0,2021-06-04,4 wk ahead cum death,2021-06-26,US,quantile,0.95,
0,2021-06-04,4 wk ahead inc death,2021-06-26,US,quantile,0.975,
0,2021-06-04,4 wk ahead cum death,2021-06-26,US,quantile,0.975,
0,2021-06-04,4 wk ahead inc death,2021-06-26,US,quantile,0.99,
0,2021-06-04,4 wk ahead cum death,2021-06-26,US,quantile,0.99,
0,2021-06-04,4 wk ahead inc case,2021-06-26,US,point,NA,0.0
0,2021-06-04,4 wk ahead inc death,2021-06-26,US,point,NA,188.00818328699097
0,2021-06-04,4 wk ahead cum death,2021-06-26,US,point,NA,598254.1743038904
