,dates,death_025_quantiles,death_975_quantiles,case_025_quantiles,case_975_quantiles
0,2021-06-12,539.82627090707,554.6656315454304,29509.0,29775.651693978958
1,2021-06-19,541.82984918932,563.2504303775339,29509.0,29785.2838409812
2,2021-06-26,545.66634266992,567.1945133028638,29509.0,29785.140925787553
3,2021-07-03,547.7626061877849,571.7259843844022,29509.0,29896.64667350104
