,dates,death_025_quantiles,death_975_quantiles,case_025_quantiles,case_975_quantiles
0,2021-10-16,627.0461369,636.7895774,37972.890717,38481.055154
1,2021-10-23,633.8950851,647.8320138,39191.2025845,39876.185880000005
2,2021-10-30,642.8314628,658.9084719,40399.8517906,41280.439244
3,2021-11-6,651.0955324,671.7299747,41739.9650203,42732.888582
