,dates,death_025_quantiles,death_975_quantiles,case_025_quantiles,case_975_quantiles
0,2021-12-11,771.2227678347838,789.6496919581399,51696.47800111783,52794.77957358333
1,2021-12-18,790.3586363681549,818.2849049154115,53462.82747329641,55089.61526023745
2,2021-12-25,808.0760443473226,845.7190035965119,55130.512087040486,57616.97368241693
3,2022-01-01,829.7965032688876,871.1361685877225,56863.28474362133,59317.16362276407
