,dates,death_025_quantiles,death_975_quantiles,case_025_quantiles,case_975_quantiles
0,2021-08-21,557.666198854464,567.0862495581931,31012.18874351753,31259.629258123678
1,2021-08-28,552.9256465107131,567.9781843623202,31473.735869738157,31872.046261500967
2,2021-09-04,549.6982706476164,566.3176113995418,32044.747625474152,32530.95542709079
3,2021-09-11,544.2319850236729,566.8952013250521,32684.09790533448,33219.37996593244
