,dates,death_025_quantiles,death_975_quantiles,case_025_quantiles,case_975_quantiles
0,2022-02-05,947.0537453693476,1016.741977587016,72674.62309506952,76129.1494821813
1,2022-02-12,973.3611407699476,1066.9811780951632,76006.66419204345,80240.22427590252
2,2022-02-19,1015.7053093505536,1111.4049962860324,78993.88346638114,84765.33682420735
3,2022-02-26,1047.72566877414,1165.196532431142,82217.75941213378,88699.21561396579
