,training_days,cumulative_truth_baseline_conf,1wk_ahead_cumulative_preds_conf,2wk_ahead_cumulative_preds_conf,3wk_ahead_cumulative_preds_conf,4wk_ahead_cumulative_preds_conf,cumulative_truth_baseline_death,1wk_ahead_cumulative_preds_death,2wk_ahead_cumulative_preds_death,3wk_ahead_cumulative_preds_death,4wk_ahead_cumulative_preds_death
0,160,594920,621190.1570414107,639377.2158966035,651416.3626243791,660231.765102886,14951,15392.523185739577,15870.955785877726,16232.138773109404,16516.245895127304
1,170,612710,629696.8091563245,645110.407116788,654882.201690024,663126.2307123102,15536,15832.350169895924,16218.76755589282,16535.34186669272,16767.70204733928
2,153,579574,607197.2192157768,626006.1861971101,640612.8427500066,651723.6517646826,14550,15065.32825037572,15447.660621584826,15918.171667597979,16265.28524285777
3,173,617745,637321.0260029498,650213.7275567594,659311.1193710389,668753.601089732,15725,16050.98149699406,16403.00406290136,16672.330127500238,16871.758137204273
4,179,624970,641850.5970722935,655701.3407316867,666524.2291449229,676899.7754315706,15939,16207.307489925113,16530.069115699993,16799.632499784995,16976.67597580537
5,157,586673,610064.8327373274,631834.5583736834,645530.8695103892,655614.0513352851,14702,15024.578752367535,15729.369669553831,16073.836328873096,16401.582157898665
6,145,555747,587249.5355536813,608594.6538633427,624536.1782227091,638666.4942623699,13873,14397.441937007727,14968.284652974684,15388.333495464241,15857.570297196206
7,168,610138,631873.2759153293,646374.6511387525,655994.0365504723,663742.4033375649,15525,15860.88626282172,16260.190100861719,16561.13361142103,16796.86834040912
8,124,487356,529375.7635412989,550715.727684251,571049.896129594,598188.7297883134,11801,12507.835871643218,13016.242206378844,13603.11138344563,14455.28964895105
9,162,596746,621104.109456753,638801.9774065907,650619.5991067427,659220.4308803813,15181,15667.943997036959,15976.82282419951,16323.834533794992,16596.278298507266
10,182,628956,644576.3255290266,655662.283436497,666426.1964958555,677520.0801259751,16119,16410.73836733696,16684.4642298268,16876.379632011987,17036.566689045685
11,149,567682,591095.7676789955,612100.9571372689,628241.1765741265,641107.696512715,14192,14643.406172566232,15101.551739182352,15658.440983403756,15983.828480120123
12,121,472780,508221.77003739873,539824.194599674,559121.3374802297,582910.5928077807,11289,11765.30830322213,12619.221758746116,13236.014481930526,13875.929486583951
13,130,508449,537935.3820715642,561213.6228410514,584455.9367066212,606308.3195006425,12415,12900.245124532445,13483.545373149405,14133.227909562693,14804.110979128869
14,150,570150,596980.1678933926,618141.3001447333,634576.1435245926,646785.9937606716,14296,14738.587148084998,15168.487920303061,15803.505339317931,16117.521536331082
15,146,559655,591620.082948379,613010.4068607828,628649.7718941544,642431.2747406183,13913,14530.108703840724,15057.222379430454,15449.257571682316,15908.860756508762
16,123,482815,523505.86033674655,551524.3758792047,571824.1580617916,594721.3007385599,11588,12182.254060766352,13000.223322576763,13598.071014292538,14246.744140239312
17,118,460346,504312.0617533388,536258.0618027278,552889.4256136904,573065.8949299417,10965,11643.112760449945,12431.634092388353,12965.59244059126,13567.257919852858
18,100,340964,372711.5457214744,418757.4062350739,466212.51340986224,502586.0854301222,8940,9229.524981682596,9839.615931399334,10697.693504882734,11564.604394157235
19,181,628012,644064.9508703555,656534.3373598874,667157.9222941501,678162.642964702,16027,16329.153420796976,16632.63544370949,16828.85604685585,17005.094131820802
20,139,528621,560176.4347077318,595960.6173380667,617362.425253529,633018.6579732494,13018,13413.033272369792,14374.841209271077,15046.7403332701,15457.06581418678
21,117,454720,502854.72524129227,534428.604233553,555588.821627424,575754.1964014485,10900,11533.954298937097,12356.232714700698,12963.619966237877,13565.984124309414
22,105,378152,439336.32165066205,495566.90360654896,534573.6299051365,565674.6777484713,9467,10064.766230100367,10958.294429889917,11845.058442708143,12727.092439356673
23,167,608627,630828.4004441801,645694.7538308509,655386.1398565179,663153.3864184472,15410,15769.307598309995,16169.70641179448,16477.315552925025,16734.93547788234
24,135,519876,542692.0370901956,567102.2851625571,591436.7908490644,608950.6826560483,12754,13141.494801990866,13744.422767593911,14546.202972695552,15042.102393825066
25,127,496056,531808.1696951481,553644.0497976895,575691.5312169844,600156.2160225998,12074,12821.974554301667,13320.62526839573,13895.12769067299,14721.642222684131
26,133,516326,548104.37323532,578877.0548798831,605134.6825013356,624655.9655236425,12690,12962.438652571656,13794.965686662154,14699.35354546077,15237.240255922361
27,147,562553,594807.8720506055,614944.603799118,630182.9980817068,643629.9966958908,14145,14707.934428755634,15173.042686254455,15685.381452449667,16030.596565541215
28,113,426576,475634.1298435099,511467.9242939452,541956.4162666321,562153.037972727,10321,10988.254472528444,11724.086545909617,12582.409370397734,13195.396103410189
29,115,443076,485564.6743663044,523275.1772343029,549944.3941603756,569176.7521932046,10625,11104.207784311995,11980.820050878767,12834.61093005233,13459.324453384605
30,110,410843,454543.71741670906,493342.9593613833,525191.340339104,546134.9118864939,10035,10551.803593686438,11297.72484114291,12179.535588544946,12790.155173819452
31,178,623731,640384.691425912,654453.8009853397,664908.5696073796,675106.9165744632,15925,16196.279262425733,16516.165209764727,16789.343768040704,16969.013569385912
32,103,352433,403478.0251066076,458836.48548685457,502634.12882966344,535001.0057162059,9170,9634.848637943276,10489.972008640305,11352.538879252597,12251.009033535307
33,125,491875,533145.2568593391,552004.9814166138,572539.2304510573,603615.7184464429,11868,12696.915005998348,13121.004224614091,13687.531139973898,14572.456873577054
34,109,402886,444977.3317772276,490436.6227516826,524559.36918124,550178.9369492836,9842,10312.993508474414,11135.176919874528,12009.438697025687,12835.766107399271
35,165,604233,626865.681312257,643478.8517979953,654001.4125681955,662232.6950022753,15314,15648.40065676995,16072.491512775716,16401.205569738784,16633.711019154896
36,164,602168,624359.9003769737,642790.8014795923,654280.922788794,662686.9238375452,15305,15672.671471603191,16041.730893181837,16402.664345645204,16642.02913428971
37,152,576573,606107.4481623059,624569.647599326,639553.3168185387,651018.8916863535,14511,14963.10973891203,15417.070250064642,15912.108825305535,16243.369509123659
38,119,465159,507311.68588572263,538724.2451533616,559058.776758908,580863.7726419414,11195,11777.20683344787,12591.435644068792,13204.660053621916,13820.694823433045
39,177,622813,638257.6055777576,651405.2367086599,661157.7773992334,671408.8299710716,15863,16145.863533694937,16476.123487440134,16734.82089477582,16928.130550991766
40,163,600093,619259.7635063248,636805.3771695907,648579.9370687726,656621.4927574875,15219,15606.762720456152,15924.036761807543,16282.158836977023,16559.269203176435
41,142,543611,565385.7600521542,587495.4812256964,604526.7757388595,619406.5551915478,13391,13777.570828525115,14528.17501096251,15010.263135311734,15541.424625038933
42,174,619499,636848.4792393529,649057.9607171301,657893.4506466184,667102.9387982829,15750,16081.532327015353,16388.311329057153,16661.09579128238,16836.357384784034
43,112,426576,474275.11774392833,508935.91071194946,538937.9495417401,559059.2345986366,10321,10903.297147008392,11659.662725298416,12517.987263448584,13130.235482772403
44,140,538121,562873.0645671985,594731.5462205615,616289.3569155416,631801.2595868178,13306,13558.102884897577,14543.513440937113,15120.7371644569,15646.840102925666
45,108,395453,437704.57548588153,485232.5835219474,520212.4611530319,546641.6860478471,9759,10184.720361729087,11021.334116507225,11889.892348091087,12736.361416878755
46,156,585128,606580.6735077524,626381.574318326,640642.1613877544,651160.1477101726,14686,15022.732410305729,15614.765263143494,15972.904222456556,16312.747302259044
47,131,508449,538115.8267668285,558634.0885640853,585870.7125533829,606708.1901998797,12415,13023.60394234944,13501.26617302448,14332.048584835926,14964.666582166701
48,129,504629,534871.6367962112,557531.2234806303,580843.8815489486,604418.6389416293,12342,12798.413110303834,13436.79588699429,14098.309401592996,14792.432708165603
49,171,614143,633978.1151890109,650458.0653371185,660569.6290800048,669551.2687700806,15609,15892.484020543765,16326.420809642017,16610.519820325288,16863.56173193443
50,107,388942,446521.8926161174,492775.0662017269,529852.9189395552,558251.8234263984,9564,10050.168970285375,10925.725528285706,11800.668152523182,12666.144262706852
51,172,615860,634933.5994415483,649639.6725251955,659377.1685909324,668559.5849370126,15644,15914.818661464875,16325.185944879568,16593.231662335733,16840.726932671656
52,132,508449,534645.9467261576,557831.4246918752,589546.3474656357,609560.6734047553,12415,12764.537197771495,13409.472151449685,14327.389986120443,14969.817938437916
53,175,620685,639626.147053651,651822.8907121713,660512.9942819071,670252.7324930659,15854,16182.44888490064,16496.951497103757,16749.64859334511,16926.46972350333
54,180,626477,642647.0854798589,654558.8637429181,665292.0979177312,675698.9320653952,16019,16303.489177790805,16601.115532629745,16818.579180542434,16983.97364100592
55,106,378152,440060.7464197988,486289.30576929945,524361.0953510662,555187.4392399784,9467,10066.616816735728,10895.86408786326,11759.030173622781,12636.540684870457
56,169,610138,630849.6322941124,645586.8498817598,655408.2890406022,663224.3835804281,15525,15887.312614239765,16259.763111657381,16557.39957343633,16793.9057119323
57,154,581785,609302.7494580549,626851.7621059597,640900.0889680836,651597.2501322313,14669,15170.845792837876,15658.657369119555,16016.276557809304,16350.765872216403
58,116,448418,490624.05478096876,525918.2914694335,551356.9613566686,571535.7486046032,10706,11272.093792594791,12116.038400728376,12931.120272893892,13532.952814361275
59,155,581785,609218.1055511974,627966.6056607186,642475.0923865688,653294.0702846977,14669,15149.183538343588,15659.595240234234,16025.812926982751,16363.204753317945
60,138,528621,561381.963455225,590233.2703427715,611350.8744576778,627221.2170173689,13018,13586.953564122778,14377.034065113725,15014.026362858081,15437.164626323764
61,102,352433,400131.53272752574,450531.28353170375,495328.43830336374,529450.1005968014,9170,9590.395141918038,10288.200348296914,11141.850614839735,12021.720680940813
62,141,538121,586931.8547146665,624564.1886489134,646193.0120766422,661732.887908265,13306,13892.213272888734,14827.832990372855,15402.153724315416,15927.614299949762
63,137,528621,561033.9457515492,590445.7925034396,613523.9338805848,630423.6968469352,13018,13538.193135543235,14222.84091527293,14915.021802498131,15360.532929107067
64,144,551498,579836.0638453695,604934.8726540855,622197.1308112877,636742.5362093713,13667,14133.44617149497,14783.126448649884,15223.031351059537,15770.796518520232
65,159,592382,618027.0436240111,635886.7124304773,648131.2452545583,657109.2778469519,14933,15292.26831222819,15836.455880424257,16183.278003220177,16483.579772327423
66,114,436400,472412.9880781387,508868.01600875787,537471.1297186075,556256.1903534406,10422,10834.40190056398,11680.50941928689,12549.84684915771,13151.605934450396
67,111,420268,467777.7690379663,506476.9563680276,537654.9541347609,554175.774983994,10117,10752.662082633005,11465.84999818411,12351.632355703365,12896.28703537154
68,104,369801,399366.1671305636,452097.929681006,492622.87193224236,524204.4492948502,9357,9611.282978960435,10416.229769811336,11269.529804445367,12173.187622850839
69,166,606488,632346.1327929518,648530.8984177985,658908.8447796447,666878.8742879078,15402,15774.130507925363,16185.631279321138,16520.785216001426,16765.649650689767
70,122,478171,515379.80623016553,544393.6427710889,563815.8438312686,586636.2424939505,11495,11991.59688001979,12846.512554621788,13480.097559148242,14123.685076189098
71,161,596746,620929.4171393831,636969.1819566872,648290.4898819062,656756.9714838541,15181,15605.45042838992,15945.828194628793,16290.158291524582,16559.78826728655
72,176,620685,640634.6339361158,654517.322374468,664039.2131847711,674105.0589331068,15854,16207.204578082099,16523.83476197176,16783.452218963303,16963.9180752588
73,126,496056,534143.3090311561,556372.2721589982,578461.361899607,602930.5545519467,12074,12795.661244561448,13297.04606865949,13895.94571302333,14731.506596549903
74,136,523839,567987.6457564546,598999.5254068864,624524.3849461973,641412.2084336006,12966,13472.331522435488,14262.74399832209,15025.000545747642,15452.188955061023
75,101,347746,389285.84864020365,436558.6260848913,483411.5708663639,518329.7427571449,9094,9504.150963567781,10134.389705972319,10993.51765243995,11861.615234354082
76,148,562553,593478.0780901342,615031.8170300773,630642.9630940398,644169.6915214934,14145,14786.786598042212,15203.862792885371,15708.436700036564,16054.47666989302
77,158,589869,614490.850053004,635278.5887984311,648689.722902338,658294.2997365191,14770,15053.092363832906,15748.562216999177,16121.664290762945,16428.983843858685
78,143,546642,585380.9569083661,611851.1740637678,629336.1728402374,645010.1669307507,13608,14101.001630447208,14810.3490409299,15236.542083321834,15843.877422490927
79,151,573278,601512.1852012096,622601.4815534137,638078.9848905497,650009.5210007867,14336,14714.011642885367,15250.90136639749,15828.553911013976,16170.91019709772
80,128,501115,528557.2902404409,549511.8630029707,573644.8149707585,597758.0940347168,12153,12683.52699393925,13202.983977995546,13836.014546739187,14636.086471104483
81,183,628956,644043.2941894443,655282.7149662453,666239.477026674,677404.8112710636,16119,16424.19443125218,16684.297632114867,16876.699104234835,17037.882591600377
82,185,631532,644255.2729531679,657695.3186291942,669126.9805329962,680797.4138713094,16149,16376.592162116376,16690.886473803126,16897.501624475233,17062.785040926905
83,184,630408,643396.1428337273,655856.6736605337,667462.1355775136,679181.4156993129,16130,16384.027883311002,16656.69997674984,16874.32389134909,17033.916345446472
84,120,465159,505909.0221917392,537320.2211145137,557690.106336044,579494.3586596461,11195,11876.015381423125,12628.739705927568,13226.357584780511,13840.134151606544
85,134,516326,570241.4030073254,606742.1144894134,633470.7518004305,653127.8980970543,12690,13379.483325171932,14132.605200760476,15044.851116151585,15589.434075708712
