,training_days,1wk_ahead_MPE_conf,2wk_ahead_MPE_conf,3wk_ahead_MPE_conf,4wk_ahead_MPE_conf,1wk_ahead_MPE_death,2wk_ahead_MPE_death,3wk_ahead_MPE_death,4wk_ahead_MPE_death
0,55,110.91453121,150.10995263,90.65630694,80.65319847,51.90704416,50.02266312,61.2665058,79.1815783
1,28,40.75907395,29.77423905,29.98460517,53.4110525,50.13439837,56.25549584,31.82071145,33.74546844
2,26,10.03508728,113.54937542,457.64269404,1262.58738346,55.69750724,75.68879512,72.80170391,66.17139905
3,52,115.31843312,141.88874895,78.14437745,74.38206813,51.05744623,44.79828534,46.51275907,61.73695381
4,84,86.1075083,79.50352927,121.60434328,25.80745918,153.47075382,263.27898049,466.03612865,461.16992853
5,62,124.2833943,150.51152181,97.35369989,84.41797152,44.03402177,53.80042428,83.20849471,52.75098481
6,31,20.85720881,110.41572535,206.71740909,332.93021893,52.3331892,223.44343579,718.33323747,2216.18240167
7,60,118.04720524,146.10374053,91.75475174,71.08921192,45.57124661,47.02919143,62.06203295,79.43300853
8,43,137.784533,153.73935344,159.53096277,169.98494099,23.5837252,49.73445196,48.32755634,56.69615907
9,35,31.48277347,54.22894912,63.68815676,66.202553,60.10356686,77.46755424,90.95551587,95.97519859
10,75,105.00277798,142.15403736,101.53844672,75.16365226,63.85024094,80.04677412,46.1391811,83.42070636
11,59,121.59904161,145.40153008,93.19214993,72.96962023,43.71562695,44.8624782,62.26325038,80.91391585
12,27,28.1649557,41.41514329,93.08553658,201.98803878,83.66203449,93.70448392,94.19908571,94.38038011
13,69,104.76837107,106.67039148,88.39022828,82.01832185,54.74491931,82.15717195,50.28911148,73.24018211
14,63,92.84946537,100.47675228,69.36074741,60.98213444,36.74705722,55.21480359,95.82308492,40.24496873
15,77,84.0913056,115.04947109,80.78314854,80.42808182,72.6267622,69.23328393,70.10061072,124.78122328
16,38,71.43987692,115.31941891,126.60773326,142.30424959,42.0804824,72.41588207,110.25923482,183.47598708
17,29,41.4262142,27.04745262,26.83866474,47.63273448,26.30327875,37.44976213,254.59172709,503.21335265
18,82,58.54963268,63.19481636,62.88474679,125.58652789,172.40146144,171.0283669,280.26946771,463.24818864
19,90,38.18299648,49.1104308,117.54252728,19.4075364,189.79122535,279.83588244,475.98490429,393.28805501
20,24,46.62360196,47.51291346,24.97912103,47.62697378,40.0411367,15.24200384,86.05545035,332.81356451
21,34,22.08277021,43.4048996,51.0028849,61.69546941,74.29669761,87.89549976,91.58762947,89.93535758
22,54,109.31838798,144.05985239,85.57230758,78.60262984,64.41482886,57.05792401,65.24716112,67.11473009
23,21,24.67010054,29.86524177,87.58774557,337.52864229,118.19220882,484.75818164,9052.79159754,385144.83966539
24,58,120.98684754,144.81205903,92.21440209,73.45005415,44.60899582,45.62853716,62.11578939,82.68135072
25,57,85.45237419,91.4787641,72.55222735,52.11019963,45.03233423,49.90883484,62.43901891,70.27907669
26,73,96.31591878,131.13494851,90.24431271,70.15545153,61.53898657,77.95493549,46.55528333,70.41935549
27,64,97.84141393,100.86958696,70.08894271,66.40908403,45.62192459,57.96180826,83.40475939,48.72547148
28,33,47.77292697,105.2202191,589.53184931,1299.95346888,68.92910625,85.58344658,89.59368379,92.45444429
29,53,98.57115439,126.45161328,70.92230375,67.50009876,52.56881611,47.79107375,48.81822649,61.42893358
30,71,100.25512106,105.0592717,84.79624771,76.72275724,57.81974036,77.89475295,55.66477134,67.48171382
31,89,46.80470477,49.93906939,95.73655036,28.08704684,150.45830524,274.91032718,518.45939664,441.08923002
32,44,90.8257477,117.15656888,117.61482047,120.74929958,29.84539931,45.9622643,54.5883171,87.12132854
33,87,65.41828166,64.03190762,86.92347516,30.65364968,166.81965525,283.28994538,636.1313973,371.03649408
34,85,94.92901339,88.23722651,89.80849598,30.77844785,150.34263789,262.25910584,468.50767617,457.8899978
35,72,129.13993792,167.9674657,128.33391604,134.55128357,61.45005857,77.81619832,51.11770917,68.22011005
36,80,49.38254055,57.95082693,76.60821529,137.00974937,191.3086227,174.23754143,262.16139104,536.38286893
37,50,127.93626074,158.60303459,143.81484259,140.77003772,74.22908449,113.20441938,155.43408711,226.16950882
38,65,95.95814424,99.21917602,71.03863398,64.82068049,44.27778118,60.81736936,84.46915209,40.91950281
39,68,101.68141727,103.7876947,82.61615734,76.00439085,39.43901887,61.95918047,88.26507818,25.49419877
40,61,116.89178617,148.47229007,93.01760916,73.58431122,42.35014477,42.22252892,62.05066102,84.3372896
41,45,118.50018661,148.25893442,143.20324735,150.22745046,42.95394221,80.33974598,111.18328121,150.68060166
42,74,100.78950387,138.05295613,97.15186296,71.3462774,62.12803493,78.49569849,49.78977872,84.9169529
43,78,90.00381735,116.30991271,85.19069314,71.44399029,76.56345301,62.14942492,68.11542032,155.60361718
44,39,91.17660593,124.04942316,131.29131328,147.63477375,41.39006908,98.04509894,162.43651081,471.08652428
45,37,82.45216127,145.43495054,158.26464272,187.62089525,62.42282148,99.64711751,137.19125504,228.2680608
46,23,41.16514372,45.39634915,22.85485634,110.21406973,97.53574543,1995.17816345,39299.79402432,1183807.37803281
47,42,159.25890486,154.54162741,146.07716634,167.06756623,35.3769847,65.5528429,68.49543221,59.50159337
48,30,25.78617634,192.67343815,538.12112062,962.14736413,34.85687292,134.18429886,690.01102432,1991.35361703
49,25,28.3574161,31.02862267,143.07466568,341.38897043,55.74858199,288.91079097,1942.81740646,12327.0529982
50,70,103.36946342,106.95034027,87.03785947,86.330375,57.10656871,79.17742498,57.52926163,69.89164202
51,56,90.11585419,92.7786072,73.81142591,58.48474338,54.50649019,41.94006129,60.53550272,84.26778584
52,86,66.8614967,74.11715301,94.46002645,26.15395282,168.44111949,295.82499513,654.19900503,386.21997156
53,36,31.14947216,68.29976666,95.05241328,108.20429134,65.65659736,112.93589122,139.78180502,221.59165376
54,83,82.32741883,87.90787529,43.28595226,98.88391704,157.67311808,251.35339009,327.84759997,540.91662024
55,49,131.27508808,152.24477432,145.59719709,142.15025364,69.19589699,119.24163559,194.14444632,300.79071894
56,81,72.67207843,81.40635314,59.73333124,104.44100529,195.04973452,181.60102731,321.0291147,560.96171257
57,32,92.54853297,339.91321582,768.34156197,1609.59449746,18.96647443,35.38801946,119.43007612,306.70462903
58,20,22.37595428,30.15157952,97.71452426,347.0193324,93.75096689,98.89498323,99.36362312,99.33082147
59,76,98.37653512,131.20775491,93.82674969,66.06493808,76.6054416,58.04055184,72.15150885,85.46018984
60,48,119.47403168,138.77629368,150.63856691,143.22707114,44.38911659,82.47963102,118.54554708,189.9385275
61,47,85.20060764,110.42209497,112.00573947,111.12386706,28.77617236,64.93161672,70.7664261,97.58471177
62,79,82.59330173,116.36948056,77.75065694,76.2688271,80.29378923,55.26999831,64.39818969,219.54009839
63,40,99.19613925,136.03807983,133.9089479,162.33425769,26.02928845,31.89387855,60.47647996,56.86104039
64,46,109.55429679,149.81312161,145.18607783,150.54637821,31.14728267,55.97161484,75.76950788,116.23402898
65,88,43.88662924,51.89584575,99.51316169,29.93454572,163.7910636,322.35656379,608.09441349,556.63495472
66,41,173.09249646,166.92432657,104.53323478,172.43869181,25.97218765,33.0324108,44.26131925,39.29638298
67,51,124.38589402,142.87931991,81.24327499,81.63508239,56.64720475,56.42478463,69.57574166,70.772513
