,dates,death_025_quantiles,death_975_quantiles,case_025_quantiles,case_975_quantiles
0,2021-11-13,13979.109753776704,14045.884078074629,663097.2766247791,668827.9803493975
1,2021-11-20,14117.127004870004,14209.852819967477,676769.4938634585,684090.7200262856
2,2021-11-27,14261.54770239115,14382.203952316751,689175.654334097,697498.037001311
3,2021-12-04,14415.339165827409,14557.441878788415,702028.5284242271,711382.7908307328
