,dates,death_025_quantiles,death_975_quantiles,case_025_quantiles,case_975_quantiles
0,2021-08-28,12690.952241561008,12783.466105411148,538104.6992131533,542147.774899145
1,2021-09-04,12712.264363352308,12847.087234463956,543263.8496586882,554553.1774443034
2,2021-09-11,12749.494192623,12903.409042045329,548422.6872630536,561042.0301792717
3,2021-09-18,12766.32464645406,12980.410462153714,553803.6069035789,567448.0716308034
