,dates,death_025_quantiles,death_975_quantiles,case_025_quantiles,case_975_quantiles
0,2021-06-19,12395.851038587703,12471.298522134908,511485.0,514336.8247045879
1,2021-06-26,12401.386890256512,12529.347074196588,511485.0,515125.408163048
2,2021-07-03,12429.950343404678,12554.07753553519,511485.0,514595.6604183533
3,2021-07-10,12397.381072801532,12576.72837378706,511485.0,514475.58816087246
