,dates,death_025_quantiles,death_975_quantiles,case_025_quantiles,case_975_quantiles
0,2021-09-18,12945.642248527647,13019.950478849623,559599.068578789,566764.7197822542
1,2021-09-25,13002.218213295968,13147.187072390065,565032.4473012974,575182.1865520637
2,2021-10-02,13058.413180900612,13243.264663555598,571240.6909694759,583829.5992631249
3,2021-10-09,13134.469796632256,13312.095709337142,577570.3708872679,592601.1826370313
