,dates,death_025_quantiles,death_975_quantiles,case_025_quantiles,case_975_quantiles
0,2021-07-10,12480.471257291409,12580.565328496348,513275.0,519158.96632444195
1,2021-07-17,12496.307536257047,12614.671389348236,515560.2868477429,524269.0310593544
2,2021-07-24,12511.6745949077,12681.932766919574,519477.1680534808,529806.1223617132
3,2021-07-31,12565.74805357639,12741.228736287689,524411.2568431743,536313.9380279719
