,dates,death_025_quantiles,death_975_quantiles,case_025_quantiles,case_975_quantiles
0,2021-12-04,957.895624963772,979.7783945470346,54884.823535794094,56510.11657985576
1,2021-12-11,989.2139988758488,1017.2027872471136,56166.619589622045,58381.52957110575
2,2021-12-18,1020.0152718281176,1059.627492302821,58016.251674404775,60436.753637769456
3,2021-12-25,1053.0419893193446,1095.5028424571813,59643.00507347287,63126.2696983528
