,dates,death_025_quantiles,death_975_quantiles,case_025_quantiles,case_975_quantiles
0,2021-05-22,1131.83135653105,1158.02325218351,32481.840860601602,33178.32407709681
1,2021-05-29,1147.64095306271,1186.1373634802,33221.002986013445,34161.47624508672
2,2021-06-05,1157.3357235869,1203.59391848981,34124.289502185304,35225.64800602233
3,2021-06-12,1168.46198582358,1225.47654201252,35184.99148201612,36458.018869596686
