,dates,death_025_quantiles,death_975_quantiles,case_025_quantiles,case_975_quantiles
0,2021-10-30,805.6649686622651,824.5975454770594,45483.219443886774,46220.41534095862
1,2021-11-06,823.4180667758685,845.5656002423622,46995.93327715965,48045.004544847136
2,2021-11-13,841.7867902845271,869.8195606191766,48520.26441756994,49729.904424737026
3,2021-11-20,863.3739428937772,891.8260814755491,50086.696417662715,51596.935593433576
