,dates,death_025_quantiles,death_975_quantiles,case_025_quantiles,case_975_quantiles
0,2021-06-05,618.9651321442143,634.7762335577055,32342.0,32982.486837171076
1,2021-06-12,616.9708597608561,641.2016810534857,32547.39872887896,33242.580658882085
2,2021-06-19,610.5609133546568,643.8012219524022,32779.73452231668,33657.8521487751
3,2021-06-26,609.8361255331724,643.0540389099539,33033.38150205356,34068.82870383038
