,dates,death_025_quantiles,death_975_quantiles,case_025_quantiles,case_975_quantiles
0,2021-08-28,678.2758040877853,686.8487158918133,34435.07718079081,34779.34781262852
1,2021-09-04,684.6059327140092,698.6843146965076,34912.219206015114,35311.261832095945
2,2021-09-11,693.8417069762697,709.5343114528027,35400.52982852576,35875.60250794036
3,2021-09-18,699.050804534699,724.2086689239394,35913.404717828686,36548.72685964889
