,dates,death_025_quantiles,death_975_quantiles,case_025_quantiles,case_975_quantiles
0,2021-07-31,648.1311072620301,658.3768973668102,33442.26773676733,33905.27058816045
1,2021-08-07,648.105360925389,663.066408627117,34367.64868381492,35196.373764526485
2,2021-08-14,652.9988434948277,666.1624990792702,35490.11254658496,36540.881416921715
3,2021-08-21,653.6553123568345,674.6062522110577,36556.04443701413,37675.485175560985
