,dates,death_025_quantiles,death_975_quantiles,case_025_quantiles,case_975_quantiles
0,2022-02-19,1336.8532812701314,1380.3388338672264,83568.074047339,85725.08084368976
1,2022-02-26,1354.9314954232957,1407.512869555173,86623.01357868697,89965.50042966648
2,2022-03-05,1350.8627328571747,1434.914654165337,90766.46787165801,94609.35596941633
3,2022-03-12,1352.756655338245,1466.0280669726658,94251.54068126623,99533.53298067648
