,dates,death_025_quantiles,death_975_quantiles,case_025_quantiles,case_975_quantiles
0,2022-01-29,1278.6877641156077,1322.7867011437868,76770.63034312091,79891.87505543281
1,2022-02-05,1311.6354200865196,1373.7721701252487,80660.29434175647,85261.03032904815
2,2022-02-12,1349.8897433599395,1421.9592098047572,85180.44120600136,90660.60429418605
3,2022-02-19,1390.5590887405756,1467.0556760651843,89450.02401125412,94773.44099033643
