date,deaths,cases,location
2020-06-15,5135.0,46158.0,Detroit
2020-06-16,5147.0,46286.0,Detroit
2020-06-17,5149.0,46417.0,Detroit
2020-06-18,5162.0,46542.0,Detroit
2020-06-19,5163.0,46702.0,Detroit
2020-06-20,5177.0,47015.0,Detroit
2020-06-21,5178.0,47106.0,Detroit
2020-06-22,5181.0,47256.0,Detroit
2020-06-23,5186.0,47401.0,Detroit
2020-06-24,5189.0,47558.0,Detroit
2020-06-25,5204.0,47764.0,Detroit
2020-06-26,5204.0,47875.0,Detroit
2020-06-27,5219.0,48078.0,Detroit
2020-06-28,5223.0,48200.0,Detroit
2020-06-29,5224.0,48336.0,Detroit
2020-06-30,5249.0,48615.0,Detroit
2020-07-01,5252.0,48842.0,Detroit
2020-07-02,5260.0,49139.0,Detroit
2020-07-03,5262.0,49339.0,Detroit
2020-07-04,5262.0,49501.0,Detroit
2020-07-05,5262.0,49649.0,Detroit
2020-07-06,5264.0,49820.0,Detroit
2020-07-07,5285.0,50155.0,Detroit
2020-07-08,5291.0,50492.0,Detroit
2020-07-09,5294.0,50773.0,Detroit
2020-07-10,5305.0,51063.0,Detroit
2020-07-11,5326.0,51319.0,Detroit
2020-07-12,5327.0,51555.0,Detroit
2020-07-13,5331.0,51785.0,Detroit
2020-07-14,5335.0,52130.0,Detroit
2020-07-15,5337.0,52840.0,Detroit
2020-07-16,5352.0,53408.0,Detroit
2020-07-17,5357.0,53844.0,Detroit
2020-07-18,5363.0,54233.0,Detroit
2020-07-19,5364.0,54470.0,Detroit
2020-07-20,5368.0,54729.0,Detroit
2020-07-21,5374.0,55124.0,Detroit
2020-07-22,5378.0,55550.0,Detroit
2020-07-23,5384.0,55898.0,Detroit
2020-07-24,5388.0,56267.0,Detroit
2020-07-25,5383.0,56569.0,Detroit
2020-07-26,5383.0,57169.0,Detroit
2020-07-27,5385.0,57474.0,Detroit
2020-07-28,5390.0,57891.0,Detroit
2020-07-29,5385.0,58622.0,Detroit
2020-07-30,5400.0,59236.0,Detroit
2020-07-31,5405.0,59751.0,Detroit
2020-08-01,5406.0,60175.0,Detroit
2020-08-02,5405.0,60365.0,Detroit
2020-08-03,5408.0,60783.0,Detroit
2020-08-04,5414.0,61275.0,Detroit
2020-08-05,5416.0,61684.0,Detroit
2020-08-06,5436.0,62147.0,Detroit
2020-08-07,5450.0,62631.0,Detroit
2020-08-08,5447.0,63089.0,Detroit
2020-08-09,5446.0,63378.0,Detroit
2020-08-10,5450.0,63762.0,Detroit
2020-08-11,5455.0,64250.0,Detroit
2020-08-12,5458.0,64524.0,Detroit
2020-08-13,5469.0,65285.0,Detroit
2020-08-14,5473.0,65834.0,Detroit
2020-08-15,5483.0,66352.0,Detroit
2020-08-16,5486.0,66608.0,Detroit
2020-08-17,5485.0,66929.0,Detroit
2020-08-18,5497.0,67341.0,Detroit
2020-08-19,5501.0,67846.0,Detroit
2020-08-20,5513.0,68189.0,Detroit
2020-08-21,5513.0,68189.0,Detroit
2020-08-22,5526.0,68987.0,Detroit
2020-08-23,5527.0,69455.0,Detroit
2020-08-24,5531.0,69957.0,Detroit
2020-08-25,5540.0,70433.0,Detroit
2020-08-26,5543.0,70979.0,Detroit
2020-08-27,5554.0,71487.0,Detroit
2020-08-28,5558.0,71883.0,Detroit
2020-08-29,5558.0,71883.0,Detroit
2020-08-30,5576.0,72612.0,Detroit
2020-08-31,5578.0,72822.0,Detroit
2020-09-01,5587.0,73224.0,Detroit
2020-09-02,5598.0,73559.0,Detroit
2020-09-03,5607.0,73940.0,Detroit
2020-09-04,5612.0,74409.0,Detroit
2020-09-05,5614.0,74748.0,Detroit
2020-09-06,5614.0,74748.0,Detroit
2020-09-07,5616.0,75427.0,Detroit
2020-09-08,5618.0,75685.0,Detroit
2020-09-09,5680.0,76219.0,Detroit
2020-09-10,5686.0,76658.0,Detroit
2020-09-11,5691.0,77386.0,Detroit
2020-09-12,5695.0,77726.0,Detroit
2020-09-13,5695.0,77726.0,Detroit
2020-09-14,5700.0,78332.0,Detroit
2020-09-15,5708.0,78646.0,Detroit
2020-09-16,5713.0,78940.0,Detroit
2020-09-17,5719.0,79357.0,Detroit
2020-09-18,5716.0,79642.0,Detroit
2020-09-19,5725.0,79836.0,Detroit
2020-09-20,5725.0,79836.0,Detroit
2020-09-21,5731.0,80563.0,Detroit
2020-09-22,5741.0,80883.0,Detroit
2020-09-23,5752.0,81252.0,Detroit
2020-09-24,5756.0,81808.0,Detroit
2020-09-25,5762.0,82230.0,Detroit
2020-09-26,5772.0,82667.0,Detroit
2020-09-27,5772.0,82667.0,Detroit
2020-09-28,5774.0,83246.0,Detroit
2020-09-29,5784.0,83754.0,Detroit
2020-09-30,5789.0,84265.0,Detroit
2020-10-01,5799.0,84687.0,Detroit
2020-10-02,5803.0,85086.0,Detroit
2020-10-03,5811.0,85600.0,Detroit
2020-10-04,5811.0,85600.0,Detroit
2020-10-05,5815.0,86259.0,Detroit
2020-10-06,5825.0,86788.0,Detroit
2020-10-07,5827.0,87289.0,Detroit
2020-10-08,5837.0,87870.0,Detroit
2020-10-09,5843.0,88441.0,Detroit
2020-10-10,5854.0,89170.0,Detroit
2020-10-11,5854.0,89170.0,Detroit
2020-10-12,5857.0,89903.0,Detroit
2020-10-13,5864.0,90515.0,Detroit
2020-10-14,5871.0,91254.0,Detroit
2020-10-15,5893.0,92399.0,Detroit
2020-10-16,5899.0,93330.0,Detroit
2020-10-17,5910.0,94120.0,Detroit
2020-10-18,5910.0,94120.0,Detroit
2020-10-19,5922.0,95186.0,Detroit
2020-10-20,5926.0,96073.0,Detroit
2020-10-21,5939.0,97005.0,Detroit
2020-10-22,5961.0,97825.0,Detroit
2020-10-23,5965.0,98652.0,Detroit
2020-10-24,5981.0,99993.0,Detroit
2020-10-25,5981.0,99993.0,Detroit
2020-10-26,5991.0,101553.0,Detroit
2020-10-27,6001.0,102838.0,Detroit
2020-10-28,6008.0,104473.0,Detroit
2020-10-29,6023.0,106002.0,Detroit
2020-10-30,6025.0,107396.0,Detroit
2020-10-31,6041.0,108877.0,Detroit
2020-11-01,6041.0,108877.0,Detroit
2020-11-02,6042.0,111884.0,Detroit
2020-11-03,6062.0,113278.0,Detroit
2020-11-04,6066.0,115037.0,Detroit
2020-11-05,6083.0,117554.0,Detroit
2020-11-06,6095.0,119183.0,Detroit
2020-11-07,6123.0,121957.0,Detroit
2020-11-08,6123.0,121957.0,Detroit
2020-11-09,6137.0,125658.0,Detroit
2020-11-10,6163.0,128729.0,Detroit
2020-11-11,6167.0,132002.0,Detroit
2020-11-12,6181.0,134880.0,Detroit
2020-11-13,6235.0,138313.0,Detroit
2020-11-14,6264.0,141464.0,Detroit
2020-11-15,6264.0,141464.0,Detroit
2020-11-16,6278.0,146798.0,Detroit
2020-11-17,6305.0,150635.0,Detroit
2020-11-18,6317.0,153392.0,Detroit
2020-11-19,6372.0,156609.0,Detroit
2020-11-20,6392.0,161543.0,Detroit
2020-11-21,6432.0,164948.0,Detroit
2020-11-22,6432.0,164948.0,Detroit
2020-11-23,6448.0,169865.0,Detroit
2020-11-24,6515.0,173387.0,Detroit
2020-11-25,6537.0,175475.0,Detroit
2020-11-26,6537.0,175475.0,Detroit
2020-11-27,6603.0,183598.0,Detroit
2020-11-28,6653.0,188096.0,Detroit
2020-11-29,6653.0,188096.0,Detroit
2020-11-30,6686.0,193196.0,Detroit
2020-12-01,6757.0,196275.0,Detroit
2020-12-02,6787.0,200013.0,Detroit
2020-12-03,6868.0,203103.0,Detroit
2020-12-04,6897.0,207226.0,Detroit
2020-12-05,6985.0,210147.0,Detroit
2020-12-06,6985.0,210147.0,Detroit
2020-12-07,7006.0,214472.0,Detroit
2020-12-08,7097.0,218132.0,Detroit
2020-12-09,7129.0,220524.0,Detroit
2020-12-10,7212.0,223613.0,Detroit
2020-12-11,7239.0,225988.0,Detroit
2020-12-12,7326.0,228332.0,Detroit
2020-12-13,7326.0,228332.0,Detroit
2020-12-14,7363.0,231593.0,Detroit
2020-12-15,7451.0,234722.0,Detroit
2020-12-16,7487.0,236788.0,Detroit
2020-12-17,7581.0,238910.0,Detroit
2020-12-18,7599.0,240992.0,Detroit
2020-12-19,7698.0,242820.0,Detroit
2020-12-20,7698.0,242820.0,Detroit
2020-12-21,7723.0,245308.0,Detroit
2020-12-22,7801.0,247033.0,Detroit
2020-12-23,7836.0,248578.0,Detroit
2020-12-24,7836.0,248578.0,Detroit
2020-12-25,7836.0,248578.0,Detroit
2020-12-26,7970.0,252029.0,Detroit
2020-12-27,7970.0,252029.0,Detroit
2020-12-28,7995.0,253616.0,Detroit
2020-12-29,8105.0,255633.0,Detroit
2020-12-30,8131.0,257399.0,Detroit
2020-12-31,8131.0,257399.0,Detroit
2021-01-01,8131.0,257399.0,Detroit
2021-01-02,8268.0,261036.0,Detroit
2021-01-03,8268.0,261036.0,Detroit
2021-01-04,8302.0,263856.0,Detroit
2021-01-05,8384.0,265240.0,Detroit
2021-01-06,8407.0,267665.0,Detroit
2021-01-07,8518.0,269385.0,Detroit
2021-01-08,8529.0,271222.0,Detroit
2021-01-09,8664.0,272400.0,Detroit
2021-01-10,8664.0,272400.0,Detroit
2021-01-11,8677.0,275070.0,Detroit
2021-01-12,8734.0,276262.0,Detroit
2021-01-13,8748.0,277758.0,Detroit
2021-01-14,8837.0,279189.0,Detroit
2021-01-15,8855.0,280754.0,Detroit
2021-01-16,8911.0,281888.0,Detroit
2021-01-17,8911.0,281888.0,Detroit
2021-01-18,8918.0,283535.0,Detroit
2021-01-19,8931.0,284580.0,Detroit
2021-01-20,8958.0,285909.0,Detroit
2021-01-21,9033.0,287026.0,Detroit
2021-01-22,9035.0,288239.0,Detroit
2021-01-23,9155.0,289093.0,Detroit
2021-01-24,9155.0,289093.0,Detroit
2021-01-25,9173.0,290541.0,Detroit
2021-01-26,9218.0,291762.0,Detroit
2021-01-27,9223.0,292709.0,Detroit
2021-01-28,9274.0,293790.0,Detroit
2021-01-29,9271.0,294830.0,Detroit
2021-01-30,9331.0,295596.0,Detroit
2021-01-31,9331.0,295596.0,Detroit
2021-02-01,9333.0,296844.0,Detroit
2021-02-02,9375.0,297608.0,Detroit
2021-02-03,9393.0,298318.0,Detroit
2021-02-04,9440.0,299423.0,Detroit
2021-02-05,9447.0,300234.0,Detroit
2021-02-06,9499.0,300858.0,Detroit
2021-02-07,9499.0,300858.0,Detroit
2021-02-08,9504.0,301992.0,Detroit
2021-02-09,9536.0,302523.0,Detroit
2021-02-10,9539.0,303148.0,Detroit
2021-02-11,9576.0,303861.0,Detroit
2021-02-12,9579.0,304570.0,Detroit
2021-02-13,9640.0,305009.0,Detroit
2020-06-15,227.0,6855.0,Grand Rapids
2020-06-16,229.0,6871.0,Grand Rapids
2020-06-17,229.0,6904.0,Grand Rapids
2020-06-18,235.0,6997.0,Grand Rapids
2020-06-19,239.0,7064.0,Grand Rapids
2020-06-20,243.0,7129.0,Grand Rapids
2020-06-21,244.0,7170.0,Grand Rapids
2020-06-22,244.0,7206.0,Grand Rapids
2020-06-23,248.0,7254.0,Grand Rapids
2020-06-24,249.0,7321.0,Grand Rapids
2020-06-25,251.0,7407.0,Grand Rapids
2020-06-26,251.0,7511.0,Grand Rapids
2020-06-27,254.0,7576.0,Grand Rapids
2020-06-28,254.0,7630.0,Grand Rapids
2020-06-29,254.0,7672.0,Grand Rapids
2020-06-30,257.0,7756.0,Grand Rapids
2020-07-01,257.0,7833.0,Grand Rapids
2020-07-02,259.0,8012.0,Grand Rapids
2020-07-03,260.0,8164.0,Grand Rapids
2020-07-04,260.0,8298.0,Grand Rapids
2020-07-05,260.0,8394.0,Grand Rapids
2020-07-06,260.0,8457.0,Grand Rapids
2020-07-07,265.0,8571.0,Grand Rapids
2020-07-08,266.0,8712.0,Grand Rapids
2020-07-09,266.0,8886.0,Grand Rapids
2020-07-10,269.0,9065.0,Grand Rapids
2020-07-11,274.0,9255.0,Grand Rapids
2020-07-12,274.0,9371.0,Grand Rapids
2020-07-13,276.0,9439.0,Grand Rapids
2020-07-14,276.0,9594.0,Grand Rapids
2020-07-15,276.0,9749.0,Grand Rapids
2020-07-16,276.0,9877.0,Grand Rapids
2020-07-17,277.0,10028.0,Grand Rapids
2020-07-18,279.0,10162.0,Grand Rapids
2020-07-19,279.0,10287.0,Grand Rapids
2020-07-20,280.0,10357.0,Grand Rapids
2020-07-21,281.0,10489.0,Grand Rapids
2020-07-22,282.0,10598.0,Grand Rapids
2020-07-23,282.0,10743.0,Grand Rapids
2020-07-24,283.0,10819.0,Grand Rapids
2020-07-25,285.0,10872.0,Grand Rapids
2020-07-26,285.0,11051.0,Grand Rapids
2020-07-27,285.0,11116.0,Grand Rapids
2020-07-28,288.0,11234.0,Grand Rapids
2020-07-29,290.0,11309.0,Grand Rapids
2020-07-30,290.0,11388.0,Grand Rapids
2020-07-31,290.0,11486.0,Grand Rapids
2020-08-01,292.0,11614.0,Grand Rapids
2020-08-02,292.0,11707.0,Grand Rapids
2020-08-03,292.0,11771.0,Grand Rapids
2020-08-04,292.0,11848.0,Grand Rapids
2020-08-05,293.0,11929.0,Grand Rapids
2020-08-06,297.0,12016.0,Grand Rapids
2020-08-07,299.0,12108.0,Grand Rapids
2020-08-08,299.0,12179.0,Grand Rapids
2020-08-09,300.0,12258.0,Grand Rapids
2020-08-10,300.0,12307.0,Grand Rapids
2020-08-11,300.0,12389.0,Grand Rapids
2020-08-12,301.0,12433.0,Grand Rapids
2020-08-13,306.0,12530.0,Grand Rapids
2020-08-14,306.0,12604.0,Grand Rapids
2020-08-15,308.0,12841.0,Grand Rapids
2020-08-16,309.0,12742.0,Grand Rapids
2020-08-17,310.0,12787.0,Grand Rapids
2020-08-18,310.0,12872.0,Grand Rapids
2020-08-19,311.0,12929.0,Grand Rapids
2020-08-20,313.0,12995.0,Grand Rapids
2020-08-21,313.0,12995.0,Grand Rapids
2020-08-22,316.0,13180.0,Grand Rapids
2020-08-23,316.0,13300.0,Grand Rapids
2020-08-24,316.0,13409.0,Grand Rapids
2020-08-25,319.0,13503.0,Grand Rapids
2020-08-26,319.0,13629.0,Grand Rapids
2020-08-27,320.0,13746.0,Grand Rapids
2020-08-28,320.0,13875.0,Grand Rapids
2020-08-29,320.0,13875.0,Grand Rapids
2020-08-30,329.0,14091.0,Grand Rapids
2020-08-31,330.0,14199.0,Grand Rapids
2020-09-01,332.0,14340.0,Grand Rapids
2020-09-02,333.0,14473.0,Grand Rapids
2020-09-03,334.0,14608.0,Grand Rapids
2020-09-04,334.0,14790.0,Grand Rapids
2020-09-05,336.0,14966.0,Grand Rapids
2020-09-06,336.0,14966.0,Grand Rapids
2020-09-07,338.0,15069.0,Grand Rapids
2020-09-08,336.0,15160.0,Grand Rapids
2020-09-09,337.0,15313.0,Grand Rapids
2020-09-10,337.0,15470.0,Grand Rapids
2020-09-11,337.0,15713.0,Grand Rapids
2020-09-12,340.0,15850.0,Grand Rapids
2020-09-13,340.0,15850.0,Grand Rapids
2020-09-14,341.0,16025.0,Grand Rapids
2020-09-15,342.0,16129.0,Grand Rapids
2020-09-16,344.0,16239.0,Grand Rapids
2020-09-17,344.0,16384.0,Grand Rapids
2020-09-18,344.0,16525.0,Grand Rapids
2020-09-19,346.0,16600.0,Grand Rapids
2020-09-20,346.0,16600.0,Grand Rapids
2020-09-21,347.0,16845.0,Grand Rapids
2020-09-22,348.0,16981.0,Grand Rapids
2020-09-23,349.0,17123.0,Grand Rapids
2020-09-24,347.0,17283.0,Grand Rapids
2020-09-25,349.0,17447.0,Grand Rapids
2020-09-26,351.0,17597.0,Grand Rapids
2020-09-27,351.0,17597.0,Grand Rapids
2020-09-28,352.0,17852.0,Grand Rapids
2020-09-29,354.0,18013.0,Grand Rapids
2020-09-30,354.0,18230.0,Grand Rapids
2020-10-01,355.0,18398.0,Grand Rapids
2020-10-02,355.0,18563.0,Grand Rapids
2020-10-03,356.0,18789.0,Grand Rapids
2020-10-04,356.0,18789.0,Grand Rapids
2020-10-05,358.0,19102.0,Grand Rapids
2020-10-06,360.0,19275.0,Grand Rapids
2020-10-07,362.0,19482.0,Grand Rapids
2020-10-08,362.0,19706.0,Grand Rapids
2020-10-09,360.0,19962.0,Grand Rapids
2020-10-10,362.0,20257.0,Grand Rapids
2020-10-11,362.0,20257.0,Grand Rapids
2020-10-12,362.0,20721.0,Grand Rapids
2020-10-13,362.0,20949.0,Grand Rapids
2020-10-14,363.0,21266.0,Grand Rapids
2020-10-15,365.0,21673.0,Grand Rapids
2020-10-16,371.0,22041.0,Grand Rapids
2020-10-17,376.0,22369.0,Grand Rapids
2020-10-18,376.0,22369.0,Grand Rapids
2020-10-19,378.0,23025.0,Grand Rapids
2020-10-20,379.0,23298.0,Grand Rapids
2020-10-21,381.0,23617.0,Grand Rapids
2020-10-22,385.0,24001.0,Grand Rapids
2020-10-23,390.0,24422.0,Grand Rapids
2020-10-24,394.0,25138.0,Grand Rapids
2020-10-25,394.0,25138.0,Grand Rapids
2020-10-26,398.0,26123.0,Grand Rapids
2020-10-27,402.0,26626.0,Grand Rapids
2020-10-28,406.0,27375.0,Grand Rapids
2020-10-29,414.0,28167.0,Grand Rapids
2020-10-30,415.0,28975.0,Grand Rapids
2020-10-31,417.0,29907.0,Grand Rapids
2020-11-01,417.0,29907.0,Grand Rapids
2020-11-02,419.0,31473.0,Grand Rapids
2020-11-03,429.0,32209.0,Grand Rapids
2020-11-04,433.0,33241.0,Grand Rapids
2020-11-05,442.0,34587.0,Grand Rapids
2020-11-06,452.0,35500.0,Grand Rapids
2020-11-07,465.0,36806.0,Grand Rapids
2020-11-08,465.0,36806.0,Grand Rapids
2020-11-09,480.0,38637.0,Grand Rapids
2020-11-10,504.0,40242.0,Grand Rapids
2020-11-11,515.0,41413.0,Grand Rapids
2020-11-12,525.0,42976.0,Grand Rapids
2020-11-13,542.0,45014.0,Grand Rapids
2020-11-14,555.0,46557.0,Grand Rapids
2020-11-15,555.0,46557.0,Grand Rapids
2020-11-16,571.0,49627.0,Grand Rapids
2020-11-17,589.0,51162.0,Grand Rapids
2020-11-18,610.0,52426.0,Grand Rapids
2020-11-19,647.0,54011.0,Grand Rapids
2020-11-20,658.0,55396.0,Grand Rapids
2020-11-21,681.0,56898.0,Grand Rapids
2020-11-22,681.0,56898.0,Grand Rapids
2020-11-23,697.0,59625.0,Grand Rapids
2020-11-24,730.0,60706.0,Grand Rapids
2020-11-25,743.0,61683.0,Grand Rapids
2020-11-26,743.0,61683.0,Grand Rapids
2020-11-27,790.0,65214.0,Grand Rapids
2020-11-28,811.0,66188.0,Grand Rapids
2020-11-29,811.0,66188.0,Grand Rapids
2020-11-30,832.0,67912.0,Grand Rapids
2020-12-01,877.0,69048.0,Grand Rapids
2020-12-02,882.0,70395.0,Grand Rapids
2020-12-03,915.0,71821.0,Grand Rapids
2020-12-04,931.0,73341.0,Grand Rapids
2020-12-05,966.0,74148.0,Grand Rapids
2020-12-06,966.0,74148.0,Grand Rapids
2020-12-07,997.0,75831.0,Grand Rapids
2020-12-08,1040.0,76680.0,Grand Rapids
2020-12-09,1049.0,77675.0,Grand Rapids
2020-12-10,1080.0,78773.0,Grand Rapids
2020-12-11,1086.0,79631.0,Grand Rapids
2020-12-12,1123.0,80251.0,Grand Rapids
2020-12-13,1123.0,80251.0,Grand Rapids
2020-12-14,1141.0,81587.0,Grand Rapids
2020-12-15,1173.0,82089.0,Grand Rapids
2020-12-16,1185.0,83011.0,Grand Rapids
2020-12-17,1206.0,83759.0,Grand Rapids
2020-12-18,1227.0,84405.0,Grand Rapids
2020-12-19,1255.0,85026.0,Grand Rapids
2020-12-20,1255.0,85026.0,Grand Rapids
2020-12-21,1264.0,85786.0,Grand Rapids
2020-12-22,1299.0,86105.0,Grand Rapids
2020-12-23,1308.0,86632.0,Grand Rapids
2020-12-24,1308.0,86632.0,Grand Rapids
2020-12-25,1308.0,86632.0,Grand Rapids
2020-12-26,1351.0,87910.0,Grand Rapids
2020-12-27,1351.0,87910.0,Grand Rapids
2020-12-28,1363.0,88547.0,Grand Rapids
2020-12-29,1393.0,89015.0,Grand Rapids
2020-12-30,1402.0,89690.0,Grand Rapids
2020-12-31,1402.0,89690.0,Grand Rapids
2021-01-01,1402.0,89690.0,Grand Rapids
2021-01-02,1431.0,91158.0,Grand Rapids
2021-01-03,1431.0,91158.0,Grand Rapids
2021-01-04,1453.0,91952.0,Grand Rapids
2021-01-05,1475.0,92500.0,Grand Rapids
2021-01-06,1484.0,93249.0,Grand Rapids
2021-01-07,1503.0,93934.0,Grand Rapids
2021-01-08,1508.0,94507.0,Grand Rapids
2021-01-09,1543.0,94997.0,Grand Rapids
2021-01-10,1543.0,94997.0,Grand Rapids
2021-01-11,1550.0,95797.0,Grand Rapids
2021-01-12,1567.0,96143.0,Grand Rapids
2021-01-13,1572.0,96710.0,Grand Rapids
2021-01-14,1590.0,97273.0,Grand Rapids
2021-01-15,1594.0,97673.0,Grand Rapids
2021-01-16,1604.0,97974.0,Grand Rapids
2021-01-17,1604.0,97974.0,Grand Rapids
2021-01-18,1611.0,98512.0,Grand Rapids
2021-01-19,1614.0,98764.0,Grand Rapids
2021-01-20,1627.0,99230.0,Grand Rapids
2021-01-21,1650.0,99686.0,Grand Rapids
2021-01-22,1655.0,100034.0,Grand Rapids
2021-01-23,1679.0,100287.0,Grand Rapids
2021-01-24,1679.0,100287.0,Grand Rapids
2021-01-25,1685.0,100774.0,Grand Rapids
2021-01-26,1701.0,101086.0,Grand Rapids
2021-01-27,1706.0,101410.0,Grand Rapids
2021-01-28,1716.0,101681.0,Grand Rapids
2021-01-29,1723.0,101949.0,Grand Rapids
2021-01-30,1741.0,102195.0,Grand Rapids
2021-01-31,1741.0,102195.0,Grand Rapids
2021-02-01,1742.0,102560.0,Grand Rapids
2021-02-02,1744.0,102755.0,Grand Rapids
2021-02-03,1751.0,103110.0,Grand Rapids
2021-02-04,1760.0,103299.0,Grand Rapids
2021-02-05,1763.0,103535.0,Grand Rapids
2021-02-06,1775.0,103718.0,Grand Rapids
2021-02-07,1775.0,103718.0,Grand Rapids
2021-02-08,1776.0,103976.0,Grand Rapids
2021-02-09,1785.0,104127.0,Grand Rapids
2021-02-10,1788.0,104393.0,Grand Rapids
2021-02-11,1799.0,104654.0,Grand Rapids
2021-02-12,1800.0,104891.0,Grand Rapids
2021-02-13,1806.0,105062.0,Grand Rapids
2020-06-15,171.0,3385.0,Kalamazoo
2020-06-16,172.0,3409.0,Kalamazoo
2020-06-17,172.0,3439.0,Kalamazoo
2020-06-18,178.0,3479.0,Kalamazoo
2020-06-19,178.0,3510.0,Kalamazoo
2020-06-20,179.0,3541.0,Kalamazoo
2020-06-21,180.0,3552.0,Kalamazoo
2020-06-22,181.0,3569.0,Kalamazoo
2020-06-23,181.0,3584.0,Kalamazoo
2020-06-24,182.0,3628.0,Kalamazoo
2020-06-25,183.0,3678.0,Kalamazoo
2020-06-26,183.0,3702.0,Kalamazoo
2020-06-27,183.0,3731.0,Kalamazoo
2020-06-28,183.0,3769.0,Kalamazoo
2020-06-29,186.0,3815.0,Kalamazoo
2020-06-30,188.0,3863.0,Kalamazoo
2020-07-01,189.0,3910.0,Kalamazoo
2020-07-02,192.0,3951.0,Kalamazoo
2020-07-03,192.0,3989.0,Kalamazoo
2020-07-04,195.0,4020.0,Kalamazoo
2020-07-05,195.0,4052.0,Kalamazoo
2020-07-06,195.0,4069.0,Kalamazoo
2020-07-07,196.0,4148.0,Kalamazoo
2020-07-08,198.0,4226.0,Kalamazoo
2020-07-09,201.0,4284.0,Kalamazoo
2020-07-10,200.0,4354.0,Kalamazoo
2020-07-11,200.0,4429.0,Kalamazoo
2020-07-12,200.0,4466.0,Kalamazoo
2020-07-13,200.0,4511.0,Kalamazoo
2020-07-14,202.0,4588.0,Kalamazoo
2020-07-15,202.0,4675.0,Kalamazoo
2020-07-16,204.0,4718.0,Kalamazoo
2020-07-17,205.0,4792.0,Kalamazoo
2020-07-18,205.0,4869.0,Kalamazoo
2020-07-19,206.0,4923.0,Kalamazoo
2020-07-20,207.0,5018.0,Kalamazoo
2020-07-21,208.0,5058.0,Kalamazoo
2020-07-22,209.0,5130.0,Kalamazoo
2020-07-23,211.0,5231.0,Kalamazoo
2020-07-24,211.0,5291.0,Kalamazoo
2020-07-25,213.0,5347.0,Kalamazoo
2020-07-26,213.0,5455.0,Kalamazoo
2020-07-27,216.0,5484.0,Kalamazoo
2020-07-28,220.0,5524.0,Kalamazoo
2020-07-29,221.0,5576.0,Kalamazoo
2020-07-30,221.0,5641.0,Kalamazoo
2020-07-31,223.0,5730.0,Kalamazoo
2020-08-01,227.0,5802.0,Kalamazoo
2020-08-02,227.0,5845.0,Kalamazoo
2020-08-03,228.0,5877.0,Kalamazoo
2020-08-04,229.0,5909.0,Kalamazoo
2020-08-05,231.0,5989.0,Kalamazoo
2020-08-06,234.0,6055.0,Kalamazoo
2020-08-07,233.0,6123.0,Kalamazoo
2020-08-08,232.0,6192.0,Kalamazoo
2020-08-09,231.0,6220.0,Kalamazoo
2020-08-10,233.0,6275.0,Kalamazoo
2020-08-11,235.0,6323.0,Kalamazoo
2020-08-12,235.0,6388.0,Kalamazoo
2020-08-13,236.0,6467.0,Kalamazoo
2020-08-14,238.0,6542.0,Kalamazoo
2020-08-15,244.0,6634.0,Kalamazoo
2020-08-16,245.0,6689.0,Kalamazoo
2020-08-17,245.0,6734.0,Kalamazoo
2020-08-18,246.0,6767.0,Kalamazoo
2020-08-19,247.0,6825.0,Kalamazoo
2020-08-20,248.0,6856.0,Kalamazoo
2020-08-21,248.0,6856.0,Kalamazoo
2020-08-22,249.0,6982.0,Kalamazoo
2020-08-23,249.0,7046.0,Kalamazoo
2020-08-24,249.0,7122.0,Kalamazoo
2020-08-25,250.0,7176.0,Kalamazoo
2020-08-26,251.0,7235.0,Kalamazoo
2020-08-27,253.0,7333.0,Kalamazoo
2020-08-28,253.0,7432.0,Kalamazoo
2020-08-29,253.0,7432.0,Kalamazoo
2020-08-30,257.0,7561.0,Kalamazoo
2020-08-31,256.0,7613.0,Kalamazoo
2020-09-01,256.0,7683.0,Kalamazoo
2020-09-02,256.0,7728.0,Kalamazoo
2020-09-03,257.0,7774.0,Kalamazoo
2020-09-04,257.0,7910.0,Kalamazoo
2020-09-05,259.0,7996.0,Kalamazoo
2020-09-06,259.0,7996.0,Kalamazoo
2020-09-07,259.0,8087.0,Kalamazoo
2020-09-08,260.0,8120.0,Kalamazoo
2020-09-09,263.0,8203.0,Kalamazoo
2020-09-10,263.0,8297.0,Kalamazoo
2020-09-11,263.0,8411.0,Kalamazoo
2020-09-12,264.0,8505.0,Kalamazoo
2020-09-13,264.0,8505.0,Kalamazoo
2020-09-14,264.0,8624.0,Kalamazoo
2020-09-15,264.0,8687.0,Kalamazoo
2020-09-16,264.0,8797.0,Kalamazoo
2020-09-17,265.0,8927.0,Kalamazoo
2020-09-18,264.0,9040.0,Kalamazoo
2020-09-19,264.0,9133.0,Kalamazoo
2020-09-20,264.0,9133.0,Kalamazoo
2020-09-21,265.0,9271.0,Kalamazoo
2020-09-22,268.0,9360.0,Kalamazoo
2020-09-23,270.0,9450.0,Kalamazoo
2020-09-24,271.0,9598.0,Kalamazoo
2020-09-25,272.0,9773.0,Kalamazoo
2020-09-26,272.0,9923.0,Kalamazoo
2020-09-27,272.0,9923.0,Kalamazoo
2020-09-28,273.0,10091.0,Kalamazoo
2020-09-29,275.0,10229.0,Kalamazoo
2020-09-30,277.0,10398.0,Kalamazoo
2020-10-01,280.0,10530.0,Kalamazoo
2020-10-02,281.0,10665.0,Kalamazoo
2020-10-03,282.0,10856.0,Kalamazoo
2020-10-04,282.0,10856.0,Kalamazoo
2020-10-05,283.0,11016.0,Kalamazoo
2020-10-06,285.0,11196.0,Kalamazoo
2020-10-07,286.0,11383.0,Kalamazoo
2020-10-08,292.0,11603.0,Kalamazoo
2020-10-09,292.0,11767.0,Kalamazoo
2020-10-10,294.0,12028.0,Kalamazoo
2020-10-11,294.0,12028.0,Kalamazoo
2020-10-12,294.0,12314.0,Kalamazoo
2020-10-13,300.0,12531.0,Kalamazoo
2020-10-14,299.0,12735.0,Kalamazoo
2020-10-15,302.0,13119.0,Kalamazoo
2020-10-16,304.0,13486.0,Kalamazoo
2020-10-17,303.0,13726.0,Kalamazoo
2020-10-18,303.0,13726.0,Kalamazoo
2020-10-19,305.0,14092.0,Kalamazoo
2020-10-20,311.0,14380.0,Kalamazoo
2020-10-21,319.0,14592.0,Kalamazoo
2020-10-22,326.0,15006.0,Kalamazoo
2020-10-23,328.0,15240.0,Kalamazoo
2020-10-24,331.0,15796.0,Kalamazoo
2020-10-25,331.0,15796.0,Kalamazoo
2020-10-26,336.0,16334.0,Kalamazoo
2020-10-27,346.0,16591.0,Kalamazoo
2020-10-28,347.0,16984.0,Kalamazoo
2020-10-29,353.0,17500.0,Kalamazoo
2020-10-30,358.0,17911.0,Kalamazoo
2020-10-31,362.0,18472.0,Kalamazoo
2020-11-01,362.0,18472.0,Kalamazoo
2020-11-02,365.0,19314.0,Kalamazoo
2020-11-03,373.0,19779.0,Kalamazoo
2020-11-04,378.0,20330.0,Kalamazoo
2020-11-05,386.0,20932.0,Kalamazoo
2020-11-06,396.0,21543.0,Kalamazoo
2020-11-07,406.0,22320.0,Kalamazoo
2020-11-08,406.0,22320.0,Kalamazoo
2020-11-09,414.0,23506.0,Kalamazoo
2020-11-10,423.0,24276.0,Kalamazoo
2020-11-11,431.0,24906.0,Kalamazoo
2020-11-12,439.0,25728.0,Kalamazoo
2020-11-13,456.0,26584.0,Kalamazoo
2020-11-14,466.0,27275.0,Kalamazoo
2020-11-15,466.0,27275.0,Kalamazoo
2020-11-16,473.0,28757.0,Kalamazoo
2020-11-17,483.0,29633.0,Kalamazoo
2020-11-18,494.0,30216.0,Kalamazoo
2020-11-19,507.0,31183.0,Kalamazoo
2020-11-20,515.0,31903.0,Kalamazoo
2020-11-21,524.0,32679.0,Kalamazoo
2020-11-22,524.0,32679.0,Kalamazoo
2020-11-23,526.0,34105.0,Kalamazoo
2020-11-24,538.0,34703.0,Kalamazoo
2020-11-25,549.0,35169.0,Kalamazoo
2020-11-26,549.0,35169.0,Kalamazoo
2020-11-27,573.0,36849.0,Kalamazoo
2020-11-28,579.0,37559.0,Kalamazoo
2020-11-29,579.0,37559.0,Kalamazoo
2020-11-30,587.0,38736.0,Kalamazoo
2020-12-01,605.0,39342.0,Kalamazoo
2020-12-02,611.0,39994.0,Kalamazoo
2020-12-03,629.0,40752.0,Kalamazoo
2020-12-04,636.0,41582.0,Kalamazoo
2020-12-05,656.0,42171.0,Kalamazoo
2020-12-06,656.0,42171.0,Kalamazoo
2020-12-07,665.0,43133.0,Kalamazoo
2020-12-08,679.0,43718.0,Kalamazoo
2020-12-09,685.0,44345.0,Kalamazoo
2020-12-10,712.0,44931.0,Kalamazoo
2020-12-11,725.0,45439.0,Kalamazoo
2020-12-12,755.0,45858.0,Kalamazoo
2020-12-13,755.0,45858.0,Kalamazoo
2020-12-14,764.0,46614.0,Kalamazoo
2020-12-15,790.0,47072.0,Kalamazoo
2020-12-16,798.0,47605.0,Kalamazoo
2020-12-17,822.0,47991.0,Kalamazoo
2020-12-18,828.0,48393.0,Kalamazoo
2020-12-19,856.0,48956.0,Kalamazoo
2020-12-20,856.0,48956.0,Kalamazoo
2020-12-21,865.0,49431.0,Kalamazoo
2020-12-22,885.0,49690.0,Kalamazoo
2020-12-23,893.0,49949.0,Kalamazoo
2020-12-24,893.0,49949.0,Kalamazoo
2020-12-25,893.0,49949.0,Kalamazoo
2020-12-26,918.0,50808.0,Kalamazoo
2020-12-27,918.0,50808.0,Kalamazoo
2020-12-28,927.0,51168.0,Kalamazoo
2020-12-29,959.0,51487.0,Kalamazoo
2020-12-30,959.0,51870.0,Kalamazoo
2020-12-31,959.0,51870.0,Kalamazoo
2021-01-01,959.0,51870.0,Kalamazoo
2021-01-02,992.0,52789.0,Kalamazoo
2021-01-03,992.0,52789.0,Kalamazoo
2021-01-04,998.0,53332.0,Kalamazoo
2021-01-05,1036.0,53686.0,Kalamazoo
2021-01-06,1047.0,54168.0,Kalamazoo
2021-01-07,1065.0,54671.0,Kalamazoo
2021-01-08,1069.0,55105.0,Kalamazoo
2021-01-09,1080.0,55483.0,Kalamazoo
2021-01-10,1080.0,55483.0,Kalamazoo
2021-01-11,1084.0,56029.0,Kalamazoo
2021-01-12,1086.0,56324.0,Kalamazoo
2021-01-13,1087.0,56681.0,Kalamazoo
2021-01-14,1103.0,57049.0,Kalamazoo
2021-01-15,1107.0,57371.0,Kalamazoo
2021-01-16,1124.0,57637.0,Kalamazoo
2021-01-17,1124.0,57637.0,Kalamazoo
2021-01-18,1122.0,58028.0,Kalamazoo
2021-01-19,1122.0,58079.0,Kalamazoo
2021-01-20,1130.0,58556.0,Kalamazoo
2021-01-21,1150.0,58831.0,Kalamazoo
2021-01-22,1152.0,59097.0,Kalamazoo
2021-01-23,1176.0,59298.0,Kalamazoo
2021-01-24,1176.0,59298.0,Kalamazoo
2021-01-25,1178.0,59634.0,Kalamazoo
2021-01-26,1184.0,59896.0,Kalamazoo
2021-01-27,1183.0,60217.0,Kalamazoo
2021-01-28,1190.0,60467.0,Kalamazoo
2021-01-29,1194.0,60703.0,Kalamazoo
2021-01-30,1203.0,60885.0,Kalamazoo
2021-01-31,1203.0,60885.0,Kalamazoo
2021-02-01,1204.0,61171.0,Kalamazoo
2021-02-02,1211.0,61363.0,Kalamazoo
2021-02-03,1211.0,61565.0,Kalamazoo
2021-02-04,1218.0,61742.0,Kalamazoo
2021-02-05,1219.0,61920.0,Kalamazoo
2021-02-06,1230.0,62061.0,Kalamazoo
2021-02-07,1230.0,62061.0,Kalamazoo
2021-02-08,1230.0,62228.0,Kalamazoo
2021-02-09,1237.0,62333.0,Kalamazoo
2021-02-10,1237.0,62446.0,Kalamazoo
2021-02-11,1249.0,62592.0,Kalamazoo
2021-02-12,1250.0,62752.0,Kalamazoo
2021-02-13,1252.0,62829.0,Kalamazoo
2020-06-15,206.0,2237.0,Saginaw
2020-06-16,207.0,2245.0,Saginaw
2020-06-17,207.0,2265.0,Saginaw
2020-06-18,207.0,2289.0,Saginaw
2020-06-19,207.0,2300.0,Saginaw
2020-06-20,208.0,2308.0,Saginaw
2020-06-21,208.0,2316.0,Saginaw
2020-06-22,210.0,2331.0,Saginaw
2020-06-23,212.0,2326.0,Saginaw
2020-06-24,213.0,2341.0,Saginaw
2020-06-25,214.0,2370.0,Saginaw
2020-06-26,214.0,2383.0,Saginaw
2020-06-27,214.0,2390.0,Saginaw
2020-06-28,214.0,2406.0,Saginaw
2020-06-29,214.0,2418.0,Saginaw
2020-06-30,214.0,2439.0,Saginaw
2020-07-01,215.0,2454.0,Saginaw
2020-07-02,215.0,2473.0,Saginaw
2020-07-03,215.0,2495.0,Saginaw
2020-07-04,215.0,2501.0,Saginaw
2020-07-05,215.0,2517.0,Saginaw
2020-07-06,215.0,2531.0,Saginaw
2020-07-07,216.0,2549.0,Saginaw
2020-07-08,217.0,2575.0,Saginaw
2020-07-09,217.0,2601.0,Saginaw
2020-07-10,217.0,2621.0,Saginaw
2020-07-11,218.0,2659.0,Saginaw
2020-07-12,218.0,2676.0,Saginaw
2020-07-13,219.0,2697.0,Saginaw
2020-07-14,219.0,2723.0,Saginaw
2020-07-15,219.0,2773.0,Saginaw
2020-07-16,219.0,2839.0,Saginaw
2020-07-17,219.0,2885.0,Saginaw
2020-07-18,220.0,2946.0,Saginaw
2020-07-19,220.0,2974.0,Saginaw
2020-07-20,220.0,3014.0,Saginaw
2020-07-21,220.0,3049.0,Saginaw
2020-07-22,220.0,3089.0,Saginaw
2020-07-23,219.0,3149.0,Saginaw
2020-07-24,219.0,3194.0,Saginaw
2020-07-25,219.0,3241.0,Saginaw
2020-07-26,219.0,3314.0,Saginaw
2020-07-27,219.0,3348.0,Saginaw
2020-07-28,221.0,3412.0,Saginaw
2020-07-29,223.0,3450.0,Saginaw
2020-07-30,226.0,3481.0,Saginaw
2020-07-31,227.0,3513.0,Saginaw
2020-08-01,227.0,3541.0,Saginaw
2020-08-02,228.0,3575.0,Saginaw
2020-08-03,229.0,3595.0,Saginaw
2020-08-04,230.0,3655.0,Saginaw
2020-08-05,230.0,3695.0,Saginaw
2020-08-06,231.0,3773.0,Saginaw
2020-08-07,231.0,3808.0,Saginaw
2020-08-08,232.0,3875.0,Saginaw
2020-08-09,232.0,3923.0,Saginaw
2020-08-10,231.0,3974.0,Saginaw
2020-08-11,230.0,4014.0,Saginaw
2020-08-12,231.0,4044.0,Saginaw
2020-08-13,230.0,4140.0,Saginaw
2020-08-14,234.0,4210.0,Saginaw
2020-08-15,234.0,4244.0,Saginaw
2020-08-16,234.0,4278.0,Saginaw
2020-08-17,234.0,4303.0,Saginaw
2020-08-18,234.0,4351.0,Saginaw
2020-08-19,236.0,4392.0,Saginaw
2020-08-20,237.0,4445.0,Saginaw
2020-08-21,237.0,4445.0,Saginaw
2020-08-22,241.0,4580.0,Saginaw
2020-08-23,241.0,4610.0,Saginaw
2020-08-24,241.0,4664.0,Saginaw
2020-08-25,244.0,4703.0,Saginaw
2020-08-26,244.0,4749.0,Saginaw
2020-08-27,246.0,4781.0,Saginaw
2020-08-28,247.0,4837.0,Saginaw
2020-08-29,247.0,4837.0,Saginaw
2020-08-30,249.0,4901.0,Saginaw
2020-08-31,249.0,4951.0,Saginaw
2020-09-01,249.0,4983.0,Saginaw
2020-09-02,250.0,5014.0,Saginaw
2020-09-03,250.0,5075.0,Saginaw
2020-09-04,251.0,5152.0,Saginaw
2020-09-05,252.0,5197.0,Saginaw
2020-09-06,252.0,5197.0,Saginaw
2020-09-07,252.0,5245.0,Saginaw
2020-09-08,252.0,5283.0,Saginaw
2020-09-09,255.0,5311.0,Saginaw
2020-09-10,256.0,5361.0,Saginaw
2020-09-11,255.0,5387.0,Saginaw
2020-09-12,257.0,5422.0,Saginaw
2020-09-13,257.0,5422.0,Saginaw
2020-09-14,259.0,5500.0,Saginaw
2020-09-15,260.0,5523.0,Saginaw
2020-09-16,262.0,5568.0,Saginaw
2020-09-17,263.0,5622.0,Saginaw
2020-09-18,263.0,5647.0,Saginaw
2020-09-19,265.0,5700.0,Saginaw
2020-09-20,265.0,5700.0,Saginaw
2020-09-21,267.0,5771.0,Saginaw
2020-09-22,266.0,5794.0,Saginaw
2020-09-23,266.0,5832.0,Saginaw
2020-09-24,268.0,5865.0,Saginaw
2020-09-25,268.0,5916.0,Saginaw
2020-09-26,268.0,5949.0,Saginaw
2020-09-27,268.0,5949.0,Saginaw
2020-09-28,268.0,6020.0,Saginaw
2020-09-29,271.0,6057.0,Saginaw
2020-09-30,271.0,6101.0,Saginaw
2020-10-01,272.0,6160.0,Saginaw
2020-10-02,273.0,6195.0,Saginaw
2020-10-03,272.0,6250.0,Saginaw
2020-10-04,272.0,6250.0,Saginaw
2020-10-05,273.0,6309.0,Saginaw
2020-10-06,278.0,6349.0,Saginaw
2020-10-07,279.0,6409.0,Saginaw
2020-10-08,280.0,6484.0,Saginaw
2020-10-09,281.0,6535.0,Saginaw
2020-10-10,282.0,6577.0,Saginaw
2020-10-11,282.0,6577.0,Saginaw
2020-10-12,283.0,6662.0,Saginaw
2020-10-13,288.0,6733.0,Saginaw
2020-10-14,289.0,6805.0,Saginaw
2020-10-15,289.0,6902.0,Saginaw
2020-10-16,289.0,6985.0,Saginaw
2020-10-17,289.0,7084.0,Saginaw
2020-10-18,289.0,7084.0,Saginaw
2020-10-19,291.0,7260.0,Saginaw
2020-10-20,291.0,7319.0,Saginaw
2020-10-21,296.0,7390.0,Saginaw
2020-10-22,300.0,7531.0,Saginaw
2020-10-23,301.0,7655.0,Saginaw
2020-10-24,304.0,7828.0,Saginaw
2020-10-25,304.0,7828.0,Saginaw
2020-10-26,306.0,8092.0,Saginaw
2020-10-27,307.0,8278.0,Saginaw
2020-10-28,309.0,8430.0,Saginaw
2020-10-29,313.0,8735.0,Saginaw
2020-10-30,314.0,8907.0,Saginaw
2020-10-31,317.0,9179.0,Saginaw
2020-11-01,317.0,9179.0,Saginaw
2020-11-02,321.0,9642.0,Saginaw
2020-11-03,323.0,9919.0,Saginaw
2020-11-04,324.0,10166.0,Saginaw
2020-11-05,326.0,10555.0,Saginaw
2020-11-06,329.0,10892.0,Saginaw
2020-11-07,330.0,11377.0,Saginaw
2020-11-08,330.0,11377.0,Saginaw
2020-11-09,342.0,11982.0,Saginaw
2020-11-10,345.0,12559.0,Saginaw
2020-11-11,348.0,13061.0,Saginaw
2020-11-12,357.0,13533.0,Saginaw
2020-11-13,371.0,14227.0,Saginaw
2020-11-14,375.0,14794.0,Saginaw
2020-11-15,375.0,14794.0,Saginaw
2020-11-16,379.0,15763.0,Saginaw
2020-11-17,389.0,16249.0,Saginaw
2020-11-18,401.0,16803.0,Saginaw
2020-11-19,416.0,17217.0,Saginaw
2020-11-20,420.0,17809.0,Saginaw
2020-11-21,433.0,18299.0,Saginaw
2020-11-22,433.0,18299.0,Saginaw
2020-11-23,445.0,19251.0,Saginaw
2020-11-24,468.0,19745.0,Saginaw
2020-11-25,475.0,20135.0,Saginaw
2020-11-26,475.0,20135.0,Saginaw
2020-11-27,483.0,21272.0,Saginaw
2020-11-28,491.0,21665.0,Saginaw
2020-11-29,491.0,21665.0,Saginaw
2020-11-30,506.0,22507.0,Saginaw
2020-12-01,542.0,23021.0,Saginaw
2020-12-02,563.0,23408.0,Saginaw
2020-12-03,584.0,24108.0,Saginaw
2020-12-04,596.0,24739.0,Saginaw
2020-12-05,619.0,25237.0,Saginaw
2020-12-06,619.0,25237.0,Saginaw
2020-12-07,634.0,26062.0,Saginaw
2020-12-08,659.0,26490.0,Saginaw
2020-12-09,679.0,26881.0,Saginaw
2020-12-10,700.0,27372.0,Saginaw
2020-12-11,708.0,27798.0,Saginaw
2020-12-12,744.0,28148.0,Saginaw
2020-12-13,744.0,28148.0,Saginaw
2020-12-14,757.0,28589.0,Saginaw
2020-12-15,782.0,28902.0,Saginaw
2020-12-16,802.0,29250.0,Saginaw
2020-12-17,832.0,29603.0,Saginaw
2020-12-18,840.0,30030.0,Saginaw
2020-12-19,858.0,30295.0,Saginaw
2020-12-20,858.0,30295.0,Saginaw
2020-12-21,875.0,30680.0,Saginaw
2020-12-22,902.0,30830.0,Saginaw
2020-12-23,907.0,31299.0,Saginaw
2020-12-24,907.0,31299.0,Saginaw
2020-12-25,907.0,31299.0,Saginaw
2020-12-26,935.0,31889.0,Saginaw
2020-12-27,935.0,31889.0,Saginaw
2020-12-28,938.0,32148.0,Saginaw
2020-12-29,955.0,32356.0,Saginaw
2020-12-30,963.0,32673.0,Saginaw
2020-12-31,963.0,32673.0,Saginaw
2021-01-01,963.0,32673.0,Saginaw
2021-01-02,997.0,33259.0,Saginaw
2021-01-03,997.0,33259.0,Saginaw
2021-01-04,1011.0,33621.0,Saginaw
2021-01-05,1049.0,33817.0,Saginaw
2021-01-06,1053.0,34123.0,Saginaw
2021-01-07,1074.0,34620.0,Saginaw
2021-01-08,1083.0,34726.0,Saginaw
2021-01-09,1101.0,34943.0,Saginaw
2021-01-10,1101.0,34943.0,Saginaw
2021-01-11,1108.0,35293.0,Saginaw
2021-01-12,1118.0,35511.0,Saginaw
2021-01-13,1126.0,35705.0,Saginaw
2021-01-14,1145.0,35910.0,Saginaw
2021-01-15,1151.0,36119.0,Saginaw
2021-01-16,1165.0,36203.0,Saginaw
2021-01-17,1165.0,36203.0,Saginaw
2021-01-18,1168.0,36482.0,Saginaw
2021-01-19,1168.0,36482.0,Saginaw
2021-01-20,1178.0,36738.0,Saginaw
2021-01-21,1194.0,36915.0,Saginaw
2021-01-22,1200.0,37125.0,Saginaw
2021-01-23,1222.0,37261.0,Saginaw
2021-01-24,1222.0,37261.0,Saginaw
2021-01-25,1224.0,37456.0,Saginaw
2021-01-26,1232.0,37586.0,Saginaw
2021-01-27,1228.0,37712.0,Saginaw
2021-01-28,1234.0,37887.0,Saginaw
2021-01-29,1236.0,38028.0,Saginaw
2021-01-30,1238.0,38108.0,Saginaw
2021-01-31,1238.0,38108.0,Saginaw
2021-02-01,1239.0,38314.0,Saginaw
2021-02-02,1246.0,38340.0,Saginaw
2021-02-03,1248.0,38449.0,Saginaw
2021-02-04,1253.0,38551.0,Saginaw
2021-02-05,1258.0,38624.0,Saginaw
2021-02-06,1275.0,38693.0,Saginaw
2021-02-07,1275.0,38693.0,Saginaw
2021-02-08,1275.0,38851.0,Saginaw
2021-02-09,1279.0,38884.0,Saginaw
2021-02-10,1281.0,38944.0,Saginaw
2021-02-11,1291.0,39032.0,Saginaw
2021-02-12,1292.0,39118.0,Saginaw
2021-02-13,1302.0,39153.0,Saginaw
2020-06-15,86.0,1626.0,Lansing
2020-06-16,86.0,1620.0,Lansing
2020-06-17,86.0,1625.0,Lansing
2020-06-18,86.0,1633.0,Lansing
2020-06-19,87.0,1648.0,Lansing
2020-06-20,87.0,1661.0,Lansing
2020-06-21,87.0,1673.0,Lansing
2020-06-22,87.0,1689.0,Lansing
2020-06-23,87.0,1703.0,Lansing
2020-06-24,87.0,1746.0,Lansing
2020-06-25,88.0,1780.0,Lansing
2020-06-26,88.0,1834.0,Lansing
2020-06-27,88.0,1867.0,Lansing
2020-06-28,88.0,1884.0,Lansing
2020-06-29,88.0,1905.0,Lansing
2020-06-30,89.0,1934.0,Lansing
2020-07-01,89.0,1964.0,Lansing
2020-07-02,89.0,1978.0,Lansing
2020-07-03,89.0,2008.0,Lansing
2020-07-04,89.0,2037.0,Lansing
2020-07-05,89.0,2050.0,Lansing
2020-07-06,89.0,2059.0,Lansing
2020-07-07,89.0,2098.0,Lansing
2020-07-08,90.0,2128.0,Lansing
2020-07-09,91.0,2157.0,Lansing
2020-07-10,91.0,2172.0,Lansing
2020-07-11,91.0,2199.0,Lansing
2020-07-12,91.0,2211.0,Lansing
2020-07-13,90.0,2230.0,Lansing
2020-07-14,90.0,2253.0,Lansing
2020-07-15,90.0,2267.0,Lansing
2020-07-16,90.0,2317.0,Lansing
2020-07-17,90.0,2348.0,Lansing
2020-07-18,90.0,2371.0,Lansing
2020-07-19,90.0,2398.0,Lansing
2020-07-20,90.0,2413.0,Lansing
2020-07-21,91.0,2438.0,Lansing
2020-07-22,91.0,2450.0,Lansing
2020-07-23,91.0,2471.0,Lansing
2020-07-24,91.0,2509.0,Lansing
2020-07-25,91.0,2522.0,Lansing
2020-07-26,91.0,2587.0,Lansing
2020-07-27,91.0,2621.0,Lansing
2020-07-28,92.0,2663.0,Lansing
2020-07-29,92.0,2693.0,Lansing
2020-07-30,94.0,2734.0,Lansing
2020-07-31,93.0,2774.0,Lansing
2020-08-01,93.0,2805.0,Lansing
2020-08-02,93.0,2816.0,Lansing
2020-08-03,98.0,2837.0,Lansing
2020-08-04,94.0,2839.0,Lansing
2020-08-05,94.0,2852.0,Lansing
2020-08-06,94.0,2884.0,Lansing
2020-08-07,94.0,2906.0,Lansing
2020-08-08,94.0,2917.0,Lansing
2020-08-09,94.0,2933.0,Lansing
2020-08-10,95.0,2938.0,Lansing
2020-08-11,95.0,2953.0,Lansing
2020-08-12,96.0,2962.0,Lansing
2020-08-13,96.0,2994.0,Lansing
2020-08-14,96.0,3012.0,Lansing
2020-08-15,97.0,3038.0,Lansing
2020-08-16,97.0,3056.0,Lansing
2020-08-17,97.0,3075.0,Lansing
2020-08-18,98.0,3088.0,Lansing
2020-08-19,100.0,3104.0,Lansing
2020-08-20,101.0,3117.0,Lansing
2020-08-21,101.0,3117.0,Lansing
2020-08-22,101.0,3163.0,Lansing
2020-08-23,101.0,3185.0,Lansing
2020-08-24,101.0,3217.0,Lansing
2020-08-25,102.0,3253.0,Lansing
2020-08-26,103.0,3292.0,Lansing
2020-08-27,102.0,3299.0,Lansing
2020-08-28,103.0,3335.0,Lansing
2020-08-29,103.0,3335.0,Lansing
2020-08-30,104.0,3374.0,Lansing
2020-08-31,106.0,3392.0,Lansing
2020-09-01,107.0,3437.0,Lansing
2020-09-02,107.0,3467.0,Lansing
2020-09-03,107.0,3534.0,Lansing
2020-09-04,107.0,3595.0,Lansing
2020-09-05,107.0,3699.0,Lansing
2020-09-06,107.0,3699.0,Lansing
2020-09-07,107.0,3817.0,Lansing
2020-09-08,107.0,3856.0,Lansing
2020-09-09,108.0,3973.0,Lansing
2020-09-10,109.0,4113.0,Lansing
2020-09-11,109.0,4258.0,Lansing
2020-09-12,110.0,4373.0,Lansing
2020-09-13,110.0,4373.0,Lansing
2020-09-14,111.0,4523.0,Lansing
2020-09-15,111.0,4644.0,Lansing
2020-09-16,111.0,4793.0,Lansing
2020-09-17,113.0,4947.0,Lansing
2020-09-18,114.0,5048.0,Lansing
2020-09-19,114.0,5123.0,Lansing
2020-09-20,114.0,5123.0,Lansing
2020-09-21,116.0,5239.0,Lansing
2020-09-22,116.0,5322.0,Lansing
2020-09-23,116.0,5415.0,Lansing
2020-09-24,117.0,5473.0,Lansing
2020-09-25,117.0,5555.0,Lansing
2020-09-26,118.0,5630.0,Lansing
2020-09-27,118.0,5630.0,Lansing
2020-09-28,118.0,5680.0,Lansing
2020-09-29,119.0,5778.0,Lansing
2020-09-30,120.0,5817.0,Lansing
2020-10-01,121.0,5867.0,Lansing
2020-10-02,121.0,5948.0,Lansing
2020-10-03,122.0,6021.0,Lansing
2020-10-04,122.0,6021.0,Lansing
2020-10-05,123.0,6100.0,Lansing
2020-10-06,123.0,6152.0,Lansing
2020-10-07,123.0,6229.0,Lansing
2020-10-08,123.0,6325.0,Lansing
2020-10-09,124.0,6436.0,Lansing
2020-10-10,125.0,6511.0,Lansing
2020-10-11,125.0,6511.0,Lansing
2020-10-12,125.0,6629.0,Lansing
2020-10-13,127.0,6695.0,Lansing
2020-10-14,129.0,6771.0,Lansing
2020-10-15,130.0,6885.0,Lansing
2020-10-16,130.0,6962.0,Lansing
2020-10-17,131.0,7044.0,Lansing
2020-10-18,131.0,7044.0,Lansing
2020-10-19,131.0,7244.0,Lansing
2020-10-20,134.0,7305.0,Lansing
2020-10-21,136.0,7443.0,Lansing
2020-10-22,136.0,7530.0,Lansing
2020-10-23,137.0,7614.0,Lansing
2020-10-24,140.0,7825.0,Lansing
2020-10-25,140.0,7825.0,Lansing
2020-10-26,142.0,8022.0,Lansing
2020-10-27,142.0,8144.0,Lansing
2020-10-28,143.0,8273.0,Lansing
2020-10-29,144.0,8530.0,Lansing
2020-10-30,146.0,8699.0,Lansing
2020-10-31,147.0,8910.0,Lansing
2020-11-01,147.0,8910.0,Lansing
2020-11-02,148.0,9222.0,Lansing
2020-11-03,149.0,9377.0,Lansing
2020-11-04,149.0,9520.0,Lansing
2020-11-05,153.0,9918.0,Lansing
2020-11-06,153.0,10161.0,Lansing
2020-11-07,156.0,10530.0,Lansing
2020-11-08,156.0,10530.0,Lansing
2020-11-09,164.0,10974.0,Lansing
2020-11-10,171.0,11209.0,Lansing
2020-11-11,174.0,11521.0,Lansing
2020-11-12,175.0,12009.0,Lansing
2020-11-13,179.0,12590.0,Lansing
2020-11-14,182.0,13074.0,Lansing
2020-11-15,182.0,13074.0,Lansing
2020-11-16,184.0,13782.0,Lansing
2020-11-17,188.0,14105.0,Lansing
2020-11-18,192.0,14395.0,Lansing
2020-11-19,198.0,14884.0,Lansing
2020-11-20,204.0,15617.0,Lansing
2020-11-21,210.0,15663.0,Lansing
2020-11-22,210.0,15663.0,Lansing
2020-11-23,215.0,16252.0,Lansing
2020-11-24,223.0,16604.0,Lansing
2020-11-25,226.0,16856.0,Lansing
2020-11-26,226.0,16856.0,Lansing
2020-11-27,234.0,17630.0,Lansing
2020-11-28,237.0,18071.0,Lansing
2020-11-29,237.0,18071.0,Lansing
2020-11-30,247.0,18718.0,Lansing
2020-12-01,257.0,19175.0,Lansing
2020-12-02,264.0,19673.0,Lansing
2020-12-03,276.0,20395.0,Lansing
2020-12-04,284.0,20498.0,Lansing
2020-12-05,296.0,20724.0,Lansing
2020-12-06,296.0,20724.0,Lansing
2020-12-07,304.0,21219.0,Lansing
2020-12-08,310.0,21528.0,Lansing
2020-12-09,313.0,21881.0,Lansing
2020-12-10,325.0,22277.0,Lansing
2020-12-11,329.0,22557.0,Lansing
2020-12-12,341.0,22794.0,Lansing
2020-12-13,341.0,22794.0,Lansing
2020-12-14,347.0,23181.0,Lansing
2020-12-15,356.0,23455.0,Lansing
2020-12-16,362.0,23751.0,Lansing
2020-12-17,373.0,24025.0,Lansing
2020-12-18,379.0,24348.0,Lansing
2020-12-19,391.0,24571.0,Lansing
2020-12-20,391.0,24571.0,Lansing
2020-12-21,397.0,24916.0,Lansing
2020-12-22,401.0,25114.0,Lansing
2020-12-23,406.0,25278.0,Lansing
2020-12-24,406.0,25278.0,Lansing
2020-12-25,406.0,25278.0,Lansing
2020-12-26,423.0,25687.0,Lansing
2020-12-27,423.0,25687.0,Lansing
2020-12-28,425.0,25937.0,Lansing
2020-12-29,435.0,26238.0,Lansing
2020-12-30,439.0,26552.0,Lansing
2020-12-31,439.0,26552.0,Lansing
2021-01-01,439.0,26552.0,Lansing
2021-01-02,463.0,27103.0,Lansing
2021-01-03,463.0,27103.0,Lansing
2021-01-04,466.0,27515.0,Lansing
2021-01-05,476.0,27705.0,Lansing
2021-01-06,479.0,27951.0,Lansing
2021-01-07,491.0,28131.0,Lansing
2021-01-08,496.0,28296.0,Lansing
2021-01-09,511.0,28550.0,Lansing
2021-01-10,511.0,28550.0,Lansing
2021-01-11,524.0,28851.0,Lansing
2021-01-12,530.0,29085.0,Lansing
2021-01-13,534.0,29270.0,Lansing
2021-01-14,547.0,29471.0,Lansing
2021-01-15,551.0,29676.0,Lansing
2021-01-16,558.0,29767.0,Lansing
2021-01-17,558.0,29767.0,Lansing
2021-01-18,561.0,30047.0,Lansing
2021-01-19,561.0,30122.0,Lansing
2021-01-20,563.0,30363.0,Lansing
2021-01-21,571.0,30562.0,Lansing
2021-01-22,572.0,30780.0,Lansing
2021-01-23,600.0,30854.0,Lansing
2021-01-24,600.0,30854.0,Lansing
2021-01-25,602.0,31062.0,Lansing
2021-01-26,606.0,31280.0,Lansing
2021-01-27,609.0,31406.0,Lansing
2021-01-28,619.0,31559.0,Lansing
2021-01-29,617.0,31703.0,Lansing
2021-01-30,628.0,31817.0,Lansing
2021-01-31,628.0,31817.0,Lansing
2021-02-01,628.0,32032.0,Lansing
2021-02-02,633.0,32134.0,Lansing
2021-02-03,635.0,32291.0,Lansing
2021-02-04,639.0,32391.0,Lansing
2021-02-05,642.0,32543.0,Lansing
2021-02-06,643.0,32606.0,Lansing
2021-02-07,643.0,32606.0,Lansing
2021-02-08,644.0,32787.0,Lansing
2021-02-09,649.0,32845.0,Lansing
2021-02-10,649.0,32961.0,Lansing
2021-02-11,653.0,33053.0,Lansing
2021-02-12,655.0,33177.0,Lansing
2021-02-13,660.0,33251.0,Lansing
2020-06-15,43.0,564.0,Traverse City
2020-06-16,43.0,566.0,Traverse City
2020-06-17,43.0,565.0,Traverse City
2020-06-18,43.0,571.0,Traverse City
2020-06-19,43.0,573.0,Traverse City
2020-06-20,43.0,577.0,Traverse City
2020-06-21,43.0,577.0,Traverse City
2020-06-22,44.0,579.0,Traverse City
2020-06-23,45.0,580.0,Traverse City
2020-06-24,44.0,586.0,Traverse City
2020-06-25,43.0,603.0,Traverse City
2020-06-26,43.0,608.0,Traverse City
2020-06-27,43.0,611.0,Traverse City
2020-06-28,43.0,613.0,Traverse City
2020-06-29,43.0,623.0,Traverse City
2020-06-30,44.0,637.0,Traverse City
2020-07-01,44.0,650.0,Traverse City
2020-07-02,44.0,655.0,Traverse City
2020-07-03,44.0,664.0,Traverse City
2020-07-04,44.0,686.0,Traverse City
2020-07-05,44.0,716.0,Traverse City
2020-07-06,44.0,724.0,Traverse City
2020-07-07,44.0,743.0,Traverse City
2020-07-08,44.0,751.0,Traverse City
2020-07-09,44.0,764.0,Traverse City
2020-07-10,45.0,781.0,Traverse City
2020-07-11,45.0,807.0,Traverse City
2020-07-12,45.0,819.0,Traverse City
2020-07-13,45.0,823.0,Traverse City
2020-07-14,45.0,838.0,Traverse City
2020-07-15,47.0,864.0,Traverse City
2020-07-16,48.0,879.0,Traverse City
2020-07-17,48.0,895.0,Traverse City
2020-07-18,48.0,903.0,Traverse City
2020-07-19,48.0,912.0,Traverse City
2020-07-20,49.0,924.0,Traverse City
2020-07-21,49.0,934.0,Traverse City
2020-07-22,49.0,958.0,Traverse City
2020-07-23,49.0,975.0,Traverse City
2020-07-24,49.0,987.0,Traverse City
2020-07-25,50.0,991.0,Traverse City
2020-07-26,50.0,1002.0,Traverse City
2020-07-27,50.0,1014.0,Traverse City
2020-07-28,50.0,1023.0,Traverse City
2020-07-29,50.0,1031.0,Traverse City
2020-07-30,50.0,1045.0,Traverse City
2020-07-31,50.0,1056.0,Traverse City
2020-08-01,50.0,1066.0,Traverse City
2020-08-02,50.0,1078.0,Traverse City
2020-08-03,50.0,1088.0,Traverse City
2020-08-04,50.0,1097.0,Traverse City
2020-08-05,51.0,1113.0,Traverse City
2020-08-06,50.0,1121.0,Traverse City
2020-08-07,52.0,1139.0,Traverse City
2020-08-08,51.0,1150.0,Traverse City
2020-08-09,51.0,1158.0,Traverse City
2020-08-10,52.0,1171.0,Traverse City
2020-08-11,53.0,1185.0,Traverse City
2020-08-12,53.0,1189.0,Traverse City
2020-08-13,53.0,1204.0,Traverse City
2020-08-14,54.0,1230.0,Traverse City
2020-08-15,54.0,1244.0,Traverse City
2020-08-16,54.0,1251.0,Traverse City
2020-08-17,54.0,1271.0,Traverse City
2020-08-18,55.0,1282.0,Traverse City
2020-08-19,56.0,1305.0,Traverse City
2020-08-20,56.0,1315.0,Traverse City
2020-08-21,56.0,1315.0,Traverse City
2020-08-22,56.0,1382.0,Traverse City
2020-08-23,57.0,1401.0,Traverse City
2020-08-24,57.0,1421.0,Traverse City
2020-08-25,59.0,1441.0,Traverse City
2020-08-26,60.0,1469.0,Traverse City
2020-08-27,59.0,1511.0,Traverse City
2020-08-28,59.0,1526.0,Traverse City
2020-08-29,59.0,1526.0,Traverse City
2020-08-30,59.0,1575.0,Traverse City
2020-08-31,60.0,1592.0,Traverse City
2020-09-01,62.0,1611.0,Traverse City
2020-09-02,63.0,1628.0,Traverse City
2020-09-03,63.0,1647.0,Traverse City
2020-09-04,63.0,1673.0,Traverse City
2020-09-05,63.0,1695.0,Traverse City
2020-09-06,63.0,1695.0,Traverse City
2020-09-07,64.0,1717.0,Traverse City
2020-09-08,64.0,1727.0,Traverse City
2020-09-09,66.0,1747.0,Traverse City
2020-09-10,65.0,1760.0,Traverse City
2020-09-11,65.0,1789.0,Traverse City
2020-09-12,65.0,1809.0,Traverse City
2020-09-13,65.0,1809.0,Traverse City
2020-09-14,65.0,1828.0,Traverse City
2020-09-15,65.0,1836.0,Traverse City
2020-09-16,65.0,1862.0,Traverse City
2020-09-17,65.0,1875.0,Traverse City
2020-09-18,65.0,1892.0,Traverse City
2020-09-19,65.0,1910.0,Traverse City
2020-09-20,65.0,1910.0,Traverse City
2020-09-21,65.0,1948.0,Traverse City
2020-09-22,65.0,1964.0,Traverse City
2020-09-23,65.0,1984.0,Traverse City
2020-09-24,65.0,2009.0,Traverse City
2020-09-25,65.0,2017.0,Traverse City
2020-09-26,66.0,2034.0,Traverse City
2020-09-27,66.0,2034.0,Traverse City
2020-09-28,67.0,2055.0,Traverse City
2020-09-29,68.0,2069.0,Traverse City
2020-09-30,68.0,2090.0,Traverse City
2020-10-01,69.0,2111.0,Traverse City
2020-10-02,69.0,2136.0,Traverse City
2020-10-03,69.0,2159.0,Traverse City
2020-10-04,69.0,2159.0,Traverse City
2020-10-05,70.0,2182.0,Traverse City
2020-10-06,69.0,2188.0,Traverse City
2020-10-07,69.0,2220.0,Traverse City
2020-10-08,70.0,2255.0,Traverse City
2020-10-09,70.0,2277.0,Traverse City
2020-10-10,69.0,2298.0,Traverse City
2020-10-11,69.0,2298.0,Traverse City
2020-10-12,70.0,2331.0,Traverse City
2020-10-13,71.0,2358.0,Traverse City
2020-10-14,72.0,2388.0,Traverse City
2020-10-15,72.0,2432.0,Traverse City
2020-10-16,72.0,2477.0,Traverse City
2020-10-17,73.0,2514.0,Traverse City
2020-10-18,73.0,2514.0,Traverse City
2020-10-19,74.0,2589.0,Traverse City
2020-10-20,75.0,2638.0,Traverse City
2020-10-21,75.0,2679.0,Traverse City
2020-10-22,76.0,2739.0,Traverse City
2020-10-23,76.0,2817.0,Traverse City
2020-10-24,76.0,2905.0,Traverse City
2020-10-25,76.0,2905.0,Traverse City
2020-10-26,76.0,3064.0,Traverse City
2020-10-27,77.0,3154.0,Traverse City
2020-10-28,77.0,3233.0,Traverse City
2020-10-29,78.0,3432.0,Traverse City
2020-10-30,78.0,3512.0,Traverse City
2020-10-31,78.0,3618.0,Traverse City
2020-11-01,78.0,3618.0,Traverse City
2020-11-02,79.0,3891.0,Traverse City
2020-11-03,79.0,4003.0,Traverse City
2020-11-04,84.0,4063.0,Traverse City
2020-11-05,85.0,4241.0,Traverse City
2020-11-06,91.0,4369.0,Traverse City
2020-11-07,94.0,4600.0,Traverse City
2020-11-08,94.0,4600.0,Traverse City
2020-11-09,96.0,4854.0,Traverse City
2020-11-10,106.0,5095.0,Traverse City
2020-11-11,111.0,5302.0,Traverse City
2020-11-12,111.0,5524.0,Traverse City
2020-11-13,119.0,5826.0,Traverse City
2020-11-14,120.0,6004.0,Traverse City
2020-11-15,120.0,6004.0,Traverse City
2020-11-16,128.0,6433.0,Traverse City
2020-11-17,134.0,6683.0,Traverse City
2020-11-18,136.0,6912.0,Traverse City
2020-11-19,143.0,7122.0,Traverse City
2020-11-20,144.0,7423.0,Traverse City
2020-11-21,150.0,7665.0,Traverse City
2020-11-22,150.0,7665.0,Traverse City
2020-11-23,156.0,8175.0,Traverse City
2020-11-24,160.0,8409.0,Traverse City
2020-11-25,163.0,8634.0,Traverse City
2020-11-26,163.0,8634.0,Traverse City
2020-11-27,169.0,9173.0,Traverse City
2020-11-28,174.0,9469.0,Traverse City
2020-11-29,174.0,9469.0,Traverse City
2020-11-30,178.0,9872.0,Traverse City
2020-12-01,184.0,10089.0,Traverse City
2020-12-02,191.0,10322.0,Traverse City
2020-12-03,195.0,10539.0,Traverse City
2020-12-04,199.0,10857.0,Traverse City
2020-12-05,201.0,11171.0,Traverse City
2020-12-06,201.0,11171.0,Traverse City
2020-12-07,209.0,11561.0,Traverse City
2020-12-08,219.0,11809.0,Traverse City
2020-12-09,225.0,11947.0,Traverse City
2020-12-10,226.0,12105.0,Traverse City
2020-12-11,230.0,12336.0,Traverse City
2020-12-12,239.0,12532.0,Traverse City
2020-12-13,239.0,12532.0,Traverse City
2020-12-14,245.0,12854.0,Traverse City
2020-12-15,252.0,13006.0,Traverse City
2020-12-16,255.0,13126.0,Traverse City
2020-12-17,267.0,13287.0,Traverse City
2020-12-18,272.0,13481.0,Traverse City
2020-12-19,278.0,13631.0,Traverse City
2020-12-20,278.0,13631.0,Traverse City
2020-12-21,279.0,13814.0,Traverse City
2020-12-22,290.0,13922.0,Traverse City
2020-12-23,296.0,14037.0,Traverse City
2020-12-24,296.0,14037.0,Traverse City
2020-12-25,296.0,14037.0,Traverse City
2020-12-26,298.0,14344.0,Traverse City
2020-12-27,298.0,14344.0,Traverse City
2020-12-28,306.0,14430.0,Traverse City
2020-12-29,312.0,14549.0,Traverse City
2020-12-30,316.0,14654.0,Traverse City
2020-12-31,316.0,14654.0,Traverse City
2021-01-01,316.0,14654.0,Traverse City
2021-01-02,329.0,15099.0,Traverse City
2021-01-03,329.0,15099.0,Traverse City
2021-01-04,331.0,15282.0,Traverse City
2021-01-05,345.0,15424.0,Traverse City
2021-01-06,350.0,15538.0,Traverse City
2021-01-07,357.0,15834.0,Traverse City
2021-01-08,359.0,16023.0,Traverse City
2021-01-09,364.0,16126.0,Traverse City
2021-01-10,364.0,16126.0,Traverse City
2021-01-11,366.0,16346.0,Traverse City
2021-01-12,370.0,16422.0,Traverse City
2021-01-13,377.0,16555.0,Traverse City
2021-01-14,383.0,16723.0,Traverse City
2021-01-15,383.0,16870.0,Traverse City
2021-01-16,384.0,16947.0,Traverse City
2021-01-17,384.0,16947.0,Traverse City
2021-01-18,386.0,17111.0,Traverse City
2021-01-19,386.0,17111.0,Traverse City
2021-01-20,393.0,17293.0,Traverse City
2021-01-21,396.0,17384.0,Traverse City
2021-01-22,397.0,17473.0,Traverse City
2021-01-23,401.0,17583.0,Traverse City
2021-01-24,401.0,17583.0,Traverse City
2021-01-25,403.0,17679.0,Traverse City
2021-01-26,405.0,17763.0,Traverse City
2021-01-27,406.0,17833.0,Traverse City
2021-01-28,407.0,17930.0,Traverse City
2021-01-29,407.0,18009.0,Traverse City
2021-01-30,411.0,18080.0,Traverse City
2021-01-31,411.0,18080.0,Traverse City
2021-02-01,413.0,18183.0,Traverse City
2021-02-02,419.0,18226.0,Traverse City
2021-02-03,419.0,18291.0,Traverse City
2021-02-04,422.0,18366.0,Traverse City
2021-02-05,426.0,18440.0,Traverse City
2021-02-06,428.0,18484.0,Traverse City
2021-02-07,428.0,18484.0,Traverse City
2021-02-08,428.0,18568.0,Traverse City
2021-02-09,431.0,18598.0,Traverse City
2021-02-10,433.0,18652.0,Traverse City
2021-02-11,434.0,18701.0,Traverse City
2021-02-12,435.0,18770.0,Traverse City
2021-02-13,437.0,18806.0,Traverse City
2020-06-15,61.0,867.0,Jackson
2020-06-16,61.0,869.0,Jackson
2020-06-17,61.0,868.0,Jackson
2020-06-18,61.0,869.0,Jackson
2020-06-19,61.0,870.0,Jackson
2020-06-20,61.0,870.0,Jackson
2020-06-21,61.0,871.0,Jackson
2020-06-22,61.0,870.0,Jackson
2020-06-23,61.0,871.0,Jackson
2020-06-24,61.0,876.0,Jackson
2020-06-25,61.0,886.0,Jackson
2020-06-26,61.0,890.0,Jackson
2020-06-27,61.0,895.0,Jackson
2020-06-28,61.0,897.0,Jackson
2020-06-29,61.0,905.0,Jackson
2020-06-30,61.0,919.0,Jackson
2020-07-01,61.0,928.0,Jackson
2020-07-02,62.0,941.0,Jackson
2020-07-03,62.0,951.0,Jackson
2020-07-04,62.0,958.0,Jackson
2020-07-05,62.0,960.0,Jackson
2020-07-06,63.0,967.0,Jackson
2020-07-07,65.0,969.0,Jackson
2020-07-08,65.0,987.0,Jackson
2020-07-09,67.0,999.0,Jackson
2020-07-10,67.0,1008.0,Jackson
2020-07-11,68.0,1027.0,Jackson
2020-07-12,68.0,1034.0,Jackson
2020-07-13,68.0,1046.0,Jackson
2020-07-14,68.0,1054.0,Jackson
2020-07-15,68.0,1063.0,Jackson
2020-07-16,68.0,1071.0,Jackson
2020-07-17,68.0,1083.0,Jackson
2020-07-18,68.0,1098.0,Jackson
2020-07-19,68.0,1109.0,Jackson
2020-07-20,68.0,1121.0,Jackson
2020-07-21,68.0,1137.0,Jackson
2020-07-22,68.0,1151.0,Jackson
2020-07-23,68.0,1169.0,Jackson
2020-07-24,68.0,1182.0,Jackson
2020-07-25,68.0,1196.0,Jackson
2020-07-26,68.0,1227.0,Jackson
2020-07-27,68.0,1226.0,Jackson
2020-07-28,69.0,1240.0,Jackson
2020-07-29,70.0,1268.0,Jackson
2020-07-30,70.0,1297.0,Jackson
2020-07-31,70.0,1305.0,Jackson
2020-08-01,70.0,1320.0,Jackson
2020-08-02,70.0,1327.0,Jackson
2020-08-03,70.0,1343.0,Jackson
2020-08-04,70.0,1352.0,Jackson
2020-08-05,70.0,1363.0,Jackson
2020-08-06,71.0,1378.0,Jackson
2020-08-07,71.0,1388.0,Jackson
2020-08-08,71.0,1396.0,Jackson
2020-08-09,71.0,1406.0,Jackson
2020-08-10,71.0,1415.0,Jackson
2020-08-11,71.0,1421.0,Jackson
2020-08-12,71.0,1440.0,Jackson
2020-08-13,71.0,1463.0,Jackson
2020-08-14,71.0,1481.0,Jackson
2020-08-15,72.0,1489.0,Jackson
2020-08-16,73.0,1501.0,Jackson
2020-08-17,73.0,1504.0,Jackson
2020-08-18,74.0,1509.0,Jackson
2020-08-19,74.0,1516.0,Jackson
2020-08-20,74.0,1522.0,Jackson
2020-08-21,74.0,1522.0,Jackson
2020-08-22,74.0,1545.0,Jackson
2020-08-23,75.0,1556.0,Jackson
2020-08-24,75.0,1573.0,Jackson
2020-08-25,77.0,1592.0,Jackson
2020-08-26,77.0,1605.0,Jackson
2020-08-27,79.0,1625.0,Jackson
2020-08-28,79.0,1652.0,Jackson
2020-08-29,79.0,1652.0,Jackson
2020-08-30,79.0,1683.0,Jackson
2020-08-31,79.0,1700.0,Jackson
2020-09-01,79.0,1747.0,Jackson
2020-09-02,79.0,1791.0,Jackson
2020-09-03,79.0,1821.0,Jackson
2020-09-04,79.0,1829.0,Jackson
2020-09-05,79.0,1849.0,Jackson
2020-09-06,79.0,1849.0,Jackson
2020-09-07,80.0,1873.0,Jackson
2020-09-08,80.0,1884.0,Jackson
2020-09-09,82.0,1897.0,Jackson
2020-09-10,81.0,1929.0,Jackson
2020-09-11,82.0,1951.0,Jackson
2020-09-12,83.0,1973.0,Jackson
2020-09-13,83.0,1973.0,Jackson
2020-09-14,83.0,1993.0,Jackson
2020-09-15,84.0,2008.0,Jackson
2020-09-16,84.0,2025.0,Jackson
2020-09-17,85.0,2057.0,Jackson
2020-09-18,85.0,2074.0,Jackson
2020-09-19,87.0,2084.0,Jackson
2020-09-20,87.0,2084.0,Jackson
2020-09-21,87.0,2115.0,Jackson
2020-09-22,89.0,2143.0,Jackson
2020-09-23,88.0,2158.0,Jackson
2020-09-24,89.0,2181.0,Jackson
2020-09-25,89.0,2209.0,Jackson
2020-09-26,90.0,2224.0,Jackson
2020-09-27,90.0,2224.0,Jackson
2020-09-28,90.0,2255.0,Jackson
2020-09-29,90.0,2292.0,Jackson
2020-09-30,90.0,2329.0,Jackson
2020-10-01,90.0,2357.0,Jackson
2020-10-02,90.0,2374.0,Jackson
2020-10-03,91.0,2412.0,Jackson
2020-10-04,91.0,2412.0,Jackson
2020-10-05,93.0,2437.0,Jackson
2020-10-06,94.0,2486.0,Jackson
2020-10-07,94.0,2527.0,Jackson
2020-10-08,96.0,2557.0,Jackson
2020-10-09,96.0,2595.0,Jackson
2020-10-10,98.0,2649.0,Jackson
2020-10-11,98.0,2649.0,Jackson
2020-10-12,99.0,2701.0,Jackson
2020-10-13,102.0,2728.0,Jackson
2020-10-14,102.0,2785.0,Jackson
2020-10-15,105.0,2846.0,Jackson
2020-10-16,105.0,2919.0,Jackson
2020-10-17,106.0,2974.0,Jackson
2020-10-18,106.0,2974.0,Jackson
2020-10-19,107.0,3026.0,Jackson
2020-10-20,107.0,3070.0,Jackson
2020-10-21,107.0,3126.0,Jackson
2020-10-22,109.0,3175.0,Jackson
2020-10-23,111.0,3216.0,Jackson
2020-10-24,112.0,3311.0,Jackson
2020-10-25,112.0,3311.0,Jackson
2020-10-26,112.0,3416.0,Jackson
2020-10-27,114.0,3462.0,Jackson
2020-10-28,116.0,3553.0,Jackson
2020-10-29,117.0,3654.0,Jackson
2020-10-30,118.0,3715.0,Jackson
2020-10-31,119.0,3806.0,Jackson
2020-11-01,119.0,3806.0,Jackson
2020-11-02,119.0,3985.0,Jackson
2020-11-03,119.0,4044.0,Jackson
2020-11-04,119.0,4167.0,Jackson
2020-11-05,124.0,4289.0,Jackson
2020-11-06,125.0,4427.0,Jackson
2020-11-07,128.0,4609.0,Jackson
2020-11-08,128.0,4609.0,Jackson
2020-11-09,128.0,4938.0,Jackson
2020-11-10,131.0,5026.0,Jackson
2020-11-11,131.0,5200.0,Jackson
2020-11-12,132.0,5462.0,Jackson
2020-11-13,136.0,5681.0,Jackson
2020-11-14,138.0,5924.0,Jackson
2020-11-15,138.0,5924.0,Jackson
2020-11-16,138.0,6383.0,Jackson
2020-11-17,138.0,6607.0,Jackson
2020-11-18,138.0,6739.0,Jackson
2020-11-19,143.0,7047.0,Jackson
2020-11-20,144.0,7341.0,Jackson
2020-11-21,144.0,7564.0,Jackson
2020-11-22,144.0,7564.0,Jackson
2020-11-23,144.0,7955.0,Jackson
2020-11-24,146.0,8168.0,Jackson
2020-11-25,149.0,8345.0,Jackson
2020-11-26,149.0,8345.0,Jackson
2020-11-27,159.0,9130.0,Jackson
2020-11-28,163.0,9423.0,Jackson
2020-11-29,163.0,9423.0,Jackson
2020-11-30,164.0,9598.0,Jackson
2020-12-01,165.0,9762.0,Jackson
2020-12-02,165.0,10054.0,Jackson
2020-12-03,172.0,10426.0,Jackson
2020-12-04,172.0,10635.0,Jackson
2020-12-05,185.0,10808.0,Jackson
2020-12-06,185.0,10808.0,Jackson
2020-12-07,188.0,11116.0,Jackson
2020-12-08,195.0,11338.0,Jackson
2020-12-09,197.0,11532.0,Jackson
2020-12-10,210.0,11745.0,Jackson
2020-12-11,210.0,11962.0,Jackson
2020-12-12,219.0,12105.0,Jackson
2020-12-13,219.0,12105.0,Jackson
2020-12-14,219.0,12339.0,Jackson
2020-12-15,226.0,12587.0,Jackson
2020-12-16,228.0,12707.0,Jackson
2020-12-17,241.0,12938.0,Jackson
2020-12-18,241.0,13119.0,Jackson
2020-12-19,244.0,13148.0,Jackson
2020-12-20,244.0,13148.0,Jackson
2020-12-21,248.0,13349.0,Jackson
2020-12-22,254.0,13537.0,Jackson
2020-12-23,254.0,13679.0,Jackson
2020-12-24,254.0,13679.0,Jackson
2020-12-25,254.0,13679.0,Jackson
2020-12-26,268.0,13994.0,Jackson
2020-12-27,268.0,13994.0,Jackson
2020-12-28,270.0,14147.0,Jackson
2020-12-29,272.0,14325.0,Jackson
2020-12-30,272.0,14470.0,Jackson
2020-12-31,272.0,14470.0,Jackson
2021-01-01,272.0,14470.0,Jackson
2021-01-02,288.0,14854.0,Jackson
2021-01-03,288.0,14854.0,Jackson
2021-01-04,288.0,15057.0,Jackson
2021-01-05,293.0,15203.0,Jackson
2021-01-06,294.0,15404.0,Jackson
2021-01-07,309.0,15602.0,Jackson
2021-01-08,312.0,15728.0,Jackson
2021-01-09,320.0,15854.0,Jackson
2021-01-10,320.0,15854.0,Jackson
2021-01-11,320.0,16017.0,Jackson
2021-01-12,326.0,16156.0,Jackson
2021-01-13,327.0,16268.0,Jackson
2021-01-14,333.0,16466.0,Jackson
2021-01-15,335.0,16579.0,Jackson
2021-01-16,345.0,16660.0,Jackson
2021-01-17,345.0,16660.0,Jackson
2021-01-18,342.0,16784.0,Jackson
2021-01-19,342.0,16784.0,Jackson
2021-01-20,342.0,16971.0,Jackson
2021-01-21,349.0,17074.0,Jackson
2021-01-22,349.0,17167.0,Jackson
2021-01-23,352.0,17260.0,Jackson
2021-01-24,352.0,17260.0,Jackson
2021-01-25,356.0,17381.0,Jackson
2021-01-26,357.0,17478.0,Jackson
2021-01-27,356.0,17534.0,Jackson
2021-01-28,358.0,17658.0,Jackson
2021-01-29,359.0,17736.0,Jackson
2021-01-30,362.0,17803.0,Jackson
2021-01-31,362.0,17803.0,Jackson
2021-02-01,362.0,17914.0,Jackson
2021-02-02,365.0,17982.0,Jackson
2021-02-03,368.0,18065.0,Jackson
2021-02-04,371.0,18117.0,Jackson
2021-02-05,372.0,18207.0,Jackson
2021-02-06,378.0,18252.0,Jackson
2021-02-07,378.0,18252.0,Jackson
2021-02-08,380.0,18315.0,Jackson
2021-02-09,382.0,18333.0,Jackson
2021-02-10,384.0,18394.0,Jackson
2021-02-11,386.0,18433.0,Jackson
2021-02-12,386.0,18497.0,Jackson
2021-02-13,391.0,18540.0,Jackson