forecast_date,target,target_end_date,location,type,quantile,value
2021-02-28,1 day ahead inc case,2021-02-28,Illinois,point,,1579.0238994059600
2021-02-28,1 day ahead inc case bound,2021-02-28,Illinois,upper bound,,2368.535849108940
2021-02-28,1 day ahead inc case bound,2021-02-28,Illinois,lower bound,,789.5119497029810
2021-02-28,1 day ahead inc death,2021-02-28,Illinois,point,,23.3828950241259
2021-02-28,1 day ahead inc death bound,2021-02-28,Illinois,upper bound,,35.07434253618890
2021-02-28,1 day ahead inc death bound,2021-02-28,Illinois,lower bound,,11.69144751206300
2021-02-28,2 day ahead inc case,2021-03-01,Illinois,point,,1737.8140151714900
2021-02-28,2 day ahead inc case bound,2021-03-01,Illinois,upper bound,,2606.721022757240
2021-02-28,2 day ahead inc case bound,2021-03-01,Illinois,lower bound,,868.9070075857450
2021-02-28,2 day ahead inc death,2021-03-01,Illinois,point,,21.052190830341700
2021-02-28,2 day ahead inc death bound,2021-03-01,Illinois,upper bound,,31.578286245512600
2021-02-28,2 day ahead inc death bound,2021-03-01,Illinois,lower bound,,10.526095415170900
2021-02-28,3 day ahead inc case,2021-03-02,Illinois,point,,1852.428043460010
2021-02-28,3 day ahead inc case bound,2021-03-02,Illinois,upper bound,,2778.642065190010
2021-02-28,3 day ahead inc case bound,2021-03-02,Illinois,lower bound,,926.214021730004
2021-02-28,3 day ahead inc death,2021-03-02,Illinois,point,,26.583808727602400
2021-02-28,3 day ahead inc death bound,2021-03-02,Illinois,upper bound,,39.87571309140370
2021-02-28,3 day ahead inc death bound,2021-03-02,Illinois,lower bound,,13.291904363801200
2021-02-28,4 day ahead inc case,2021-03-03,Illinois,point,,1991.800526822920
2021-02-28,4 day ahead inc case bound,2021-03-03,Illinois,upper bound,,2987.700790234380
2021-02-28,4 day ahead inc case bound,2021-03-03,Illinois,lower bound,,995.9002634114590
2021-02-28,4 day ahead inc death,2021-03-03,Illinois,point,,44.27055707196270
2021-02-28,4 day ahead inc death bound,2021-03-03,Illinois,upper bound,,66.40583560794400
2021-02-28,4 day ahead inc death bound,2021-03-03,Illinois,lower bound,,22.135278535981300
2021-02-28,5 day ahead inc case,2021-03-04,Illinois,point,,2166.991576735400
2021-02-28,5 day ahead inc case bound,2021-03-04,Illinois,upper bound,,3250.487365103090
2021-02-28,5 day ahead inc case bound,2021-03-04,Illinois,lower bound,,1083.495788367700
2021-02-28,5 day ahead inc death,2021-03-04,Illinois,point,,46.682841065463400
2021-02-28,5 day ahead inc death bound,2021-03-04,Illinois,upper bound,,70.02426159819520
2021-02-28,5 day ahead inc death bound,2021-03-04,Illinois,lower bound,,23.341420532731700
2021-02-28,6 day ahead inc case,2021-03-05,Illinois,point,,2107.735340626680
2021-02-28,6 day ahead inc case bound,2021-03-05,Illinois,upper bound,,3161.603010940020
2021-02-28,6 day ahead inc case bound,2021-03-05,Illinois,lower bound,,1053.8676703133400
2021-02-28,6 day ahead inc death,2021-03-05,Illinois,point,,45.17623461054250
2021-02-28,6 day ahead inc death bound,2021-03-05,Illinois,upper bound,,67.76435191581370
2021-02-28,6 day ahead inc death bound,2021-03-05,Illinois,lower bound,,22.588117305271200
2021-02-28,7 day ahead inc case,2021-03-06,Illinois,point,,1845.2829577906500
2021-02-28,7 day ahead inc case bound,2021-03-06,Illinois,upper bound,,2767.9244366859800
2021-02-28,7 day ahead inc case bound,2021-03-06,Illinois,lower bound,,922.6414788953260
2021-02-28,7 day ahead inc death,2021-03-06,Illinois,point,,36.69528117249870
2021-02-28,7 day ahead inc death bound,2021-03-06,Illinois,upper bound,,55.04292175874800
2021-02-28,7 day ahead inc death bound,2021-03-06,Illinois,lower bound,,18.347640586249300
2021-02-28,8 day ahead inc case,2021-03-07,Illinois,point,,1813.6022874973700
2021-02-28,8 day ahead inc case bound,2021-03-07,Illinois,upper bound,,2720.403431246060
2021-02-28,8 day ahead inc case bound,2021-03-07,Illinois,lower bound,,906.8011437486860
2021-02-28,8 day ahead inc death,2021-03-07,Illinois,point,,17.920631041863100
2021-02-28,8 day ahead inc death bound,2021-03-07,Illinois,upper bound,,26.880946562794600
2021-02-28,8 day ahead inc death bound,2021-03-07,Illinois,lower bound,,8.960315520931550
2021-02-28,9 day ahead inc case,2021-03-08,Illinois,point,,1787.5408917656200
2021-02-28,9 day ahead inc case bound,2021-03-08,Illinois,upper bound,,2681.311337648430
2021-02-28,9 day ahead inc case bound,2021-03-08,Illinois,lower bound,,893.7704458828080
2021-02-28,9 day ahead inc death,2021-03-08,Illinois,point,,15.62163229995350
2021-02-28,9 day ahead inc death bound,2021-03-08,Illinois,upper bound,,23.432448449930200
2021-02-28,9 day ahead inc death bound,2021-03-08,Illinois,lower bound,,7.810816149976750
2021-02-28,10 day ahead inc case,2021-03-09,Illinois,point,,1920.9536757457500
2021-02-28,10 day ahead inc case bound,2021-03-09,Illinois,upper bound,,2881.4305136186300
2021-02-28,10 day ahead inc case bound,2021-03-09,Illinois,lower bound,,960.4768378728770
2021-02-28,10 day ahead inc death,2021-03-09,Illinois,point,,22.235989226312100
2021-02-28,10 day ahead inc death bound,2021-03-09,Illinois,upper bound,,33.35398383946810
2021-02-28,10 day ahead inc death bound,2021-03-09,Illinois,lower bound,,11.117994613156000
2021-02-28,11 day ahead inc case,2021-03-10,Illinois,point,,2108.622856321280
2021-02-28,11 day ahead inc case bound,2021-03-10,Illinois,upper bound,,3162.9342844819200
2021-02-28,11 day ahead inc case bound,2021-03-10,Illinois,lower bound,,1054.3114281606400
2021-02-28,11 day ahead inc death,2021-03-10,Illinois,point,,35.63669538305110
2021-02-28,11 day ahead inc death bound,2021-03-10,Illinois,upper bound,,53.455043074576700
2021-02-28,11 day ahead inc death bound,2021-03-10,Illinois,lower bound,,17.81834769152560
2021-02-28,12 day ahead inc case,2021-03-11,Illinois,point,,2132.4202369507400
2021-02-28,12 day ahead inc case bound,2021-03-11,Illinois,upper bound,,3198.6303554261100
2021-02-28,12 day ahead inc case bound,2021-03-11,Illinois,lower bound,,1066.2101184753700
2021-02-28,12 day ahead inc death,2021-03-11,Illinois,point,,47.7227183293835
2021-02-28,12 day ahead inc death bound,2021-03-11,Illinois,upper bound,,71.58407749407530
2021-02-28,12 day ahead inc death bound,2021-03-11,Illinois,lower bound,,23.86135916469180
2021-02-28,13 day ahead inc case,2021-03-12,Illinois,point,,2064.07582831895
2021-02-28,13 day ahead inc case bound,2021-03-12,Illinois,upper bound,,3096.113742478430
2021-02-28,13 day ahead inc case bound,2021-03-12,Illinois,lower bound,,1032.037914159480
2021-02-28,13 day ahead inc death,2021-03-12,Illinois,point,,43.23660287932940
2021-02-28,13 day ahead inc death bound,2021-03-12,Illinois,upper bound,,64.85490431899420
2021-02-28,13 day ahead inc death bound,2021-03-12,Illinois,lower bound,,21.618301439664700
2021-02-28,14 day ahead inc case,2021-03-13,Illinois,point,,1895.9842909718900
2021-02-28,14 day ahead inc case bound,2021-03-13,Illinois,upper bound,,2843.976436457830
2021-02-28,14 day ahead inc case bound,2021-03-13,Illinois,lower bound,,947.9921454859430
2021-02-28,14 day ahead inc death,2021-03-13,Illinois,point,,32.584179204903200
2021-02-28,14 day ahead inc death bound,2021-03-13,Illinois,upper bound,,48.87626880735480
2021-02-28,14 day ahead inc death bound,2021-03-13,Illinois,lower bound,,16.292089602451600
2021-02-28,15 day ahead inc case,2021-03-14,Illinois,point,,1843.6327574511500
2021-02-28,15 day ahead inc case bound,2021-03-14,Illinois,upper bound,,3687.2655149023100
2021-02-28,15 day ahead inc case bound,2021-03-14,Illinois,lower bound,,0.0
2021-02-28,15 day ahead inc death,2021-03-14,Illinois,point,,21.31481036213880
2021-02-28,15 day ahead inc death bound,2021-03-14,Illinois,upper bound,,42.629620724277600
2021-02-28,15 day ahead inc death bound,2021-03-14,Illinois,lower bound,,0.0
2021-02-28,16 day ahead inc case,2021-03-15,Illinois,point,,1858.1595679954600
2021-02-28,16 day ahead inc case bound,2021-03-15,Illinois,upper bound,,3716.319135990930
2021-02-28,16 day ahead inc case bound,2021-03-15,Illinois,lower bound,,0.0
2021-02-28,16 day ahead inc death,2021-03-15,Illinois,point,,15.357973321239100
2021-02-28,16 day ahead inc death bound,2021-03-15,Illinois,upper bound,,30.715946642478200
2021-02-28,16 day ahead inc death bound,2021-03-15,Illinois,lower bound,,0.0
2021-02-28,17 day ahead inc case,2021-03-16,Illinois,point,,2014.569541071080
2021-02-28,17 day ahead inc case bound,2021-03-16,Illinois,upper bound,,4029.139082142150
2021-02-28,17 day ahead inc case bound,2021-03-16,Illinois,lower bound,,0.0
2021-02-28,17 day ahead inc death,2021-03-16,Illinois,point,,24.258335141017600
2021-02-28,17 day ahead inc death bound,2021-03-16,Illinois,upper bound,,48.516670282035200
2021-02-28,17 day ahead inc death bound,2021-03-16,Illinois,lower bound,,0.0
2021-02-28,18 day ahead inc case,2021-03-17,Illinois,point,,2097.310526952850
2021-02-28,18 day ahead inc case bound,2021-03-17,Illinois,upper bound,,4194.621053905690
2021-02-28,18 day ahead inc case bound,2021-03-17,Illinois,lower bound,,0.0
2021-02-28,18 day ahead inc death,2021-03-17,Illinois,point,,32.59577106686630
2021-02-28,18 day ahead inc death bound,2021-03-17,Illinois,upper bound,,65.19154213373260
2021-02-28,18 day ahead inc death bound,2021-03-17,Illinois,lower bound,,0.0
2021-02-28,19 day ahead inc case,2021-03-18,Illinois,point,,2130.2602326721000
2021-02-28,19 day ahead inc case bound,2021-03-18,Illinois,upper bound,,4260.5204653441900
2021-02-28,19 day ahead inc case bound,2021-03-18,Illinois,lower bound,,0.0
2021-02-28,19 day ahead inc death,2021-03-18,Illinois,point,,41.34602887813530
2021-02-28,19 day ahead inc death bound,2021-03-18,Illinois,upper bound,,82.69205775627050
2021-02-28,19 day ahead inc death bound,2021-03-18,Illinois,lower bound,,0.0
2021-02-28,20 day ahead inc case,2021-03-19,Illinois,point,,2114.736735176990
2021-02-28,20 day ahead inc case bound,2021-03-19,Illinois,upper bound,,4229.473470353990
2021-02-28,20 day ahead inc case bound,2021-03-19,Illinois,lower bound,,0.0
2021-02-28,20 day ahead inc death,2021-03-19,Illinois,point,,42.51774987476170
2021-02-28,20 day ahead inc death bound,2021-03-19,Illinois,upper bound,,85.0354997495233
2021-02-28,20 day ahead inc death bound,2021-03-19,Illinois,lower bound,,0.0
2021-02-28,21 day ahead inc case,2021-03-20,Illinois,point,,1980.6430820748200
2021-02-28,21 day ahead inc case bound,2021-03-20,Illinois,upper bound,,3961.2861641496400
2021-02-28,21 day ahead inc case bound,2021-03-20,Illinois,lower bound,,0.0
2021-02-28,21 day ahead inc death,2021-03-20,Illinois,point,,32.33007773712230
2021-02-28,21 day ahead inc death bound,2021-03-20,Illinois,upper bound,,64.66015547424470
2021-02-28,21 day ahead inc death bound,2021-03-20,Illinois,lower bound,,0.0
2021-02-28,22 day ahead inc case,2021-03-21,Illinois,point,,1965.0028507667600
2021-02-28,22 day ahead inc case bound,2021-03-21,Illinois,upper bound,,3930.005701533520
2021-02-28,22 day ahead inc case bound,2021-03-21,Illinois,lower bound,,0.0
2021-02-28,22 day ahead inc death,2021-03-21,Illinois,point,,22.749904162563300
2021-02-28,22 day ahead inc death bound,2021-03-21,Illinois,upper bound,,45.49980832512670
2021-02-28,22 day ahead inc death bound,2021-03-21,Illinois,lower bound,,0.0
2021-02-28,23 day ahead inc case,2021-03-22,Illinois,point,,1988.9214918678600
2021-02-28,23 day ahead inc case bound,2021-03-22,Illinois,upper bound,,3977.8429837357300
2021-02-28,23 day ahead inc case bound,2021-03-22,Illinois,lower bound,,0.0
2021-02-28,23 day ahead inc death,2021-03-22,Illinois,point,,17.78834179675320
2021-02-28,23 day ahead inc death bound,2021-03-22,Illinois,upper bound,,35.57668359350650
2021-02-28,23 day ahead inc death bound,2021-03-22,Illinois,lower bound,,0.0
2021-02-28,24 day ahead inc case,2021-03-23,Illinois,point,,2079.3302242266900
2021-02-28,24 day ahead inc case bound,2021-03-23,Illinois,upper bound,,4158.660448453390
2021-02-28,24 day ahead inc case bound,2021-03-23,Illinois,lower bound,,0.0
2021-02-28,24 day ahead inc death,2021-03-23,Illinois,point,,22.032294937489500
2021-02-28,24 day ahead inc death bound,2021-03-23,Illinois,upper bound,,44.06458987497900
2021-02-28,24 day ahead inc death bound,2021-03-23,Illinois,lower bound,,0.0
2021-02-28,25 day ahead inc case,2021-03-24,Illinois,point,,2182.4835660932600
2021-02-28,25 day ahead inc case bound,2021-03-24,Illinois,upper bound,,4364.967132186520
2021-02-28,25 day ahead inc case bound,2021-03-24,Illinois,lower bound,,0.0
2021-02-28,25 day ahead inc death,2021-03-24,Illinois,point,,33.78661335773000
2021-02-28,25 day ahead inc death bound,2021-03-24,Illinois,upper bound,,67.5732267154599
2021-02-28,25 day ahead inc death bound,2021-03-24,Illinois,lower bound,,0.0
2021-02-28,26 day ahead inc case,2021-03-25,Illinois,point,,2218.723063687330
2021-02-28,26 day ahead inc case bound,2021-03-25,Illinois,upper bound,,4437.446127374660
2021-02-28,26 day ahead inc case bound,2021-03-25,Illinois,lower bound,,0.0
2021-02-28,26 day ahead inc death,2021-03-25,Illinois,point,,39.87448968095850
2021-02-28,26 day ahead inc death bound,2021-03-25,Illinois,upper bound,,79.74897936191700
2021-02-28,26 day ahead inc death bound,2021-03-25,Illinois,lower bound,,0.0
2021-02-28,27 day ahead inc case,2021-03-26,Illinois,point,,2149.4381582427300
2021-02-28,27 day ahead inc case bound,2021-03-26,Illinois,upper bound,,4298.876316485460
2021-02-28,27 day ahead inc case bound,2021-03-26,Illinois,lower bound,,0.0
2021-02-28,27 day ahead inc death,2021-03-26,Illinois,point,,40.407879030055500
2021-02-28,27 day ahead inc death bound,2021-03-26,Illinois,upper bound,,80.81575806011100
2021-02-28,27 day ahead inc death bound,2021-03-26,Illinois,lower bound,,0.0
2021-02-28,28 day ahead inc case,2021-03-27,Illinois,point,,2094.2547424901300
2021-02-28,28 day ahead inc case bound,2021-03-27,Illinois,upper bound,,4188.509484980260
2021-02-28,28 day ahead inc case bound,2021-03-27,Illinois,lower bound,,0.0
2021-02-28,28 day ahead inc death,2021-03-27,Illinois,point,,33.429908139089100
2021-02-28,28 day ahead inc death bound,2021-03-27,Illinois,upper bound,,66.85981627817820
2021-02-28,28 day ahead inc death bound,2021-03-27,Illinois,lower bound,,0.0
2021-02-28,1 day ahead inc case,2021-02-28,Indiana,point,,844.8967647497780
2021-02-28,1 day ahead inc case bound,2021-02-28,Indiana,upper bound,,1267.3451471246700
2021-02-28,1 day ahead inc case bound,2021-02-28,Indiana,lower bound,,422.44838237488900
2021-02-28,1 day ahead inc death,2021-02-28,Indiana,point,,24.629408133863800
2021-02-28,1 day ahead inc death bound,2021-02-28,Indiana,upper bound,,36.94411220079570
2021-02-28,1 day ahead inc death bound,2021-02-28,Indiana,lower bound,,12.314704066931900
2021-02-28,2 day ahead inc case,2021-03-01,Indiana,point,,746.6766401380300
2021-02-28,2 day ahead inc case bound,2021-03-01,Indiana,upper bound,,1120.014960207050
2021-02-28,2 day ahead inc case bound,2021-03-01,Indiana,lower bound,,373.33832006901500
2021-02-28,2 day ahead inc death,2021-03-01,Indiana,point,,23.5212074032861
2021-02-28,2 day ahead inc death bound,2021-03-01,Indiana,upper bound,,35.28181110492920
2021-02-28,2 day ahead inc death bound,2021-03-01,Indiana,lower bound,,11.76060370164310
2021-02-28,3 day ahead inc case,2021-03-02,Indiana,point,,719.6721918121910
2021-02-28,3 day ahead inc case bound,2021-03-02,Indiana,upper bound,,1079.5082877182900
2021-02-28,3 day ahead inc case bound,2021-03-02,Indiana,lower bound,,359.83609590609600
2021-02-28,3 day ahead inc death,2021-03-02,Indiana,point,,24.066107903065100
2021-02-28,3 day ahead inc death bound,2021-03-02,Indiana,upper bound,,36.099161854597700
2021-02-28,3 day ahead inc death bound,2021-03-02,Indiana,lower bound,,12.033053951532600
2021-02-28,4 day ahead inc case,2021-03-03,Indiana,point,,795.4277216151820
2021-02-28,4 day ahead inc case bound,2021-03-03,Indiana,upper bound,,1193.1415824227700
2021-02-28,4 day ahead inc case bound,2021-03-03,Indiana,lower bound,,397.7138608075910
2021-02-28,4 day ahead inc death,2021-03-03,Indiana,point,,23.252210665159500
2021-02-28,4 day ahead inc death bound,2021-03-03,Indiana,upper bound,,34.878315997739300
2021-02-28,4 day ahead inc death bound,2021-03-03,Indiana,lower bound,,11.626105332579800
2021-02-28,5 day ahead inc case,2021-03-04,Indiana,point,,947.039929556544
2021-02-28,5 day ahead inc case bound,2021-03-04,Indiana,upper bound,,1420.559894334820
2021-02-28,5 day ahead inc case bound,2021-03-04,Indiana,lower bound,,473.519964778272
2021-02-28,5 day ahead inc death,2021-03-04,Indiana,point,,22.958888051027300
2021-02-28,5 day ahead inc death bound,2021-03-04,Indiana,upper bound,,34.43833207654100
2021-02-28,5 day ahead inc death bound,2021-03-04,Indiana,lower bound,,11.479444025513700
2021-02-28,6 day ahead inc case,2021-03-05,Indiana,point,,957.2325509488580
2021-02-28,6 day ahead inc case bound,2021-03-05,Indiana,upper bound,,1435.8488264232900
2021-02-28,6 day ahead inc case bound,2021-03-05,Indiana,lower bound,,478.6162754744290
2021-02-28,6 day ahead inc death,2021-03-05,Indiana,point,,22.353038401423000
2021-02-28,6 day ahead inc death bound,2021-03-05,Indiana,upper bound,,33.529557602134400
2021-02-28,6 day ahead inc death bound,2021-03-05,Indiana,lower bound,,11.176519200711500
2021-02-28,7 day ahead inc case,2021-03-06,Indiana,point,,898.3475984911200
2021-02-28,7 day ahead inc case bound,2021-03-06,Indiana,upper bound,,1347.5213977366800
2021-02-28,7 day ahead inc case bound,2021-03-06,Indiana,lower bound,,449.17379924556000
2021-02-28,7 day ahead inc death,2021-03-06,Indiana,point,,21.669672945450700
2021-02-28,7 day ahead inc death bound,2021-03-06,Indiana,upper bound,,32.504509418176000
2021-02-28,7 day ahead inc death bound,2021-03-06,Indiana,lower bound,,10.834836472725300
2021-02-28,8 day ahead inc case,2021-03-07,Indiana,point,,781.1138032869200
2021-02-28,8 day ahead inc case bound,2021-03-07,Indiana,upper bound,,1171.6707049303800
2021-02-28,8 day ahead inc case bound,2021-03-07,Indiana,lower bound,,390.55690164346000
2021-02-28,8 day ahead inc death,2021-03-07,Indiana,point,,22.04910251059480
2021-02-28,8 day ahead inc death bound,2021-03-07,Indiana,upper bound,,33.07365376589220
2021-02-28,8 day ahead inc death bound,2021-03-07,Indiana,lower bound,,11.02455125529740
2021-02-28,9 day ahead inc case,2021-03-08,Indiana,point,,698.2965854790530
2021-02-28,9 day ahead inc case bound,2021-03-08,Indiana,upper bound,,1047.4448782185800
2021-02-28,9 day ahead inc case bound,2021-03-08,Indiana,lower bound,,349.14829273952600
2021-02-28,9 day ahead inc death,2021-03-08,Indiana,point,,20.598677525315
2021-02-28,9 day ahead inc death bound,2021-03-08,Indiana,upper bound,,30.8980162879725
2021-02-28,9 day ahead inc death bound,2021-03-08,Indiana,lower bound,,10.2993387626575
2021-02-28,10 day ahead inc case,2021-03-09,Indiana,point,,691.5135237331270
2021-02-28,10 day ahead inc case bound,2021-03-09,Indiana,upper bound,,1037.2702855996900
2021-02-28,10 day ahead inc case bound,2021-03-09,Indiana,lower bound,,345.75676186656300
2021-02-28,10 day ahead inc death,2021-03-09,Indiana,point,,21.697561767781700
2021-02-28,10 day ahead inc death bound,2021-03-09,Indiana,upper bound,,32.5463426516726
2021-02-28,10 day ahead inc death bound,2021-03-09,Indiana,lower bound,,10.848780883890900
2021-02-28,11 day ahead inc case,2021-03-10,Indiana,point,,729.4988704189890
2021-02-28,11 day ahead inc case bound,2021-03-10,Indiana,upper bound,,1094.2483056284800
2021-02-28,11 day ahead inc case bound,2021-03-10,Indiana,lower bound,,364.74943520949500
2021-02-28,11 day ahead inc death,2021-03-10,Indiana,point,,20.90936884794790
2021-02-28,11 day ahead inc death bound,2021-03-10,Indiana,upper bound,,31.364053271921900
2021-02-28,11 day ahead inc death bound,2021-03-10,Indiana,lower bound,,10.454684423974000
2021-02-28,12 day ahead inc case,2021-03-11,Indiana,point,,798.7581722261380
2021-02-28,12 day ahead inc case bound,2021-03-11,Indiana,upper bound,,1198.1372583392100
2021-02-28,12 day ahead inc case bound,2021-03-11,Indiana,lower bound,,399.37908611306900
2021-02-28,12 day ahead inc death,2021-03-11,Indiana,point,,20.82184116917420
2021-02-28,12 day ahead inc death bound,2021-03-11,Indiana,upper bound,,31.232761753761200
2021-02-28,12 day ahead inc death bound,2021-03-11,Indiana,lower bound,,10.410920584587100
2021-02-28,13 day ahead inc case,2021-03-12,Indiana,point,,824.5638815248390
2021-02-28,13 day ahead inc case bound,2021-03-12,Indiana,upper bound,,1236.8458222872600
2021-02-28,13 day ahead inc case bound,2021-03-12,Indiana,lower bound,,412.28194076241900
2021-02-28,13 day ahead inc death,2021-03-12,Indiana,point,,20.723288187897200
2021-02-28,13 day ahead inc death bound,2021-03-12,Indiana,upper bound,,31.0849322818458
2021-02-28,13 day ahead inc death bound,2021-03-12,Indiana,lower bound,,10.361644093948600
2021-02-28,14 day ahead inc case,2021-03-13,Indiana,point,,807.0697602521390
2021-02-28,14 day ahead inc case bound,2021-03-13,Indiana,upper bound,,1210.6046403782100
2021-02-28,14 day ahead inc case bound,2021-03-13,Indiana,lower bound,,403.5348801260700
2021-02-28,14 day ahead inc death,2021-03-13,Indiana,point,,19.70062798268010
2021-02-28,14 day ahead inc death bound,2021-03-13,Indiana,upper bound,,29.550941974020100
2021-02-28,14 day ahead inc death bound,2021-03-13,Indiana,lower bound,,9.850313991340040
2021-02-28,15 day ahead inc case,2021-03-14,Indiana,point,,732.6952681785920
2021-02-28,15 day ahead inc case bound,2021-03-14,Indiana,upper bound,,1465.390536357180
2021-02-28,15 day ahead inc case bound,2021-03-14,Indiana,lower bound,,0.0
2021-02-28,15 day ahead inc death,2021-03-14,Indiana,point,,19.824650403761600
2021-02-28,15 day ahead inc death bound,2021-03-14,Indiana,upper bound,,39.649300807523100
2021-02-28,15 day ahead inc death bound,2021-03-14,Indiana,lower bound,,0.0
2021-02-28,16 day ahead inc case,2021-03-15,Indiana,point,,670.8294631810860
2021-02-28,16 day ahead inc case bound,2021-03-15,Indiana,upper bound,,1341.6589263621700
2021-02-28,16 day ahead inc case bound,2021-03-15,Indiana,lower bound,,0.0
2021-02-28,16 day ahead inc death,2021-03-15,Indiana,point,,20.002808608427600
2021-02-28,16 day ahead inc death bound,2021-03-15,Indiana,upper bound,,40.00561721685520
2021-02-28,16 day ahead inc death bound,2021-03-15,Indiana,lower bound,,0.0
2021-02-28,17 day ahead inc case,2021-03-16,Indiana,point,,652.0253417377830
2021-02-28,17 day ahead inc case bound,2021-03-16,Indiana,upper bound,,1304.0506834755700
2021-02-28,17 day ahead inc case bound,2021-03-16,Indiana,lower bound,,0.0
2021-02-28,17 day ahead inc death,2021-03-16,Indiana,point,,19.832355319835200
2021-02-28,17 day ahead inc death bound,2021-03-16,Indiana,upper bound,,39.664710639670400
2021-02-28,17 day ahead inc death bound,2021-03-16,Indiana,lower bound,,0.0
2021-02-28,18 day ahead inc case,2021-03-17,Indiana,point,,705.2624472999010
2021-02-28,18 day ahead inc case bound,2021-03-17,Indiana,upper bound,,1410.5248945998000
2021-02-28,18 day ahead inc case bound,2021-03-17,Indiana,lower bound,,0.0
2021-02-28,18 day ahead inc death,2021-03-17,Indiana,point,,19.244533509559900
2021-02-28,18 day ahead inc death bound,2021-03-17,Indiana,upper bound,,38.48906701911980
2021-02-28,18 day ahead inc death bound,2021-03-17,Indiana,lower bound,,0.0
2021-02-28,19 day ahead inc case,2021-03-18,Indiana,point,,762.8107786866600
2021-02-28,19 day ahead inc case bound,2021-03-18,Indiana,upper bound,,1525.6215573733200
2021-02-28,19 day ahead inc case bound,2021-03-18,Indiana,lower bound,,0.0
2021-02-28,19 day ahead inc death,2021-03-18,Indiana,point,,19.77784886081280
2021-02-28,19 day ahead inc death bound,2021-03-18,Indiana,upper bound,,39.55569772162560
2021-02-28,19 day ahead inc death bound,2021-03-18,Indiana,lower bound,,0.0
2021-02-28,20 day ahead inc case,2021-03-19,Indiana,point,,778.2755980325160
2021-02-28,20 day ahead inc case bound,2021-03-19,Indiana,upper bound,,1556.5511960650300
2021-02-28,20 day ahead inc case bound,2021-03-19,Indiana,lower bound,,0.0
2021-02-28,20 day ahead inc death,2021-03-19,Indiana,point,,19.217253979255500
2021-02-28,20 day ahead inc death bound,2021-03-19,Indiana,upper bound,,38.43450795851100
2021-02-28,20 day ahead inc death bound,2021-03-19,Indiana,lower bound,,0.0
2021-02-28,21 day ahead inc case,2021-03-20,Indiana,point,,766.7168452825860
2021-02-28,21 day ahead inc case bound,2021-03-20,Indiana,upper bound,,1533.4336905651700
2021-02-28,21 day ahead inc case bound,2021-03-20,Indiana,lower bound,,0.0
2021-02-28,21 day ahead inc death,2021-03-20,Indiana,point,,18.298872469054900
2021-02-28,21 day ahead inc death bound,2021-03-20,Indiana,upper bound,,36.59774493810980
2021-02-28,21 day ahead inc death bound,2021-03-20,Indiana,lower bound,,0.0
2021-02-28,22 day ahead inc case,2021-03-21,Indiana,point,,724.7906564091100
2021-02-28,22 day ahead inc case bound,2021-03-21,Indiana,upper bound,,1449.5813128182200
2021-02-28,22 day ahead inc case bound,2021-03-21,Indiana,lower bound,,0.0
2021-02-28,22 day ahead inc death,2021-03-21,Indiana,point,,19.080472077454000
2021-02-28,22 day ahead inc death bound,2021-03-21,Indiana,upper bound,,38.16094415490810
2021-02-28,22 day ahead inc death bound,2021-03-21,Indiana,lower bound,,0.0
2021-02-28,23 day ahead inc case,2021-03-22,Indiana,point,,690.9592448881590
2021-02-28,23 day ahead inc case bound,2021-03-22,Indiana,upper bound,,1381.918489776320
2021-02-28,23 day ahead inc case bound,2021-03-22,Indiana,lower bound,,0.0
2021-02-28,23 day ahead inc death,2021-03-22,Indiana,point,,18.320499830782900
2021-02-28,23 day ahead inc death bound,2021-03-22,Indiana,upper bound,,36.64099966156570
2021-02-28,23 day ahead inc death bound,2021-03-22,Indiana,lower bound,,0.0
2021-02-28,24 day ahead inc case,2021-03-23,Indiana,point,,688.1882698107510
2021-02-28,24 day ahead inc case bound,2021-03-23,Indiana,upper bound,,1376.3765396215000
2021-02-28,24 day ahead inc case bound,2021-03-23,Indiana,lower bound,,0.0
2021-02-28,24 day ahead inc death,2021-03-23,Indiana,point,,17.843538657572900
2021-02-28,24 day ahead inc death bound,2021-03-23,Indiana,upper bound,,35.68707731514590
2021-02-28,24 day ahead inc death bound,2021-03-23,Indiana,lower bound,,0.0
2021-02-28,25 day ahead inc case,2021-03-24,Indiana,point,,721.4670312324310
2021-02-28,25 day ahead inc case bound,2021-03-24,Indiana,upper bound,,1442.9340624648600
2021-02-28,25 day ahead inc case bound,2021-03-24,Indiana,lower bound,,0.0
2021-02-28,25 day ahead inc death,2021-03-24,Indiana,point,,18.0238971042545
2021-02-28,25 day ahead inc death bound,2021-03-24,Indiana,upper bound,,36.047794208509
2021-02-28,25 day ahead inc death bound,2021-03-24,Indiana,lower bound,,0.0
2021-02-28,26 day ahead inc case,2021-03-25,Indiana,point,,751.9089973787780
2021-02-28,26 day ahead inc case bound,2021-03-25,Indiana,upper bound,,1503.8179947575600
2021-02-28,26 day ahead inc case bound,2021-03-25,Indiana,lower bound,,0.0
2021-02-28,26 day ahead inc death,2021-03-25,Indiana,point,,18.000201857999900
2021-02-28,26 day ahead inc death bound,2021-03-25,Indiana,upper bound,,36.00040371599970
2021-02-28,26 day ahead inc death bound,2021-03-25,Indiana,lower bound,,0.0
2021-02-28,27 day ahead inc case,2021-03-26,Indiana,point,,757.6591353876280
2021-02-28,27 day ahead inc case bound,2021-03-26,Indiana,upper bound,,1515.3182707752600
2021-02-28,27 day ahead inc case bound,2021-03-26,Indiana,lower bound,,0.0
2021-02-28,27 day ahead inc death,2021-03-26,Indiana,point,,17.269081470305500
2021-02-28,27 day ahead inc death bound,2021-03-26,Indiana,upper bound,,34.53816294061110
2021-02-28,27 day ahead inc death bound,2021-03-26,Indiana,lower bound,,0.0
2021-02-28,28 day ahead inc case,2021-03-27,Indiana,point,,734.7926596424080
2021-02-28,28 day ahead inc case bound,2021-03-27,Indiana,upper bound,,1469.5853192848200
2021-02-28,28 day ahead inc case bound,2021-03-27,Indiana,lower bound,,0.0
2021-02-28,28 day ahead inc death,2021-03-27,Indiana,point,,17.887915402618100
2021-02-28,28 day ahead inc death bound,2021-03-27,Indiana,upper bound,,35.775830805236200
2021-02-28,28 day ahead inc death bound,2021-03-27,Indiana,lower bound,,0.0
2021-02-28,1 day ahead inc case,2021-02-28,Michigan,point,,1077.9406467091800
2021-02-28,1 day ahead inc case bound,2021-02-28,Michigan,upper bound,,1616.9109700637600
2021-02-28,1 day ahead inc case bound,2021-02-28,Michigan,lower bound,,538.9703233545880
2021-02-28,1 day ahead inc death,2021-02-28,Michigan,point,,3.279017836746790
2021-02-28,1 day ahead inc death bound,2021-02-28,Michigan,upper bound,,4.918526755120180
2021-02-28,1 day ahead inc death bound,2021-02-28,Michigan,lower bound,,1.6395089183733900
2021-02-28,2 day ahead inc case,2021-03-01,Michigan,point,,1453.601846374220
2021-02-28,2 day ahead inc case bound,2021-03-01,Michigan,upper bound,,2180.402769561330
2021-02-28,2 day ahead inc case bound,2021-03-01,Michigan,lower bound,,726.800923187111
2021-02-28,2 day ahead inc death,2021-03-01,Michigan,point,,11.991284377712900
2021-02-28,2 day ahead inc death bound,2021-03-01,Michigan,upper bound,,17.98692656656930
2021-02-28,2 day ahead inc death bound,2021-03-01,Michigan,lower bound,,5.995642188856440
2021-02-28,3 day ahead inc case,2021-03-02,Michigan,point,,1326.4345016895100
2021-02-28,3 day ahead inc case bound,2021-03-02,Michigan,upper bound,,1989.651752534260
2021-02-28,3 day ahead inc case bound,2021-03-02,Michigan,lower bound,,663.2172508447550
2021-02-28,3 day ahead inc death,2021-03-02,Michigan,point,,39.752566626193600
2021-02-28,3 day ahead inc death bound,2021-03-02,Michigan,upper bound,,59.62884993929040
2021-02-28,3 day ahead inc death bound,2021-03-02,Michigan,lower bound,,19.876283313096800
2021-02-28,4 day ahead inc case,2021-03-03,Michigan,point,,1350.6675330775300
2021-02-28,4 day ahead inc case bound,2021-03-03,Michigan,upper bound,,2026.0012996163000
2021-02-28,4 day ahead inc case bound,2021-03-03,Michigan,lower bound,,675.3337665387660
2021-02-28,4 day ahead inc death,2021-03-03,Michigan,point,,6.646115755655050
2021-02-28,4 day ahead inc death bound,2021-03-03,Michigan,upper bound,,9.969173633482570
2021-02-28,4 day ahead inc death bound,2021-03-03,Michigan,lower bound,,3.3230578778275200
2021-02-28,5 day ahead inc case,2021-03-04,Michigan,point,,1272.4815416029900
2021-02-28,5 day ahead inc case bound,2021-03-04,Michigan,upper bound,,1908.722312404480
2021-02-28,5 day ahead inc case bound,2021-03-04,Michigan,lower bound,,636.2407708014940
2021-02-28,5 day ahead inc death,2021-03-04,Michigan,point,,36.26073113578240
2021-02-28,5 day ahead inc death bound,2021-03-04,Michigan,upper bound,,54.39109670367360
2021-02-28,5 day ahead inc death bound,2021-03-04,Michigan,lower bound,,18.130365567891200
2021-02-28,6 day ahead inc case,2021-03-05,Michigan,point,,1272.509696837630
2021-02-28,6 day ahead inc case bound,2021-03-05,Michigan,upper bound,,1908.7645452564500
2021-02-28,6 day ahead inc case bound,2021-03-05,Michigan,lower bound,,636.2548484188160
2021-02-28,6 day ahead inc death,2021-03-05,Michigan,point,,10.207912066696700
2021-02-28,6 day ahead inc death bound,2021-03-05,Michigan,upper bound,,15.311868100045100
2021-02-28,6 day ahead inc death bound,2021-03-05,Michigan,lower bound,,5.103956033348370
2021-02-28,7 day ahead inc case,2021-03-06,Michigan,point,,1445.0973215641000
2021-02-28,7 day ahead inc case bound,2021-03-06,Michigan,upper bound,,2167.6459823461500
2021-02-28,7 day ahead inc case bound,2021-03-06,Michigan,lower bound,,722.5486607820490
2021-02-28,7 day ahead inc death,2021-03-06,Michigan,point,,50.84930127077320
2021-02-28,7 day ahead inc death bound,2021-03-06,Michigan,upper bound,,76.27395190615970
2021-02-28,7 day ahead inc death bound,2021-03-06,Michigan,lower bound,,25.424650635386600
2021-02-28,8 day ahead inc case,2021-03-07,Michigan,point,,1129.2594899979900
2021-02-28,8 day ahead inc case bound,2021-03-07,Michigan,upper bound,,1693.8892349969800
2021-02-28,8 day ahead inc case bound,2021-03-07,Michigan,lower bound,,564.6297449989940
2021-02-28,8 day ahead inc death,2021-03-07,Michigan,point,,4.670361112741380
2021-02-28,8 day ahead inc death bound,2021-03-07,Michigan,upper bound,,7.005541669112060
2021-02-28,8 day ahead inc death bound,2021-03-07,Michigan,lower bound,,2.335180556370690
2021-02-28,9 day ahead inc case,2021-03-08,Michigan,point,,1376.0122214345000
2021-02-28,9 day ahead inc case bound,2021-03-08,Michigan,upper bound,,2064.0183321517500
2021-02-28,9 day ahead inc case bound,2021-03-08,Michigan,lower bound,,688.0061107172510
2021-02-28,9 day ahead inc death,2021-03-08,Michigan,point,,8.01430594771955
2021-02-28,9 day ahead inc death bound,2021-03-08,Michigan,upper bound,,12.021458921579300
2021-02-28,9 day ahead inc death bound,2021-03-08,Michigan,lower bound,,4.007152973859780
2021-02-28,10 day ahead inc case,2021-03-09,Michigan,point,,1292.0442023624200
2021-02-28,10 day ahead inc case bound,2021-03-09,Michigan,upper bound,,1938.06630354363
2021-02-28,10 day ahead inc case bound,2021-03-09,Michigan,lower bound,,646.0221011812100
2021-02-28,10 day ahead inc death,2021-03-09,Michigan,point,,32.09651837557980
2021-02-28,10 day ahead inc death bound,2021-03-09,Michigan,upper bound,,48.144777563369600
2021-02-28,10 day ahead inc death bound,2021-03-09,Michigan,lower bound,,16.04825918778990
2021-02-28,11 day ahead inc case,2021-03-10,Michigan,point,,1310.2670168522700
2021-02-28,11 day ahead inc case bound,2021-03-10,Michigan,upper bound,,1965.4005252784100
2021-02-28,11 day ahead inc case bound,2021-03-10,Michigan,lower bound,,655.1335084261370
2021-02-28,11 day ahead inc death,2021-03-10,Michigan,point,,6.913337239504470
2021-02-28,11 day ahead inc death bound,2021-03-10,Michigan,upper bound,,10.370005859256700
2021-02-28,11 day ahead inc death bound,2021-03-10,Michigan,lower bound,,3.4566686197522400
2021-02-28,12 day ahead inc case,2021-03-11,Michigan,point,,1250.4631781736400
2021-02-28,12 day ahead inc case bound,2021-03-11,Michigan,upper bound,,1875.6947672604600
2021-02-28,12 day ahead inc case bound,2021-03-11,Michigan,lower bound,,625.2315890868190
2021-02-28,12 day ahead inc death,2021-03-11,Michigan,point,,30.151796262507600
2021-02-28,12 day ahead inc death bound,2021-03-11,Michigan,upper bound,,45.22769439376130
2021-02-28,12 day ahead inc death bound,2021-03-11,Michigan,lower bound,,15.075898131253800
2021-02-28,13 day ahead inc case,2021-03-12,Michigan,point,,1254.3854579334100
2021-02-28,13 day ahead inc case bound,2021-03-12,Michigan,upper bound,,1881.578186900120
2021-02-28,13 day ahead inc case bound,2021-03-12,Michigan,lower bound,,627.1927289667070
2021-02-28,13 day ahead inc death,2021-03-12,Michigan,point,,9.593543185896120
2021-02-28,13 day ahead inc death bound,2021-03-12,Michigan,upper bound,,14.390314778844200
2021-02-28,13 day ahead inc death bound,2021-03-12,Michigan,lower bound,,4.796771592948060
2021-02-28,14 day ahead inc case,2021-03-13,Michigan,point,,1394.6797463307200
2021-02-28,14 day ahead inc case bound,2021-03-13,Michigan,upper bound,,2092.0196194960700
2021-02-28,14 day ahead inc case bound,2021-03-13,Michigan,lower bound,,697.3398731653580
2021-02-28,14 day ahead inc death,2021-03-13,Michigan,point,,41.25418378280670
2021-02-28,14 day ahead inc death bound,2021-03-13,Michigan,upper bound,,61.88127567421000
2021-02-28,14 day ahead inc death bound,2021-03-13,Michigan,lower bound,,20.627091891403300
2021-02-28,15 day ahead inc case,2021-03-14,Michigan,point,,1160.5526179188200
2021-02-28,15 day ahead inc case bound,2021-03-14,Michigan,upper bound,,2321.1052358376300
2021-02-28,15 day ahead inc case bound,2021-03-14,Michigan,lower bound,,0.0
2021-02-28,15 day ahead inc death,2021-03-14,Michigan,point,,4.394012639386350
2021-02-28,15 day ahead inc death bound,2021-03-14,Michigan,upper bound,,8.788025278772690
2021-02-28,15 day ahead inc death bound,2021-03-14,Michigan,lower bound,,0.0
2021-02-28,16 day ahead inc case,2021-03-15,Michigan,point,,1335.919435972700
2021-02-28,16 day ahead inc case bound,2021-03-15,Michigan,upper bound,,2671.838871945390
2021-02-28,16 day ahead inc case bound,2021-03-15,Michigan,lower bound,,0.0
2021-02-28,16 day ahead inc death,2021-03-15,Michigan,point,,7.360223026320460
2021-02-28,16 day ahead inc death bound,2021-03-15,Michigan,upper bound,,14.72044605264090
2021-02-28,16 day ahead inc death bound,2021-03-15,Michigan,lower bound,,0.0
2021-02-28,17 day ahead inc case,2021-03-16,Michigan,point,,1275.0582411644300
2021-02-28,17 day ahead inc case bound,2021-03-16,Michigan,upper bound,,2550.1164823288600
2021-02-28,17 day ahead inc case bound,2021-03-16,Michigan,lower bound,,0.0
2021-02-28,17 day ahead inc death,2021-03-16,Michigan,point,,25.90104567462910
2021-02-28,17 day ahead inc death bound,2021-03-16,Michigan,upper bound,,51.80209134925830
2021-02-28,17 day ahead inc death bound,2021-03-16,Michigan,lower bound,,0.0
2021-02-28,18 day ahead inc case,2021-03-17,Michigan,point,,1290.29769763886
2021-02-28,18 day ahead inc case bound,2021-03-17,Michigan,upper bound,,2580.59539527772
2021-02-28,18 day ahead inc case bound,2021-03-17,Michigan,lower bound,,0.0
2021-02-28,18 day ahead inc death,2021-03-17,Michigan,point,,4.885975951572620
2021-02-28,18 day ahead inc death bound,2021-03-17,Michigan,upper bound,,9.771951903145240
2021-02-28,18 day ahead inc death bound,2021-03-17,Michigan,lower bound,,0.0
2021-02-28,19 day ahead inc case,2021-03-18,Michigan,point,,1259.161021864390
2021-02-28,19 day ahead inc case bound,2021-03-18,Michigan,upper bound,,2518.322043728780
2021-02-28,19 day ahead inc case bound,2021-03-18,Michigan,lower bound,,0.0
2021-02-28,19 day ahead inc death,2021-03-18,Michigan,point,,29.43023678407920
2021-02-28,19 day ahead inc death bound,2021-03-18,Michigan,upper bound,,58.86047356815830
2021-02-28,19 day ahead inc death bound,2021-03-18,Michigan,lower bound,,0.0
2021-02-28,20 day ahead inc case,2021-03-19,Michigan,point,,1258.6674152506700
2021-02-28,20 day ahead inc case bound,2021-03-19,Michigan,upper bound,,2517.3348305013500
2021-02-28,20 day ahead inc case bound,2021-03-19,Michigan,lower bound,,0.0
2021-02-28,20 day ahead inc death,2021-03-19,Michigan,point,,9.097574783983870
2021-02-28,20 day ahead inc death bound,2021-03-19,Michigan,upper bound,,18.195149567967700
2021-02-28,20 day ahead inc death bound,2021-03-19,Michigan,lower bound,,0.0
2021-02-28,21 day ahead inc case,2021-03-20,Michigan,point,,1362.7460965100900
2021-02-28,21 day ahead inc case bound,2021-03-20,Michigan,upper bound,,2725.4921930201800
2021-02-28,21 day ahead inc case bound,2021-03-20,Michigan,lower bound,,0.0
2021-02-28,21 day ahead inc death,2021-03-20,Michigan,point,,34.28656273371600
2021-02-28,21 day ahead inc death bound,2021-03-20,Michigan,upper bound,,68.57312546743200
2021-02-28,21 day ahead inc death bound,2021-03-20,Michigan,lower bound,,0.0
2021-02-28,22 day ahead inc case,2021-03-21,Michigan,point,,1203.0881280687200
2021-02-28,22 day ahead inc case bound,2021-03-21,Michigan,upper bound,,2406.1762561374300
2021-02-28,22 day ahead inc case bound,2021-03-21,Michigan,lower bound,,0.0
2021-02-28,22 day ahead inc death,2021-03-21,Michigan,point,,5.305557794254130
2021-02-28,22 day ahead inc death bound,2021-03-21,Michigan,upper bound,,10.611115588508300
2021-02-28,22 day ahead inc death bound,2021-03-21,Michigan,lower bound,,0.0
2021-02-28,23 day ahead inc case,2021-03-22,Michigan,point,,1303.5630903745800
2021-02-28,23 day ahead inc case bound,2021-03-22,Michigan,upper bound,,2607.1261807491500
2021-02-28,23 day ahead inc case bound,2021-03-22,Michigan,lower bound,,0.0
2021-02-28,23 day ahead inc death,2021-03-22,Michigan,point,,6.710646949111830
2021-02-28,23 day ahead inc death bound,2021-03-22,Michigan,upper bound,,13.421293898223700
2021-02-28,23 day ahead inc death bound,2021-03-22,Michigan,lower bound,,0.0
2021-02-28,24 day ahead inc case,2021-03-23,Michigan,point,,1288.4669956506700
2021-02-28,24 day ahead inc case bound,2021-03-23,Michigan,upper bound,,2576.933991301340
2021-02-28,24 day ahead inc case bound,2021-03-23,Michigan,lower bound,,0.0
2021-02-28,24 day ahead inc death,2021-03-23,Michigan,point,,19.998610065140400
2021-02-28,24 day ahead inc death bound,2021-03-23,Michigan,upper bound,,39.99722013028080
2021-02-28,24 day ahead inc death bound,2021-03-23,Michigan,lower bound,,0.0
2021-02-28,25 day ahead inc case,2021-03-24,Michigan,point,,1305.6437059971500
2021-02-28,25 day ahead inc case bound,2021-03-24,Michigan,upper bound,,2611.2874119943000
2021-02-28,25 day ahead inc case bound,2021-03-24,Michigan,lower bound,,0.0
2021-02-28,25 day ahead inc death,2021-03-24,Michigan,point,,5.667543505693180
2021-02-28,25 day ahead inc death bound,2021-03-24,Michigan,upper bound,,11.33508701138640
2021-02-28,25 day ahead inc death bound,2021-03-24,Michigan,lower bound,,0.0
2021-02-28,26 day ahead inc case,2021-03-25,Michigan,point,,1281.6433459345700
2021-02-28,26 day ahead inc case bound,2021-03-25,Michigan,upper bound,,2563.2866918691400
2021-02-28,26 day ahead inc case bound,2021-03-25,Michigan,lower bound,,0.0
2021-02-28,26 day ahead inc death,2021-03-25,Michigan,point,,27.37819323473010
2021-02-28,26 day ahead inc death bound,2021-03-25,Michigan,upper bound,,54.756386469460300
2021-02-28,26 day ahead inc death bound,2021-03-25,Michigan,lower bound,,0.0
2021-02-28,27 day ahead inc case,2021-03-26,Michigan,point,,1274.8874820342800
2021-02-28,27 day ahead inc case bound,2021-03-26,Michigan,upper bound,,2549.7749640685500
2021-02-28,27 day ahead inc case bound,2021-03-26,Michigan,lower bound,,0.0
2021-02-28,27 day ahead inc death,2021-03-26,Michigan,point,,8.648251006725330
2021-02-28,27 day ahead inc death bound,2021-03-26,Michigan,upper bound,,17.296502013450700
2021-02-28,27 day ahead inc death bound,2021-03-26,Michigan,lower bound,,0.0
2021-02-28,28 day ahead inc case,2021-03-27,Michigan,point,,1347.5114161268600
2021-02-28,28 day ahead inc case bound,2021-03-27,Michigan,upper bound,,2695.022832253720
2021-02-28,28 day ahead inc case bound,2021-03-27,Michigan,lower bound,,0.0
2021-02-28,28 day ahead inc death,2021-03-27,Michigan,point,,28.859692230194900
2021-02-28,28 day ahead inc death bound,2021-03-27,Michigan,upper bound,,57.719384460389900
2021-02-28,28 day ahead inc death bound,2021-03-27,Michigan,lower bound,,0.0
2021-02-28,1 day ahead inc case,2021-02-28,Ohio,point,,2162.644475293930
2021-02-28,1 day ahead inc case bound,2021-02-28,Ohio,upper bound,,3243.9667129408900
2021-02-28,1 day ahead inc case bound,2021-02-28,Ohio,lower bound,,1081.322237646960
2021-02-28,1 day ahead inc death,2021-02-28,Ohio,point,,3.346143251932520
2021-02-28,1 day ahead inc death bound,2021-02-28,Ohio,upper bound,,5.019214877898780
2021-02-28,1 day ahead inc death bound,2021-02-28,Ohio,lower bound,,1.6730716259662600
2021-02-28,2 day ahead inc case,2021-03-01,Ohio,point,,2226.003923372250
2021-02-28,2 day ahead inc case bound,2021-03-01,Ohio,upper bound,,3339.005885058370
2021-02-28,2 day ahead inc case bound,2021-03-01,Ohio,lower bound,,1113.0019616861200
2021-02-28,2 day ahead inc death,2021-03-01,Ohio,point,,3.078501725471140
2021-02-28,2 day ahead inc death bound,2021-03-01,Ohio,upper bound,,4.617752588206710
2021-02-28,2 day ahead inc death bound,2021-03-01,Ohio,lower bound,,1.539250862735570
2021-02-28,3 day ahead inc case,2021-03-02,Ohio,point,,2238.9006127560300
2021-02-28,3 day ahead inc case bound,2021-03-02,Ohio,upper bound,,3358.3509191340400
2021-02-28,3 day ahead inc case bound,2021-03-02,Ohio,lower bound,,1119.4503063780100
2021-02-28,3 day ahead inc death,2021-03-02,Ohio,point,,1.9989536172033700
2021-02-28,3 day ahead inc death bound,2021-03-02,Ohio,upper bound,,2.9984304258050500
2021-02-28,3 day ahead inc death bound,2021-03-02,Ohio,lower bound,,0.9994768086016850
2021-02-28,4 day ahead inc case,2021-03-03,Ohio,point,,2159.18168369378
2021-02-28,4 day ahead inc case bound,2021-03-03,Ohio,upper bound,,3238.772525540670
2021-02-28,4 day ahead inc case bound,2021-03-03,Ohio,lower bound,,1079.5908418468900
2021-02-28,4 day ahead inc death,2021-03-03,Ohio,point,,1.4690691537689400
2021-02-28,4 day ahead inc death bound,2021-03-03,Ohio,upper bound,,2.2036037306534100
2021-02-28,4 day ahead inc death bound,2021-03-03,Ohio,lower bound,,0.7345345768844710
2021-02-28,5 day ahead inc case,2021-03-04,Ohio,point,,2250.289825115000
2021-02-28,5 day ahead inc case bound,2021-03-04,Ohio,upper bound,,3375.434737672510
2021-02-28,5 day ahead inc case bound,2021-03-04,Ohio,lower bound,,1125.1449125575000
2021-02-28,5 day ahead inc death,2021-03-04,Ohio,point,,1.4254258007677000
2021-02-28,5 day ahead inc death bound,2021-03-04,Ohio,upper bound,,2.1381387011515500
2021-02-28,5 day ahead inc death bound,2021-03-04,Ohio,lower bound,,0.7127129003838490
2021-02-28,6 day ahead inc case,2021-03-05,Ohio,point,,2247.8264375880800
2021-02-28,6 day ahead inc case bound,2021-03-05,Ohio,upper bound,,3371.739656382120
2021-02-28,6 day ahead inc case bound,2021-03-05,Ohio,lower bound,,1123.9132187940400
2021-02-28,6 day ahead inc death,2021-03-05,Ohio,point,,0.7542475607151570
2021-02-28,6 day ahead inc death bound,2021-03-05,Ohio,upper bound,,1.1313713410727400
2021-02-28,6 day ahead inc death bound,2021-03-05,Ohio,lower bound,,0.37712378035757900
2021-02-28,7 day ahead inc case,2021-03-06,Ohio,point,,2305.561893960230
2021-02-28,7 day ahead inc case bound,2021-03-06,Ohio,upper bound,,3458.3428409403400
2021-02-28,7 day ahead inc case bound,2021-03-06,Ohio,lower bound,,1152.780946980110
2021-02-28,7 day ahead inc death,2021-03-06,Ohio,point,,0.7190983646833050
2021-02-28,7 day ahead inc death bound,2021-03-06,Ohio,upper bound,,1.078647547024960
2021-02-28,7 day ahead inc death bound,2021-03-06,Ohio,lower bound,,0.35954918234165200
2021-02-28,8 day ahead inc case,2021-03-07,Ohio,point,,2220.538583004270
2021-02-28,8 day ahead inc case bound,2021-03-07,Ohio,upper bound,,3330.8078745064000
2021-02-28,8 day ahead inc case bound,2021-03-07,Ohio,lower bound,,1110.2692915021300
2021-02-28,8 day ahead inc death,2021-03-07,Ohio,point,,0.3957188543936350
2021-02-28,8 day ahead inc death bound,2021-03-07,Ohio,upper bound,,0.5935782815904530
2021-02-28,8 day ahead inc death bound,2021-03-07,Ohio,lower bound,,0.1978594271968180
2021-02-28,9 day ahead inc case,2021-03-08,Ohio,point,,2316.600401235050
2021-02-28,9 day ahead inc case bound,2021-03-08,Ohio,upper bound,,3474.900601852570
2021-02-28,9 day ahead inc case bound,2021-03-08,Ohio,lower bound,,1158.300200617520
2021-02-28,9 day ahead inc death,2021-03-08,Ohio,point,,0.4573200072336480
2021-02-28,9 day ahead inc death bound,2021-03-08,Ohio,upper bound,,0.6859800108504710
2021-02-28,9 day ahead inc death bound,2021-03-08,Ohio,lower bound,,0.2286600036168240
2021-02-28,10 day ahead inc case,2021-03-09,Ohio,point,,2296.9363365040600
2021-02-28,10 day ahead inc case bound,2021-03-09,Ohio,upper bound,,3445.404504756090
2021-02-28,10 day ahead inc case bound,2021-03-09,Ohio,lower bound,,1148.4681682520300
2021-02-28,10 day ahead inc death,2021-03-09,Ohio,point,,0.0
2021-02-28,10 day ahead inc death bound,2021-03-09,Ohio,upper bound,,0.0
2021-02-28,10 day ahead inc death bound,2021-03-09,Ohio,lower bound,,0.0
2021-02-28,11 day ahead inc case,2021-03-10,Ohio,point,,2298.749607134730
2021-02-28,11 day ahead inc case bound,2021-03-10,Ohio,upper bound,,3448.1244107020900
2021-02-28,11 day ahead inc case bound,2021-03-10,Ohio,lower bound,,1149.3748035673600
2021-02-28,11 day ahead inc death,2021-03-10,Ohio,point,,0.0
2021-02-28,11 day ahead inc death bound,2021-03-10,Ohio,upper bound,,0.0
2021-02-28,11 day ahead inc death bound,2021-03-10,Ohio,lower bound,,0.0
2021-02-28,12 day ahead inc case,2021-03-11,Ohio,point,,2347.054816662680
2021-02-28,12 day ahead inc case bound,2021-03-11,Ohio,upper bound,,3520.582224994030
2021-02-28,12 day ahead inc case bound,2021-03-11,Ohio,lower bound,,1173.5274083313400
2021-02-28,12 day ahead inc death,2021-03-11,Ohio,point,,0.0
2021-02-28,12 day ahead inc death bound,2021-03-11,Ohio,upper bound,,0.0
2021-02-28,12 day ahead inc death bound,2021-03-11,Ohio,lower bound,,0.0
2021-02-28,13 day ahead inc case,2021-03-12,Ohio,point,,2326.997117232180
2021-02-28,13 day ahead inc case bound,2021-03-12,Ohio,upper bound,,3490.4956758482700
2021-02-28,13 day ahead inc case bound,2021-03-12,Ohio,lower bound,,1163.498558616090
2021-02-28,13 day ahead inc death,2021-03-12,Ohio,point,,0.0
2021-02-28,13 day ahead inc death bound,2021-03-12,Ohio,upper bound,,0.0
2021-02-28,13 day ahead inc death bound,2021-03-12,Ohio,lower bound,,0.0
2021-02-28,14 day ahead inc case,2021-03-13,Ohio,point,,2356.8951467927500
2021-02-28,14 day ahead inc case bound,2021-03-13,Ohio,upper bound,,3535.3427201891300
2021-02-28,14 day ahead inc case bound,2021-03-13,Ohio,lower bound,,1178.4475733963800
2021-02-28,14 day ahead inc death,2021-03-13,Ohio,point,,0.0
2021-02-28,14 day ahead inc death bound,2021-03-13,Ohio,upper bound,,0.0
2021-02-28,14 day ahead inc death bound,2021-03-13,Ohio,lower bound,,0.0
2021-02-28,15 day ahead inc case,2021-03-14,Ohio,point,,2368.768442877220
2021-02-28,15 day ahead inc case bound,2021-03-14,Ohio,upper bound,,4737.536885754440
2021-02-28,15 day ahead inc case bound,2021-03-14,Ohio,lower bound,,0.0
2021-02-28,15 day ahead inc death,2021-03-14,Ohio,point,,0.0
2021-02-28,15 day ahead inc death bound,2021-03-14,Ohio,upper bound,,0.0
2021-02-28,15 day ahead inc death bound,2021-03-14,Ohio,lower bound,,0.0
2021-02-28,16 day ahead inc case,2021-03-15,Ohio,point,,2400.0557161745400
2021-02-28,16 day ahead inc case bound,2021-03-15,Ohio,upper bound,,4800.111432349080
2021-02-28,16 day ahead inc case bound,2021-03-15,Ohio,lower bound,,0.0
2021-02-28,16 day ahead inc death,2021-03-15,Ohio,point,,0.0
2021-02-28,16 day ahead inc death bound,2021-03-15,Ohio,upper bound,,0.0
2021-02-28,16 day ahead inc death bound,2021-03-15,Ohio,lower bound,,0.0
2021-02-28,17 day ahead inc case,2021-03-16,Ohio,point,,2396.7789493155400
2021-02-28,17 day ahead inc case bound,2021-03-16,Ohio,upper bound,,4793.5578986310900
2021-02-28,17 day ahead inc case bound,2021-03-16,Ohio,lower bound,,0.0
2021-02-28,17 day ahead inc death,2021-03-16,Ohio,point,,0.0
2021-02-28,17 day ahead inc death bound,2021-03-16,Ohio,upper bound,,0.0
2021-02-28,17 day ahead inc death bound,2021-03-16,Ohio,lower bound,,0.0
2021-02-28,18 day ahead inc case,2021-03-17,Ohio,point,,2415.4561717229700
2021-02-28,18 day ahead inc case bound,2021-03-17,Ohio,upper bound,,4830.912343445930
2021-02-28,18 day ahead inc case bound,2021-03-17,Ohio,lower bound,,0.0
2021-02-28,18 day ahead inc death,2021-03-17,Ohio,point,,0.0
2021-02-28,18 day ahead inc death bound,2021-03-17,Ohio,upper bound,,0.0
2021-02-28,18 day ahead inc death bound,2021-03-17,Ohio,lower bound,,0.0
2021-02-28,19 day ahead inc case,2021-03-18,Ohio,point,,2425.046969623070
2021-02-28,19 day ahead inc case bound,2021-03-18,Ohio,upper bound,,4850.093939246140
2021-02-28,19 day ahead inc case bound,2021-03-18,Ohio,lower bound,,0.0
2021-02-28,19 day ahead inc death,2021-03-18,Ohio,point,,0.0
2021-02-28,19 day ahead inc death bound,2021-03-18,Ohio,upper bound,,0.0
2021-02-28,19 day ahead inc death bound,2021-03-18,Ohio,lower bound,,0.0
2021-02-28,20 day ahead inc case,2021-03-19,Ohio,point,,2441.322063915550
2021-02-28,20 day ahead inc case bound,2021-03-19,Ohio,upper bound,,4882.644127831100
2021-02-28,20 day ahead inc case bound,2021-03-19,Ohio,lower bound,,0.0
2021-02-28,20 day ahead inc death,2021-03-19,Ohio,point,,0.0
2021-02-28,20 day ahead inc death bound,2021-03-19,Ohio,upper bound,,0.0
2021-02-28,20 day ahead inc death bound,2021-03-19,Ohio,lower bound,,0.0
2021-02-28,21 day ahead inc case,2021-03-20,Ohio,point,,2449.561823315800
2021-02-28,21 day ahead inc case bound,2021-03-20,Ohio,upper bound,,4899.123646631600
2021-02-28,21 day ahead inc case bound,2021-03-20,Ohio,lower bound,,0.0
2021-02-28,21 day ahead inc death,2021-03-20,Ohio,point,,0.0
2021-02-28,21 day ahead inc death bound,2021-03-20,Ohio,upper bound,,0.0
2021-02-28,21 day ahead inc death bound,2021-03-20,Ohio,lower bound,,0.0
2021-02-28,22 day ahead inc case,2021-03-21,Ohio,point,,2459.2201805859800
2021-02-28,22 day ahead inc case bound,2021-03-21,Ohio,upper bound,,4918.440361171960
2021-02-28,22 day ahead inc case bound,2021-03-21,Ohio,lower bound,,0.0
2021-02-28,22 day ahead inc death,2021-03-21,Ohio,point,,0.0
2021-02-28,22 day ahead inc death bound,2021-03-21,Ohio,upper bound,,0.0
2021-02-28,22 day ahead inc death bound,2021-03-21,Ohio,lower bound,,0.0
2021-02-28,23 day ahead inc case,2021-03-22,Ohio,point,,2475.6921016806700
2021-02-28,23 day ahead inc case bound,2021-03-22,Ohio,upper bound,,4951.384203361350
2021-02-28,23 day ahead inc case bound,2021-03-22,Ohio,lower bound,,0.0
2021-02-28,23 day ahead inc death,2021-03-22,Ohio,point,,0.0
2021-02-28,23 day ahead inc death bound,2021-03-22,Ohio,upper bound,,0.0
2021-02-28,23 day ahead inc death bound,2021-03-22,Ohio,lower bound,,0.0
2021-02-28,24 day ahead inc case,2021-03-23,Ohio,point,,2480.746019197860
2021-02-28,24 day ahead inc case bound,2021-03-23,Ohio,upper bound,,4961.492038395720
2021-02-28,24 day ahead inc case bound,2021-03-23,Ohio,lower bound,,0.0
2021-02-28,24 day ahead inc death,2021-03-23,Ohio,point,,0.0
2021-02-28,24 day ahead inc death bound,2021-03-23,Ohio,upper bound,,0.0
2021-02-28,24 day ahead inc death bound,2021-03-23,Ohio,lower bound,,0.0
2021-02-28,25 day ahead inc case,2021-03-24,Ohio,point,,2496.119019112900
2021-02-28,25 day ahead inc case bound,2021-03-24,Ohio,upper bound,,4992.238038225800
2021-02-28,25 day ahead inc case bound,2021-03-24,Ohio,lower bound,,0.0
2021-02-28,25 day ahead inc death,2021-03-24,Ohio,point,,0.0
2021-02-28,25 day ahead inc death bound,2021-03-24,Ohio,upper bound,,0.0
2021-02-28,25 day ahead inc death bound,2021-03-24,Ohio,lower bound,,0.0
2021-02-28,26 day ahead inc case,2021-03-25,Ohio,point,,2504.960477387650
2021-02-28,26 day ahead inc case bound,2021-03-25,Ohio,upper bound,,5009.920954775300
2021-02-28,26 day ahead inc case bound,2021-03-25,Ohio,lower bound,,0.0
2021-02-28,26 day ahead inc death,2021-03-25,Ohio,point,,0.0
2021-02-28,26 day ahead inc death bound,2021-03-25,Ohio,upper bound,,0.0
2021-02-28,26 day ahead inc death bound,2021-03-25,Ohio,lower bound,,0.0
2021-02-28,27 day ahead inc case,2021-03-26,Ohio,point,,2516.7438132530100
2021-02-28,27 day ahead inc case bound,2021-03-26,Ohio,upper bound,,5033.487626506020
2021-02-28,27 day ahead inc case bound,2021-03-26,Ohio,lower bound,,0.0
2021-02-28,27 day ahead inc death,2021-03-26,Ohio,point,,0.0
2021-02-28,27 day ahead inc death bound,2021-03-26,Ohio,upper bound,,0.0
2021-02-28,27 day ahead inc death bound,2021-03-26,Ohio,lower bound,,0.0
2021-02-28,28 day ahead inc case,2021-03-27,Ohio,point,,2525.52674162935
2021-02-28,28 day ahead inc case bound,2021-03-27,Ohio,upper bound,,5051.0534832587
2021-02-28,28 day ahead inc case bound,2021-03-27,Ohio,lower bound,,0.0
2021-02-28,28 day ahead inc death,2021-03-27,Ohio,point,,0.0
2021-02-28,28 day ahead inc death bound,2021-03-27,Ohio,upper bound,,0.0
2021-02-28,28 day ahead inc death bound,2021-03-27,Ohio,lower bound,,0.0
2021-02-28,1 day ahead inc case,2021-02-28,Pennsylvania,point,,2257.591857079180
2021-02-28,1 day ahead inc case bound,2021-02-28,Pennsylvania,upper bound,,3386.3877856187800
2021-02-28,1 day ahead inc case bound,2021-02-28,Pennsylvania,lower bound,,1128.7959285395900
2021-02-28,1 day ahead inc death,2021-02-28,Pennsylvania,point,,17.67096418654550
2021-02-28,1 day ahead inc death bound,2021-02-28,Pennsylvania,upper bound,,26.506446279818200
2021-02-28,1 day ahead inc death bound,2021-02-28,Pennsylvania,lower bound,,8.83548209327273
2021-02-28,2 day ahead inc case,2021-03-01,Pennsylvania,point,,2292.53918167972
2021-02-28,2 day ahead inc case bound,2021-03-01,Pennsylvania,upper bound,,3438.80877251958
2021-02-28,2 day ahead inc case bound,2021-03-01,Pennsylvania,lower bound,,1146.26959083986
2021-02-28,2 day ahead inc death,2021-03-01,Pennsylvania,point,,13.543948819413300
2021-02-28,2 day ahead inc death bound,2021-03-01,Pennsylvania,upper bound,,20.315923229120000
2021-02-28,2 day ahead inc death bound,2021-03-01,Pennsylvania,lower bound,,6.771974409706670
2021-02-28,3 day ahead inc case,2021-03-02,Pennsylvania,point,,2303.102306852580
2021-02-28,3 day ahead inc case bound,2021-03-02,Pennsylvania,upper bound,,3454.6534602788700
2021-02-28,3 day ahead inc case bound,2021-03-02,Pennsylvania,lower bound,,1151.5511534262900
2021-02-28,3 day ahead inc death,2021-03-02,Pennsylvania,point,,65.16604858636130
2021-02-28,3 day ahead inc death bound,2021-03-02,Pennsylvania,upper bound,,97.74907287954190
2021-02-28,3 day ahead inc death bound,2021-03-02,Pennsylvania,lower bound,,32.58302429318060
2021-02-28,4 day ahead inc case,2021-03-03,Pennsylvania,point,,2313.824964723430
2021-02-28,4 day ahead inc case bound,2021-03-03,Pennsylvania,upper bound,,3470.73744708515
2021-02-28,4 day ahead inc case bound,2021-03-03,Pennsylvania,lower bound,,1156.9124823617200
2021-02-28,4 day ahead inc death,2021-03-03,Pennsylvania,point,,103.33840789928900
2021-02-28,4 day ahead inc death bound,2021-03-03,Pennsylvania,upper bound,,155.0076118489340
2021-02-28,4 day ahead inc death bound,2021-03-03,Pennsylvania,lower bound,,51.669203949644700
2021-02-28,5 day ahead inc case,2021-03-04,Pennsylvania,point,,2317.641634162400
2021-02-28,5 day ahead inc case bound,2021-03-04,Pennsylvania,upper bound,,3476.4624512436000
2021-02-28,5 day ahead inc case bound,2021-03-04,Pennsylvania,lower bound,,1158.8208170812000
2021-02-28,5 day ahead inc death,2021-03-04,Pennsylvania,point,,85.80321015196020
2021-02-28,5 day ahead inc death bound,2021-03-04,Pennsylvania,upper bound,,128.70481522794000
2021-02-28,5 day ahead inc death bound,2021-03-04,Pennsylvania,lower bound,,42.901605075980100
2021-02-28,6 day ahead inc case,2021-03-05,Pennsylvania,point,,2217.2229318246200
2021-02-28,6 day ahead inc case bound,2021-03-05,Pennsylvania,upper bound,,3325.8343977369400
2021-02-28,6 day ahead inc case bound,2021-03-05,Pennsylvania,lower bound,,1108.6114659123100
2021-02-28,6 day ahead inc death,2021-03-05,Pennsylvania,point,,70.56423322309640
2021-02-28,6 day ahead inc death bound,2021-03-05,Pennsylvania,upper bound,,105.84634983464500
2021-02-28,6 day ahead inc death bound,2021-03-05,Pennsylvania,lower bound,,35.28211661154820
2021-02-28,7 day ahead inc case,2021-03-06,Pennsylvania,point,,2128.6680303189200
2021-02-28,7 day ahead inc case bound,2021-03-06,Pennsylvania,upper bound,,3193.0020454783800
2021-02-28,7 day ahead inc case bound,2021-03-06,Pennsylvania,lower bound,,1064.3340151594600
2021-02-28,7 day ahead inc death,2021-03-06,Pennsylvania,point,,56.8052159549261
2021-02-28,7 day ahead inc death bound,2021-03-06,Pennsylvania,upper bound,,85.20782393238920
2021-02-28,7 day ahead inc death bound,2021-03-06,Pennsylvania,lower bound,,28.40260797746310
2021-02-28,8 day ahead inc case,2021-03-07,Pennsylvania,point,,1995.9387971137200
2021-02-28,8 day ahead inc case bound,2021-03-07,Pennsylvania,upper bound,,2993.9081956705800
2021-02-28,8 day ahead inc case bound,2021-03-07,Pennsylvania,lower bound,,997.9693985568590
2021-02-28,8 day ahead inc death,2021-03-07,Pennsylvania,point,,16.87787675688010
2021-02-28,8 day ahead inc death bound,2021-03-07,Pennsylvania,upper bound,,25.316815135320200
2021-02-28,8 day ahead inc death bound,2021-03-07,Pennsylvania,lower bound,,8.43893837844007
2021-02-28,9 day ahead inc case,2021-03-08,Pennsylvania,point,,1991.111899940300
2021-02-28,9 day ahead inc case bound,2021-03-08,Pennsylvania,upper bound,,2986.667849910450
2021-02-28,9 day ahead inc case bound,2021-03-08,Pennsylvania,lower bound,,995.5559499701480
2021-02-28,9 day ahead inc death,2021-03-08,Pennsylvania,point,,13.672912938069200
2021-02-28,9 day ahead inc death bound,2021-03-08,Pennsylvania,upper bound,,20.509369407103800
2021-02-28,9 day ahead inc death bound,2021-03-08,Pennsylvania,lower bound,,6.8364564690346000
2021-02-28,10 day ahead inc case,2021-03-09,Pennsylvania,point,,2073.471292153120
2021-02-28,10 day ahead inc case bound,2021-03-09,Pennsylvania,upper bound,,3110.206938229680
2021-02-28,10 day ahead inc case bound,2021-03-09,Pennsylvania,lower bound,,1036.7356460765600
2021-02-28,10 day ahead inc death,2021-03-09,Pennsylvania,point,,61.79001851047720
2021-02-28,10 day ahead inc death bound,2021-03-09,Pennsylvania,upper bound,,92.68502776571590
2021-02-28,10 day ahead inc death bound,2021-03-09,Pennsylvania,lower bound,,30.89500925523860
2021-02-28,11 day ahead inc case,2021-03-10,Pennsylvania,point,,2228.8912350769400
2021-02-28,11 day ahead inc case bound,2021-03-10,Pennsylvania,upper bound,,3343.3368526154100
2021-02-28,11 day ahead inc case bound,2021-03-10,Pennsylvania,lower bound,,1114.4456175384700
2021-02-28,11 day ahead inc death,2021-03-10,Pennsylvania,point,,78.68403119230790
2021-02-28,11 day ahead inc death bound,2021-03-10,Pennsylvania,upper bound,,118.02604678846200
2021-02-28,11 day ahead inc death bound,2021-03-10,Pennsylvania,lower bound,,39.342015596153900
2021-02-28,12 day ahead inc case,2021-03-11,Pennsylvania,point,,2164.257708985240
2021-02-28,12 day ahead inc case bound,2021-03-11,Pennsylvania,upper bound,,3246.386563477860
2021-02-28,12 day ahead inc case bound,2021-03-11,Pennsylvania,lower bound,,1082.128854492620
2021-02-28,12 day ahead inc death,2021-03-11,Pennsylvania,point,,72.30692746024940
2021-02-28,12 day ahead inc death bound,2021-03-11,Pennsylvania,upper bound,,108.46039119037400
2021-02-28,12 day ahead inc death bound,2021-03-11,Pennsylvania,lower bound,,36.15346373012470
2021-02-28,13 day ahead inc case,2021-03-12,Pennsylvania,point,,2135.4249830507900
2021-02-28,13 day ahead inc case bound,2021-03-12,Pennsylvania,upper bound,,3203.137474576190
2021-02-28,13 day ahead inc case bound,2021-03-12,Pennsylvania,lower bound,,1067.7124915254000
2021-02-28,13 day ahead inc death,2021-03-12,Pennsylvania,point,,51.391695066413400
2021-02-28,13 day ahead inc death bound,2021-03-12,Pennsylvania,upper bound,,77.08754259962010
2021-02-28,13 day ahead inc death bound,2021-03-12,Pennsylvania,lower bound,,25.695847533206700
2021-02-28,14 day ahead inc case,2021-03-13,Pennsylvania,point,,2057.7420071564800
2021-02-28,14 day ahead inc case bound,2021-03-13,Pennsylvania,upper bound,,3086.613010734730
2021-02-28,14 day ahead inc case bound,2021-03-13,Pennsylvania,lower bound,,1028.8710035782400
2021-02-28,14 day ahead inc death,2021-03-13,Pennsylvania,point,,42.710137568265100
2021-02-28,14 day ahead inc death bound,2021-03-13,Pennsylvania,upper bound,,64.06520635239760
2021-02-28,14 day ahead inc death bound,2021-03-13,Pennsylvania,lower bound,,21.355068784132500
2021-02-28,15 day ahead inc case,2021-03-14,Pennsylvania,point,,2065.199925485650
2021-02-28,15 day ahead inc case bound,2021-03-14,Pennsylvania,upper bound,,4130.399850971300
2021-02-28,15 day ahead inc case bound,2021-03-14,Pennsylvania,lower bound,,0.0
2021-02-28,15 day ahead inc death,2021-03-14,Pennsylvania,point,,21.334409041304800
2021-02-28,15 day ahead inc death bound,2021-03-14,Pennsylvania,upper bound,,42.668818082609500
2021-02-28,15 day ahead inc death bound,2021-03-14,Pennsylvania,lower bound,,0.0
2021-02-28,16 day ahead inc case,2021-03-15,Pennsylvania,point,,2040.8500638132700
2021-02-28,16 day ahead inc case bound,2021-03-15,Pennsylvania,upper bound,,4081.7001276265400
2021-02-28,16 day ahead inc case bound,2021-03-15,Pennsylvania,lower bound,,0.0
2021-02-28,16 day ahead inc death,2021-03-15,Pennsylvania,point,,14.926877648667900
2021-02-28,16 day ahead inc death bound,2021-03-15,Pennsylvania,upper bound,,29.853755297335700
2021-02-28,16 day ahead inc death bound,2021-03-15,Pennsylvania,lower bound,,0.0
2021-02-28,17 day ahead inc case,2021-03-16,Pennsylvania,point,,2096.7915569633500
2021-02-28,17 day ahead inc case bound,2021-03-16,Pennsylvania,upper bound,,4193.583113926700
2021-02-28,17 day ahead inc case bound,2021-03-16,Pennsylvania,lower bound,,0.0
2021-02-28,17 day ahead inc death,2021-03-16,Pennsylvania,point,,46.56378381308240
2021-02-28,17 day ahead inc death bound,2021-03-16,Pennsylvania,upper bound,,93.12756762616480
2021-02-28,17 day ahead inc death bound,2021-03-16,Pennsylvania,lower bound,,0.0
2021-02-28,18 day ahead inc case,2021-03-17,Pennsylvania,point,,2182.370475735750
2021-02-28,18 day ahead inc case bound,2021-03-17,Pennsylvania,upper bound,,4364.740951471500
2021-02-28,18 day ahead inc case bound,2021-03-17,Pennsylvania,lower bound,,0.0
2021-02-28,18 day ahead inc death,2021-03-17,Pennsylvania,point,,82.35538846125560
2021-02-28,18 day ahead inc death bound,2021-03-17,Pennsylvania,upper bound,,164.71077692251100
2021-02-28,18 day ahead inc death bound,2021-03-17,Pennsylvania,lower bound,,0.0
2021-02-28,19 day ahead inc case,2021-03-18,Pennsylvania,point,,2154.5056495476700
2021-02-28,19 day ahead inc case bound,2021-03-18,Pennsylvania,upper bound,,4309.011299095350
2021-02-28,19 day ahead inc case bound,2021-03-18,Pennsylvania,lower bound,,0.0
2021-02-28,19 day ahead inc death,2021-03-18,Pennsylvania,point,,71.7172846002577
2021-02-28,19 day ahead inc death bound,2021-03-18,Pennsylvania,upper bound,,143.4345692005150
2021-02-28,19 day ahead inc death bound,2021-03-18,Pennsylvania,lower bound,,0.0
2021-02-28,20 day ahead inc case,2021-03-19,Pennsylvania,point,,2147.10761343129
2021-02-28,20 day ahead inc case bound,2021-03-19,Pennsylvania,upper bound,,4294.21522686258
2021-02-28,20 day ahead inc case bound,2021-03-19,Pennsylvania,lower bound,,0.0
2021-02-28,20 day ahead inc death,2021-03-19,Pennsylvania,point,,52.99312736052520
2021-02-28,20 day ahead inc death bound,2021-03-19,Pennsylvania,upper bound,,105.98625472105000
2021-02-28,20 day ahead inc death bound,2021-03-19,Pennsylvania,lower bound,,0.0
2021-02-28,21 day ahead inc case,2021-03-20,Pennsylvania,point,,2116.9414164839500
2021-02-28,21 day ahead inc case bound,2021-03-20,Pennsylvania,upper bound,,4233.882832967910
2021-02-28,21 day ahead inc case bound,2021-03-20,Pennsylvania,lower bound,,0.0
2021-02-28,21 day ahead inc death,2021-03-20,Pennsylvania,point,,37.56184494930490
2021-02-28,21 day ahead inc death bound,2021-03-20,Pennsylvania,upper bound,,75.12368989860990
2021-02-28,21 day ahead inc death bound,2021-03-20,Pennsylvania,lower bound,,0.0
2021-02-28,22 day ahead inc case,2021-03-21,Pennsylvania,point,,2123.4229328602100
2021-02-28,22 day ahead inc case bound,2021-03-21,Pennsylvania,upper bound,,4246.845865720420
2021-02-28,22 day ahead inc case bound,2021-03-21,Pennsylvania,lower bound,,0.0
2021-02-28,22 day ahead inc death,2021-03-21,Pennsylvania,point,,20.812885730527300
2021-02-28,22 day ahead inc death bound,2021-03-21,Pennsylvania,upper bound,,41.625771461054700
2021-02-28,22 day ahead inc death bound,2021-03-21,Pennsylvania,lower bound,,0.0
2021-02-28,23 day ahead inc case,2021-03-22,Pennsylvania,point,,2153.7681356772100
2021-02-28,23 day ahead inc case bound,2021-03-22,Pennsylvania,upper bound,,4307.5362713544200
2021-02-28,23 day ahead inc case bound,2021-03-22,Pennsylvania,lower bound,,0.0
2021-02-28,23 day ahead inc death,2021-03-22,Pennsylvania,point,,23.75961837768050
2021-02-28,23 day ahead inc death bound,2021-03-22,Pennsylvania,upper bound,,47.51923675536090
2021-02-28,23 day ahead inc death bound,2021-03-22,Pennsylvania,lower bound,,0.0
2021-02-28,24 day ahead inc case,2021-03-23,Pennsylvania,point,,2217.8659039574000
2021-02-28,24 day ahead inc case bound,2021-03-23,Pennsylvania,upper bound,,4435.731807914800
2021-02-28,24 day ahead inc case bound,2021-03-23,Pennsylvania,lower bound,,0.0
2021-02-28,24 day ahead inc death,2021-03-23,Pennsylvania,point,,43.087370637345900
2021-02-28,24 day ahead inc death bound,2021-03-23,Pennsylvania,upper bound,,86.17474127469180
2021-02-28,24 day ahead inc death bound,2021-03-23,Pennsylvania,lower bound,,0.0
2021-02-28,25 day ahead inc case,2021-03-24,Pennsylvania,point,,2279.795488943350
2021-02-28,25 day ahead inc case bound,2021-03-24,Pennsylvania,upper bound,,4559.590977886690
2021-02-28,25 day ahead inc case bound,2021-03-24,Pennsylvania,lower bound,,0.0
2021-02-28,25 day ahead inc death,2021-03-24,Pennsylvania,point,,65.04439738679140
2021-02-28,25 day ahead inc death bound,2021-03-24,Pennsylvania,upper bound,,130.08879477358300
2021-02-28,25 day ahead inc death bound,2021-03-24,Pennsylvania,lower bound,,0.0
2021-02-28,26 day ahead inc case,2021-03-25,Pennsylvania,point,,2308.880897999970
2021-02-28,26 day ahead inc case bound,2021-03-25,Pennsylvania,upper bound,,4617.761795999950
2021-02-28,26 day ahead inc case bound,2021-03-25,Pennsylvania,lower bound,,0.0
2021-02-28,26 day ahead inc death,2021-03-25,Pennsylvania,point,,63.84230936508900
2021-02-28,26 day ahead inc death bound,2021-03-25,Pennsylvania,upper bound,,127.68461873017800
2021-02-28,26 day ahead inc death bound,2021-03-25,Pennsylvania,lower bound,,0.0
2021-02-28,27 day ahead inc case,2021-03-26,Pennsylvania,point,,2281.020579103610
2021-02-28,27 day ahead inc case bound,2021-03-26,Pennsylvania,upper bound,,4562.041158207230
2021-02-28,27 day ahead inc case bound,2021-03-26,Pennsylvania,lower bound,,0.0
2021-02-28,27 day ahead inc death,2021-03-26,Pennsylvania,point,,47.94291694593990
2021-02-28,27 day ahead inc death bound,2021-03-26,Pennsylvania,upper bound,,95.88583389187990
2021-02-28,27 day ahead inc death bound,2021-03-26,Pennsylvania,lower bound,,0.0
2021-02-28,28 day ahead inc case,2021-03-27,Pennsylvania,point,,2250.2658262280700
2021-02-28,28 day ahead inc case bound,2021-03-27,Pennsylvania,upper bound,,4500.5316524561500
2021-02-28,28 day ahead inc case bound,2021-03-27,Pennsylvania,lower bound,,0.0
2021-02-28,28 day ahead inc death,2021-03-27,Pennsylvania,point,,33.53057980391170
2021-02-28,28 day ahead inc death bound,2021-03-27,Pennsylvania,upper bound,,67.06115960782340
2021-02-28,28 day ahead inc death bound,2021-03-27,Pennsylvania,lower bound,,0.0
2021-02-28,1 day ahead inc case,2021-02-28,Wisconsin,point,,796.0367932326630
2021-02-28,1 day ahead inc case bound,2021-02-28,Wisconsin,upper bound,,1194.055189848990
2021-02-28,1 day ahead inc case bound,2021-02-28,Wisconsin,lower bound,,398.0183966163310
2021-02-28,1 day ahead inc death,2021-02-28,Wisconsin,point,,5.531303372344160
2021-02-28,1 day ahead inc death bound,2021-02-28,Wisconsin,upper bound,,8.296955058516230
2021-02-28,1 day ahead inc death bound,2021-02-28,Wisconsin,lower bound,,2.765651686172080
2021-02-28,2 day ahead inc case,2021-03-01,Wisconsin,point,,767.849827490514
2021-02-28,2 day ahead inc case bound,2021-03-01,Wisconsin,upper bound,,1151.7747412357700
2021-02-28,2 day ahead inc case bound,2021-03-01,Wisconsin,lower bound,,383.92491374525700
2021-02-28,2 day ahead inc death,2021-03-01,Wisconsin,point,,10.888847102766700
2021-02-28,2 day ahead inc death bound,2021-03-01,Wisconsin,upper bound,,16.333270654150100
2021-02-28,2 day ahead inc death bound,2021-03-01,Wisconsin,lower bound,,5.444423551383350
2021-02-28,3 day ahead inc case,2021-03-02,Wisconsin,point,,821.111541323131
2021-02-28,3 day ahead inc case bound,2021-03-02,Wisconsin,upper bound,,1231.6673119847000
2021-02-28,3 day ahead inc case bound,2021-03-02,Wisconsin,lower bound,,410.5557706615660
2021-02-28,3 day ahead inc death,2021-03-02,Wisconsin,point,,26.57110290498620
2021-02-28,3 day ahead inc death bound,2021-03-02,Wisconsin,upper bound,,39.85665435747930
2021-02-28,3 day ahead inc death bound,2021-03-02,Wisconsin,lower bound,,13.28555145249310
2021-02-28,4 day ahead inc case,2021-03-03,Wisconsin,point,,843.8057299805800
2021-02-28,4 day ahead inc case bound,2021-03-03,Wisconsin,upper bound,,1265.7085949708700
2021-02-28,4 day ahead inc case bound,2021-03-03,Wisconsin,lower bound,,421.9028649902900
2021-02-28,4 day ahead inc death,2021-03-03,Wisconsin,point,,20.365841020366100
2021-02-28,4 day ahead inc death bound,2021-03-03,Wisconsin,upper bound,,30.548761530549200
2021-02-28,4 day ahead inc death bound,2021-03-03,Wisconsin,lower bound,,10.182920510183100
2021-02-28,5 day ahead inc case,2021-03-04,Wisconsin,point,,863.0272260420020
2021-02-28,5 day ahead inc case bound,2021-03-04,Wisconsin,upper bound,,1294.5408390630000
2021-02-28,5 day ahead inc case bound,2021-03-04,Wisconsin,lower bound,,431.5136130210010
2021-02-28,5 day ahead inc death,2021-03-04,Wisconsin,point,,22.17952144686020
2021-02-28,5 day ahead inc death bound,2021-03-04,Wisconsin,upper bound,,33.26928217029040
2021-02-28,5 day ahead inc death bound,2021-03-04,Wisconsin,lower bound,,11.089760723430100
2021-02-28,6 day ahead inc case,2021-03-05,Wisconsin,point,,804.8039731575410
2021-02-28,6 day ahead inc case bound,2021-03-05,Wisconsin,upper bound,,1207.2059597363100
2021-02-28,6 day ahead inc case bound,2021-03-05,Wisconsin,lower bound,,402.4019865787710
2021-02-28,6 day ahead inc death,2021-03-05,Wisconsin,point,,22.373428438047100
2021-02-28,6 day ahead inc death bound,2021-03-05,Wisconsin,upper bound,,33.56014265707060
2021-02-28,6 day ahead inc death bound,2021-03-05,Wisconsin,lower bound,,11.186714219023500
2021-02-28,7 day ahead inc case,2021-03-06,Wisconsin,point,,754.0778240687210
2021-02-28,7 day ahead inc case bound,2021-03-06,Wisconsin,upper bound,,1131.116736103080
2021-02-28,7 day ahead inc case bound,2021-03-06,Wisconsin,lower bound,,377.03891203436100
2021-02-28,7 day ahead inc death,2021-03-06,Wisconsin,point,,19.05519769140120
2021-02-28,7 day ahead inc death bound,2021-03-06,Wisconsin,upper bound,,28.582796537101800
2021-02-28,7 day ahead inc death bound,2021-03-06,Wisconsin,lower bound,,9.527598845700600
2021-02-28,8 day ahead inc case,2021-03-07,Wisconsin,point,,721.8338119311960
2021-02-28,8 day ahead inc case bound,2021-03-07,Wisconsin,upper bound,,1082.7507178967900
2021-02-28,8 day ahead inc case bound,2021-03-07,Wisconsin,lower bound,,360.9169059655980
2021-02-28,8 day ahead inc death,2021-03-07,Wisconsin,point,,8.502150725466890
2021-02-28,8 day ahead inc death bound,2021-03-07,Wisconsin,upper bound,,12.753226088200300
2021-02-28,8 day ahead inc death bound,2021-03-07,Wisconsin,lower bound,,4.251075362733440
2021-02-28,9 day ahead inc case,2021-03-08,Wisconsin,point,,707.1090989644870
2021-02-28,9 day ahead inc case bound,2021-03-08,Wisconsin,upper bound,,1060.6636484467300
2021-02-28,9 day ahead inc case bound,2021-03-08,Wisconsin,lower bound,,353.55454948224400
2021-02-28,9 day ahead inc death,2021-03-08,Wisconsin,point,,10.774235934333800
2021-02-28,9 day ahead inc death bound,2021-03-08,Wisconsin,upper bound,,16.161353901500700
2021-02-28,9 day ahead inc death bound,2021-03-08,Wisconsin,lower bound,,5.387117967166890
2021-02-28,10 day ahead inc case,2021-03-09,Wisconsin,point,,744.4734849999660
2021-02-28,10 day ahead inc case bound,2021-03-09,Wisconsin,upper bound,,1116.7102274999500
2021-02-28,10 day ahead inc case bound,2021-03-09,Wisconsin,lower bound,,372.23674249998300
2021-02-28,10 day ahead inc death,2021-03-09,Wisconsin,point,,24.63910479029160
2021-02-28,10 day ahead inc death bound,2021-03-09,Wisconsin,upper bound,,36.95865718543750
2021-02-28,10 day ahead inc death bound,2021-03-09,Wisconsin,lower bound,,12.31955239514580
2021-02-28,11 day ahead inc case,2021-03-10,Wisconsin,point,,748.5723925925560
2021-02-28,11 day ahead inc case bound,2021-03-10,Wisconsin,upper bound,,1122.8585888888300
2021-02-28,11 day ahead inc case bound,2021-03-10,Wisconsin,lower bound,,374.28619629627800
2021-02-28,11 day ahead inc death,2021-03-10,Wisconsin,point,,20.701686465563400
2021-02-28,11 day ahead inc death bound,2021-03-10,Wisconsin,upper bound,,31.052529698345100
2021-02-28,11 day ahead inc death bound,2021-03-10,Wisconsin,lower bound,,10.350843232781700
2021-02-28,12 day ahead inc case,2021-03-11,Wisconsin,point,,759.0540550611910
2021-02-28,12 day ahead inc case bound,2021-03-11,Wisconsin,upper bound,,1138.581082591790
2021-02-28,12 day ahead inc case bound,2021-03-11,Wisconsin,lower bound,,379.5270275305960
2021-02-28,12 day ahead inc death,2021-03-11,Wisconsin,point,,22.950745098054500
2021-02-28,12 day ahead inc death bound,2021-03-11,Wisconsin,upper bound,,34.42611764708180
2021-02-28,12 day ahead inc death bound,2021-03-11,Wisconsin,lower bound,,11.475372549027300
2021-02-28,13 day ahead inc case,2021-03-12,Wisconsin,point,,716.6791759931950
2021-02-28,13 day ahead inc case bound,2021-03-12,Wisconsin,upper bound,,1075.0187639897900
2021-02-28,13 day ahead inc case bound,2021-03-12,Wisconsin,lower bound,,358.33958799659700
2021-02-28,13 day ahead inc death,2021-03-12,Wisconsin,point,,18.885703470162300
2021-02-28,13 day ahead inc death bound,2021-03-12,Wisconsin,upper bound,,28.32855520524350
2021-02-28,13 day ahead inc death bound,2021-03-12,Wisconsin,lower bound,,9.442851735081150
2021-02-28,14 day ahead inc case,2021-03-13,Wisconsin,point,,670.6303951295560
2021-02-28,14 day ahead inc case bound,2021-03-13,Wisconsin,upper bound,,1005.9455926943300
2021-02-28,14 day ahead inc case bound,2021-03-13,Wisconsin,lower bound,,335.31519756477800
2021-02-28,14 day ahead inc death,2021-03-13,Wisconsin,point,,15.149726774372500
2021-02-28,14 day ahead inc death bound,2021-03-13,Wisconsin,upper bound,,22.724590161558800
2021-02-28,14 day ahead inc death bound,2021-03-13,Wisconsin,lower bound,,7.5748633871862700
2021-02-28,15 day ahead inc case,2021-03-14,Wisconsin,point,,649.0894379062810
2021-02-28,15 day ahead inc case bound,2021-03-14,Wisconsin,upper bound,,1298.1788758125600
2021-02-28,15 day ahead inc case bound,2021-03-14,Wisconsin,lower bound,,0.0
2021-02-28,15 day ahead inc death,2021-03-14,Wisconsin,point,,8.890911261660220
2021-02-28,15 day ahead inc death bound,2021-03-14,Wisconsin,upper bound,,17.781822523320400
2021-02-28,15 day ahead inc death bound,2021-03-14,Wisconsin,lower bound,,0.0
2021-02-28,16 day ahead inc case,2021-03-15,Wisconsin,point,,644.2364242752080
2021-02-28,16 day ahead inc case bound,2021-03-15,Wisconsin,upper bound,,1288.4728485504200
2021-02-28,16 day ahead inc case bound,2021-03-15,Wisconsin,lower bound,,0.0
2021-02-28,16 day ahead inc death,2021-03-15,Wisconsin,point,,12.775513612111400
2021-02-28,16 day ahead inc death bound,2021-03-15,Wisconsin,upper bound,,25.55102722422270
2021-02-28,16 day ahead inc death bound,2021-03-15,Wisconsin,lower bound,,0.0
2021-02-28,17 day ahead inc case,2021-03-16,Wisconsin,point,,674.0147598123880
2021-02-28,17 day ahead inc case bound,2021-03-16,Wisconsin,upper bound,,1348.0295196247800
2021-02-28,17 day ahead inc case bound,2021-03-16,Wisconsin,lower bound,,0.0
2021-02-28,17 day ahead inc death,2021-03-16,Wisconsin,point,,23.632423457930600
2021-02-28,17 day ahead inc death bound,2021-03-16,Wisconsin,upper bound,,47.264846915861200
2021-02-28,17 day ahead inc death bound,2021-03-16,Wisconsin,lower bound,,0.0
2021-02-28,18 day ahead inc case,2021-03-17,Wisconsin,point,,678.0262423055250
2021-02-28,18 day ahead inc case bound,2021-03-17,Wisconsin,upper bound,,1356.0524846110500
2021-02-28,18 day ahead inc case bound,2021-03-17,Wisconsin,lower bound,,0.0
2021-02-28,18 day ahead inc death,2021-03-17,Wisconsin,point,,18.641730313288500
2021-02-28,18 day ahead inc death bound,2021-03-17,Wisconsin,upper bound,,37.28346062657690
2021-02-28,18 day ahead inc death bound,2021-03-17,Wisconsin,lower bound,,0.0
2021-02-28,19 day ahead inc case,2021-03-18,Wisconsin,point,,682.6350284832300
2021-02-28,19 day ahead inc case bound,2021-03-18,Wisconsin,upper bound,,1365.2700569664600
2021-02-28,19 day ahead inc case bound,2021-03-18,Wisconsin,lower bound,,0.0
2021-02-28,19 day ahead inc death,2021-03-18,Wisconsin,point,,18.06178082831960
2021-02-28,19 day ahead inc death bound,2021-03-18,Wisconsin,upper bound,,36.12356165663910
2021-02-28,19 day ahead inc death bound,2021-03-18,Wisconsin,lower bound,,0.0
2021-02-28,20 day ahead inc case,2021-03-19,Wisconsin,point,,658.0954685569740
2021-02-28,20 day ahead inc case bound,2021-03-19,Wisconsin,upper bound,,1316.1909371139500
2021-02-28,20 day ahead inc case bound,2021-03-19,Wisconsin,lower bound,,0.0
2021-02-28,20 day ahead inc death,2021-03-19,Wisconsin,point,,15.544493751932300
2021-02-28,20 day ahead inc death bound,2021-03-19,Wisconsin,upper bound,,31.088987503864700
2021-02-28,20 day ahead inc death bound,2021-03-19,Wisconsin,lower bound,,0.0
2021-02-28,21 day ahead inc case,2021-03-20,Wisconsin,point,,640.8862820218780
2021-02-28,21 day ahead inc case bound,2021-03-20,Wisconsin,upper bound,,1281.7725640437600
2021-02-28,21 day ahead inc case bound,2021-03-20,Wisconsin,lower bound,,0.0
2021-02-28,21 day ahead inc death,2021-03-20,Wisconsin,point,,15.263681623479000
2021-02-28,21 day ahead inc death bound,2021-03-20,Wisconsin,upper bound,,30.527363246958000
2021-02-28,21 day ahead inc death bound,2021-03-20,Wisconsin,lower bound,,0.0
2021-02-28,22 day ahead inc case,2021-03-21,Wisconsin,point,,623.3669882253740
2021-02-28,22 day ahead inc case bound,2021-03-21,Wisconsin,upper bound,,1246.7339764507500
2021-02-28,22 day ahead inc case bound,2021-03-21,Wisconsin,lower bound,,0.0
2021-02-28,22 day ahead inc death,2021-03-21,Wisconsin,point,,8.867707986172720
2021-02-28,22 day ahead inc death bound,2021-03-21,Wisconsin,upper bound,,17.735415972345400
2021-02-28,22 day ahead inc death bound,2021-03-21,Wisconsin,lower bound,,0.0
2021-02-28,23 day ahead inc case,2021-03-22,Wisconsin,point,,618.8321848186900
2021-02-28,23 day ahead inc case bound,2021-03-22,Wisconsin,upper bound,,1237.6643696373800
2021-02-28,23 day ahead inc case bound,2021-03-22,Wisconsin,lower bound,,0.0
2021-02-28,23 day ahead inc death,2021-03-22,Wisconsin,point,,11.553467515552300
2021-02-28,23 day ahead inc death bound,2021-03-22,Wisconsin,upper bound,,23.106935031104500
2021-02-28,23 day ahead inc death bound,2021-03-22,Wisconsin,lower bound,,0.0
2021-02-28,24 day ahead inc case,2021-03-23,Wisconsin,point,,643.1814676127400
2021-02-28,24 day ahead inc case bound,2021-03-23,Wisconsin,upper bound,,1286.3629352254800
2021-02-28,24 day ahead inc case bound,2021-03-23,Wisconsin,lower bound,,0.0
2021-02-28,24 day ahead inc death,2021-03-23,Wisconsin,point,,18.67027780380430
2021-02-28,24 day ahead inc death bound,2021-03-23,Wisconsin,upper bound,,37.34055560760860
2021-02-28,24 day ahead inc death bound,2021-03-23,Wisconsin,lower bound,,0.0
2021-02-28,25 day ahead inc case,2021-03-24,Wisconsin,point,,650.2476117473560
2021-02-28,25 day ahead inc case bound,2021-03-24,Wisconsin,upper bound,,1300.4952234947100
2021-02-28,25 day ahead inc case bound,2021-03-24,Wisconsin,lower bound,,0.0
2021-02-28,25 day ahead inc death,2021-03-24,Wisconsin,point,,16.79894711912580
2021-02-28,25 day ahead inc death bound,2021-03-24,Wisconsin,upper bound,,33.59789423825170
2021-02-28,25 day ahead inc death bound,2021-03-24,Wisconsin,lower bound,,0.0
2021-02-28,26 day ahead inc case,2021-03-25,Wisconsin,point,,656.5344518197240
2021-02-28,26 day ahead inc case bound,2021-03-25,Wisconsin,upper bound,,1313.068903639450
2021-02-28,26 day ahead inc case bound,2021-03-25,Wisconsin,lower bound,,0.0
2021-02-28,26 day ahead inc death,2021-03-25,Wisconsin,point,,19.268202165269900
2021-02-28,26 day ahead inc death bound,2021-03-25,Wisconsin,upper bound,,38.53640433053990
2021-02-28,26 day ahead inc death bound,2021-03-25,Wisconsin,lower bound,,0.0
2021-02-28,27 day ahead inc case,2021-03-26,Wisconsin,point,,641.8636146085340
2021-02-28,27 day ahead inc case bound,2021-03-26,Wisconsin,upper bound,,1283.7272292170700
2021-02-28,27 day ahead inc case bound,2021-03-26,Wisconsin,lower bound,,0.0
2021-02-28,27 day ahead inc death,2021-03-26,Wisconsin,point,,16.927972157142000
2021-02-28,27 day ahead inc death bound,2021-03-26,Wisconsin,upper bound,,33.85594431428400
2021-02-28,27 day ahead inc death bound,2021-03-26,Wisconsin,lower bound,,0.0
2021-02-28,28 day ahead inc case,2021-03-27,Wisconsin,point,,629.6880495266520
2021-02-28,28 day ahead inc case bound,2021-03-27,Wisconsin,upper bound,,1259.3760990533000
2021-02-28,28 day ahead inc case bound,2021-03-27,Wisconsin,lower bound,,0.0
2021-02-28,28 day ahead inc death,2021-03-27,Wisconsin,point,,13.884975631818600
2021-02-28,28 day ahead inc death bound,2021-03-27,Wisconsin,upper bound,,27.76995126363730
2021-02-28,28 day ahead inc death bound,2021-03-27,Wisconsin,lower bound,,0.0