,training_days,cumulative_truth_baseline_conf,1wk_ahead_cumulative_preds_conf,2wk_ahead_cumulative_preds_conf,3wk_ahead_cumulative_preds_conf,4wk_ahead_cumulative_preds_conf,cumulative_truth_baseline_death,1wk_ahead_cumulative_preds_death,2wk_ahead_cumulative_preds_death,3wk_ahead_cumulative_preds_death,4wk_ahead_cumulative_preds_death
0,160,24901279,26193257.204022124,27352627.375195168,28186587.368355956,28693338.576698374,421374,442612.71094125183,466724.58621231135,489480.9379569691,504638.5600228012
1,170,26380978,27316569.176157035,27956758.664341867,28396533.578254938,28775299.216449246,450781,473907.98214536806,492627.7151736,506941.56697463297,518602.35164025554
2,153,23634087,25574915.177008525,27044855.265477974,28388545.374595076,29394425.626479816,399462,422463.9178835468,445194.7978796486,471093.45144091384,496274.62336691894
3,173,26741846,27724430.879010327,28350127.521303546,28781321.083972123,29213060.346437424,461850,483493.3193533403,500613.6575722712,513144.845468685,526640.1618230669
4,179,27350956,27995487.744367838,28465263.575859245,28880268.461844884,29183302.178633578,477387,495589.59014063404,508655.2620242805,521853.20629751857,533101.6490598778
5,157,24333648,25510040.37114715,26738279.574121997,27761086.18451549,28329611.19946074,408982,427861.80885388434,452307.6796815341,477958.97203568096,496418.015177575
6,145,21714268,23546804.63012723,25271960.732875265,26671779.196567222,28089232.394183405,371616,390432.5484841838,414089.92405614007,434211.6157904236,459187.0645330828
7,168,26133786,27348536.81104181,28148351.314947277,28640558.1465363,29064488.05543873,446910,469878.42084680137,491226.803112141,506866.70340868767,518993.6602291702
8,124,17322739,18964863.25314785,20555164.833866034,22011310.595256224,23777626.089615352,315394,336160.8346329901,358496.9362830664,378372.55040106777,400976.0466991778
9,162,25202932,26357695.985260762,27392248.641848233,28081750.590543866,28529027.770366147,426591,449158.7121186895,472588.6937784302,492533.1757503811,507268.208603378
10,182,27643381,28292559.575230718,28744962.81352834,29123980.934562333,29430566.400860522,485636,502506.2425068346,514757.08044615545,527284.44282525,537362.4477370825
11,149,22698422,24206443.31063535,25588316.07090292,26824288.053293522,27916828.109795798,383114,405618.2359754229,427376.76351987314,450289.2465142484,475140.59585215227
12,121,16626313,18047655.205806576,19479327.606061734,20734783.200271152,22220219.755039293,305112,324143.5300661189,347147.3847205255,364808.04561586154,384742.22095747775
13,130,18581041,20074102.22881373,21250582.73739778,22655269.037223794,24104841.78476452,331442,353827.9885495124,373126.67636910756,393373.4733124576,417960.38825084607
14,150,22925376,24530564.64218803,25886596.216107473,27197775.235753458,28305580.661722425,387584,409725.70186078595,430381.5959904544,454760.77661059017,479265.4822690157
15,146,22007515,23986864.244652674,25725319.195208434,27139246.022710145,28565141.877561778,375704,396481.1054072826,420235.62436223833,441763.3048033147,467745.85121930955
16,123,17083061,18360115.976558324,19713355.988287583,20897061.544478033,22358627.2643954,311931,331393.1047033455,353511.6317241554,370906.75093756715,389964.63341622613
17,118,16027412,17762289.59013034,19559014.15754273,21131001.54161126,22811526.2814484,299374,317518.673560631,339548.2341375325,360188.0837111954,382003.0849409
18,100,12534661,14044386.812747676,15552538.751872675,17439750.736441623,19568859.05162981,259800,272976.55115658283,287076.7685330008,306673.644989644,329174.1120622062
19,181,27556262,28277299.862744596,28763714.446037512,29181907.86165186,29505968.448502958,483460,500724.8203526549,513535.3075387663,526457.6892183394,536876.6071796311
20,139,20252310,21831480.226821452,23548501.316834107,25109152.867592923,26350015.80762091,354009,373801.1167122854,394310.7449240555,416263.7992179215,435519.7550077571
21,117,15787436,17387220.49330152,19090534.55009647,20736752.70884259,22261416.929465413,295959,312647.8461881265,334746.034289464,355795.11896672304,375833.4870322383
22,105,13369505,14582089.348164208,15819177.52470848,17154012.27352822,18427618.62235804,268481,281354.72623742314,297736.9159918359,315195.56571663526,333584.3995219704
23,167,25991464,26983462.900142618,27750265.153497327,28185978.368419494,28550544.421977285,444152,466427.42210375814,487785.8405423897,502884.76665996405,514425.99889224855
24,135,19429410,20333109.84661974,21496611.192535758,22794222.169115093,23778450.603158336,341059,358670.236398828,374668.8610764736,394577.82135297556,410434.3334909976
25,127,17954314,19422544.169668116,20684651.107299026,22082249.54732635,23598294.009862877,322695,346034.476655718,365675.4069711014,387779.2018895138,413239.29974971904
26,133,19099125,19865140.00925529,20792150.308771286,21894810.515274554,22729728.42670091,337629,353572.7120211996,370572.83795761527,389008.0282790222,405757.73453446705
27,147,22270172,24176788.50366924,25781365.639142312,27138158.151667442,28465021.064629935,379030,402399.42682661826,425039.2975850719,447040.8228773783,473693.77038522856
28,113,14914034,16415112.029264139,18039367.49979381,19708158.39887847,21160623.601953313,285550,301083.33498831186,321402.2883850104,342730.94811186846,360874.1634634883
29,115,15333385,16763453.024642609,18326455.426123597,19924730.021968078,21281547.896245535,289790,304526.0842310243,326130.3864770274,346781.0542727295,364527.8152695782
30,110,14284692,15761385.776446264,17607847.925343353,19521976.471900515,21319224.565273713,279177,293555.3525050543,311842.9035604375,333170.25008535385,355582.90974796825
31,178,27255817,27967833.698631167,28466211.116600454,28893846.953982584,29222136.65242552,474073,492962.841953035,506895.14057685016,519461.0912157592,531760.8027511744
32,103,13005788,14512423.659436295,16021390.414090026,17839682.819596115,19703834.063473973,265574,279643.7962902771,295737.4608970854,315189.02329713653,337908.92528357974
33,125,17574674,19441856.01244361,21014853.008910257,22686752.432138164,24777429.520904228,318334,340252.3333951287,361143.27436677885,382967.25942082395,409275.8311488484
34,109,14061082,15152886.198074196,16541959.760841168,17952568.24025849,19364451.374829322,276227,289549.0962268243,306353.0674278174,324824.5065948469,343909.4381571601
35,165,25655710,26906519.283993147,28015648.467961177,28551812.47831859,28889729.702350065,436530,459155.77716059214,482723.8220824805,500427.0675199604,513697.50999222347
36,164,25502471,26664522.87608063,27766403.841269433,28366710.236455545,28611537.489574645,432585,454478.6843437584,478089.48389242496,496668.0996694477,509982.00325037824
37,152,23391339,25075542.166844167,26452395.66614446,27756820.645129036,28755314.8004739,395572,417951.36278585886,439226.2278158121,463983.9402248963,489195.23187581485
38,119,16244797,18020983.7792184,19794073.410142213,21406173.33082258,23173761.80835703,301831,321295.82304649125,344237.5518869824,364459.0760229142,387705.2766740187
39,177,27160197,27749819.651556425,28187748.57566119,28568856.169913728,28872468.423226014,471008,490136.55752725434,504494.8695751618,516114.37571332575,528344.2380002255
40,163,25354901,26321693.308754187,27272747.132609792,27873417.65851872,28252353.085901093,428559,450405.9372985364,473612.7194102032,492129.09561366244,505946.4905313772
41,142,20945766,22323568.81667905,24012926.16088775,25419187.85083324,26591085.023759063,360043,377075.67435666104,398558.66991568217,417303.21572853584,439533.58519171557
42,174,26876208,27909741.481025837,28542864.4789438,29004269.116833426,29447205.669634506,465465,486604.6125983944,503310.92538112454,515991.8290200103,529360.3273488982
43,112,14733023,16405809.570312638,18240006.093830917,20063831.382981427,21714313.237346876,284200,300306.2406777327,320152.4074757849,342430.41623535077,363005.223070416
44,140,20552726,21901482.245506022,23520335.67144016,24987560.68721164,26147518.439252317,356508,374010.6233303601,395036.4008694091,415952.5203514694,435249.311916877
45,108,13858527,14786516.593863627,15894364.758673588,16909918.42185449,17912941.881627828,273408,285621.47100970667,301309.2081935442,317744.65517462755,334634.97787495324
46,156,24156910,25494706.922872797,26836667.08681918,28014391.071442164,28639510.835163664,406254,427377.6763242047,450867.80024190573,477462.8516466346,497611.3246988427
47,131,18775207,20343374.967808146,21599941.001853157,23080596.996290755,24554240.938274074,334351,356652.01735093066,376182.1608962486,396830.3844845274,421265.31843102083
48,129,18351480,19902608.765415967,21121957.16174995,22550007.412722107,24054456.519885942,328024,350098.79262218555,369264.0133379363,389490.1093398153,414528.6317260081
49,171,26496311,27541595.185133334,28209103.76753436,28658286.510493472,29076137.855429024,454246,477461.05473420245,495856.8643466355,509510.1732727813,522173.77117638744
50,107,13670310,14501459.010529578,15269118.47159481,15915779.515010078,16413372.388643267,270863,283596.7000038031,297421.2998447842,312449.19516504375,325936.2436553355
51,172,26617922,27672719.378219284,28330964.82220833,28787886.681980707,29221561.47655357,458117,480561.98010802903,498498.6900075552,511736.88234283234,525431.4951475464
52,132,18872822,20404744.136268813,21674935.52577954,23242980.320774958,24620489.04220599,335750,356844.67788798717,376385.897468673,397813.89024043357,420556.4690394506
53,175,26980195,27953928.10305426,28557403.164698757,29009077.5067613,29423498.45239861,468055,488999.2361067202,505103.1851344661,517278.75408484467,530536.9290257269
54,180,27456653,28058798.73864301,28489816.751307618,28885253.888255827,29173493.59830241,480557,498163.30665973184,510540.17583385395,523494.443536836,533867.4527054183
55,106,13509740,14393988.279093882,15205783.2900769,15812335.824064652,16285031.266315224,269517,281779.96135133156,296808.70556539175,311600.69441876374,325463.95326966175
56,169,26245805,27439322.71618846,28202446.582564875,28683762.945737675,29114046.40668205,448743,471983.1637197539,492377.4954378707,507863.9199209931,520102.9508375807
57,154,23835726,25524489.638986304,26948106.591546845,28254556.43063687,29099942.27066942,402884,426594.0569851935,449271.39682551945,474141.36964937765,497473.2037142641
58,116,15555920,17022468.29771677,18636645.30811654,20246745.737984747,21629491.009463076,292967,308440.9764546418,330057.77179822954,351058.20469571004,368811.5657361894
59,155,24013519,25311234.55999306,26492222.007679746,27607655.535182152,28312179.37823347,404748,427844.1830071799,449504.520938557,474226.929913591,494996.53520785214
60,138,20098800,21508293.438165486,23021269.331375185,24543688.918528415,25750138.309952985,351861,371298.4112444603,389208.34357289935,411656.3110617184,428618.5504481044
61,102,12893465,14368665.35920401,15723476.372245323,17483330.85314697,19277330.435302578,264188,277807.83676325186,292411.0716045155,311668.00457288616,333461.4278793909
62,141,20761467,22144651.32113217,23761913.84768941,25200511.009132534,26354796.671723504,357948,376105.8306969707,397763.0820130782,418454.8649180119,439147.58964701474
63,137,19863235,21077767.64279545,22471387.48369968,23932113.322618857,25042256.39562812,348416,367511.16501470935,384763.8729073214,407101.2968385924,422981.6576457865
64,144,21436203,23126275.982220322,24833514.852084763,26155868.413345985,27614372.6010274,367654,385909.85133531893,409175.74071782763,426923.0791263808,452537.56346764095
65,159,24710602,26023888.820318393,27289995.500616122,28221613.144031912,28745303.961882487,417557,437094.9710829383,461808.1006410501,486405.87513829174,501898.7361645653
66,114,15108895,16495541.619902253,18055759.217676893,19632802.15581189,20955889.542031474,287163,301655.5772185915,322837.846061982,342899.89026426856,360438.27518904407
67,111,14517477,16285547.992894221,18338848.61865528,20412012.022303507,22252376.065776907,281855,297520.0146003306,317333.712053328,339953.78134016145,363009.99798807234
68,104,13213975,14421986.556288946,15615978.800841637,17001067.353096657,18370628.34343979,267123,280126.7172166382,295890.58912243607,313349.23533732136,332031.07676646434
69,166,25824970,26834312.266803585,27675275.48104185,28174406.777469993,28523685.290003452,440546,462238.2555727558,484241.6404303655,500305.084641095,512191.8469016827
70,122,16836417,18148648.067625683,19549231.74638403,20746590.639371313,22195090.343210842,308212,327155.18576526357,349807.61403820163,366934.2871646955,385995.35344349704
71,161,25071901,26380433.92722441,27505239.9796386,28274012.040209502,28771802.32230274,424705,446858.7444811162,470434.3920322314,492082.54634734103,507343.5335271488
72,176,27069854,27745644.849104676,28220135.762099974,28602484.12847342,28926551.381832175,469410,489515.2860273372,504507.33531254635,515969.423415453,528162.8327899533
73,126,17766568,19528496.755708475,20984009.3283112,22496304.54591096,24199262.77784607,320985,344541.08153609035,365139.31830778474,388523.8983912477,414813.78797144745
74,136,19629601,20753387.469697416,22071942.354221884,23473486.32033122,24550340.289426073,344687,362891.02447639906,379410.41692965117,401089.2496422793,416026.43676034815
75,101,12710178,14254711.497649793,15747182.043641202,17686389.268968478,19768358.776774008,261929,275124.90851659124,289448.69582290965,308980.1120392072,331672.18139587424
76,148,22483440,24127120.145456437,25462576.861718882,26818138.2168986,28169338.811490364,381022,403992.0876528791,425095.26389701,447577.3880544334,474597.2228093651
77,158,24516852,25596507.136723157,27073873.306216925,28381870.273785554,28817502.365104392,413379,430211.3201302232,455017.3796187697,481928.85405860835,498992.621689579
78,143,21180814,22635847.83403894,24340633.432596132,25719026.77712479,26884807.544881914,363732,380819.8249171761,403527.72991407,420545.16333315516,444869.24336915906
79,151,23155725,24785958.17413632,26127328.03933958,27427831.870059833,28487291.13665978,391607,415074.55791178794,435895.88808925095,460280.4652561711,485615.87615490286
80,128,18153413,19596279.77958654,20787936.371011164,22141083.682167944,23629823.068441164,324632,347141.77536632563,366227.4892462792,386956.1515971154,411270.1369666127
81,183,27708401,28064300.236466214,28370252.76457195,28645112.777773585,28868928.83909803,486756,503034.3505014175,514230.18084421277,525535.6015935997,533975.8742804673
82,185,27825319,28264695.12967678,28650273.599168513,28948815.980732847,29229177.483226337,489414,504818.82261729724,517437.2536861381,529086.2355171597,537249.6448553156
83,184,27762595,28188569.389379162,28547424.450143386,28848659.756915275,29101082.012953233,487691,503668.324633553,515519.47738746705,527434.5288668,535516.6452783421
84,120,16432601,17936874.55996718,19440480.62853863,20765249.542482734,22296121.663660593,303457,322695.22634318017,345514.4541023506,363700.77246586373,384507.18048455333
85,134,19254759,20150006.992402527,21269050.484063543,22516638.634705063,23495524.101007808,339058,356104.0219987974,372252.4592953578,392032.9007969897,408836.5903654456
