,training_days,cumulative_truth_baseline_conf,1wk_ahead_cumulative_preds_conf,2wk_ahead_cumulative_preds_conf,3wk_ahead_cumulative_preds_conf,4wk_ahead_cumulative_preds_conf,cumulative_truth_baseline_death,1wk_ahead_cumulative_preds_death,2wk_ahead_cumulative_preds_death,3wk_ahead_cumulative_preds_death,4wk_ahead_cumulative_preds_death
0,160,24901279,25974849.792226702,26897462.53177974,27570967.400423385,28031684.898355085,421374,441066.7534959207,464182.8940890787,485419.7860147629,499666.8797005867
1,170,26380978,27390947.66703205,28099348.767571487,28633246.480244584,29038866.001428194,450781,472865.3225102738,491478.7494775577,506251.73254600284,518778.8270378451
2,153,23634087,25590021.654201165,27087480.57664506,28379661.40733602,29475116.45388135,399462,422250.78043230786,444523.85553030414,466669.485178668,494868.76977817697
3,173,26741846,27703548.42813942,28415272.950928487,28922319.56516889,29420462.606775895,461850,482971.172302079,499660.993957165,512579.1307445299,526359.6496766245
4,179,27350956,28067582.873171046,28603187.43124128,29047019.109216765,29505907.47503662,477387,495172.0968913083,508419.2578167476,521612.8694016361,533255.3074095746
5,157,24333648,25661165.204150837,26784353.35570561,27692918.774275012,28345260.03452403,408982,428089.20932069153,452974.15182186564,476683.465984853,495146.8963617707
6,145,21714268,23523542.181121767,25393421.604199186,26902380.117581047,28201211.356468547,371616,392536.0740879138,417814.86336376163,440043.94313041813,465911.56878021243
7,168,26133786,27069510.670620445,27691308.141614817,28129032.911508325,28393957.13239,446910,469036.631501607,488583.8353368443,503235.74327502237,514231.15873335005
8,124,17322739,19011043.429596383,20606218.7529865,22087350.222093277,23877917.97670352,315394,336752.77059649077,358075.7382786031,379088.2788283579,401718.7257658967
9,162,25202932,26214431.47677004,27014717.67700641,27549393.256763306,27909775.655679546,426591,448174.0005416288,470143.9143392475,488403.55661631946,502395.0972263354
10,182,27643381,28207614.27452684,28563691.245450873,28928675.00511708,29274162.530581724,485636,501881.0982985968,513148.919493414,524880.5968564181,534875.8984495641
11,149,22698422,24348174.62499868,25806152.069633525,27009001.721502982,28036362.308763597,383114,406345.2933661999,426906.70544114546,450937.35569221317,475582.89703421714
12,121,16626313,18150293.09690336,19765258.972474143,21101268.224774275,22693797.539903194,305112,325198.9346083736,347114.5657835687,366740.2822048403,387774.1641437119
13,130,18581041,19841526.956474446,20939272.31778948,22348626.996265795,23914412.213374708,331442,352935.92376908043,371815.08991213574,391212.85276711045,414284.5014227578
14,150,22925376,24621851.927649714,26060272.36166459,27265970.859736226,28297063.86341357,387584,410986.6509583699,429632.02801257244,454906.5077498855,479785.4787286513
15,146,22007515,23955341.21963077,25828221.362950176,27323024.453517802,28632576.639336124,375704,397612.67465902946,422479.2948032185,445683.5985105783,471833.2276315612
16,123,17083061,18596566.286289774,20162504.927248053,21487475.196066946,23124111.186657876,311931,331981.49089917215,353721.56640131975,373067.20262215874,394640.9304508184
17,118,16027412,17794297.11473525,19591641.74338054,21162847.00391282,22851606.8390362,299374,318269.3613955424,340089.94655872445,360581.675239197,382982.81288865535
18,100,12534661,14073638.207676433,15641340.926642291,17624992.787279133,19809649.552685376,259800,273366.9341240487,288248.4245775236,308970.55987317546,332501.07858105324
19,181,27556262,28121680.89283939,28473688.16610486,28825447.02245744,29156865.041498393,483460,500081.5600960185,511737.2824713985,523587.539535583,533488.1524809627
20,139,20252310,22030300.943282526,24031438.400558632,25881386.11347675,27356684.558922287,354009,375020.8422363538,398476.51201659965,423035.10173297185,446292.2151995475
21,117,15787436,17443562.532617725,19176469.364909988,20836948.66885715,22408201.654519305,295959,313894.1890547835,336138.0971179399,357095.3736801129,378537.04497127456
22,105,13369505,14752980.377899192,16194858.767803041,17798788.444347855,19449242.567027055,268481,282037.56713549263,299432.5504789988,318590.70165138517,339172.2731194092
23,167,25991464,26862240.091518123,27459375.239926364,27860265.073794626,28074812.014642324,444152,465938.3684425668,485945.46887612896,500461.2972177596,511367.69674677093
24,135,19429410,20672527.434164036,22116040.173031442,23803748.996192038,25207908.390848055,341059,361003.3310978838,380009.96172860154,403319.23409158434,423205.7841851961
25,127,17954314,19514255.76469013,20834928.425252028,22375015.616066243,24121709.457532417,322695,344484.8221147891,363635.76295444195,384155.26167293283,408879.8553875036
26,133,19099125,19944838.880975995,21014162.86587638,22417193.8116278,23809569.653783306,337629,356382.4501532383,374606.61143839924,395209.9796698116,414788.17000601755
27,147,22270172,24402223.830530055,26266083.684336457,27779812.649829444,29107569.706329394,379030,403091.79977278196,427167.5792241571,450926.59566273866,477580.6822090701
28,113,14914034,16372434.835529806,17956405.2271814,19611353.24490439,20980477.287850626,285550,302378.44826746336,322403.543682546,344411.51963195426,362607.2974068835
29,115,15333385,16831750.9989261,18457254.328958604,20116118.606492486,21542099.89578276,289790,307010.2540843999,329115.2960567362,349774.5226221187,371811.71871356486
30,110,14284692,15655518.718634984,17240790.355087783,18946128.34199663,20471662.46276542,279177,293828.35271116433,311927.37453130865,332960.8087712376,352864.75691010733
31,178,27255817,28075473.171194963,28698156.114872415,29207846.27918444,29741194.319078267,474073,492531.90134411777,506654.70192219666,519755.05722091574,532710.8070211889
32,103,13005788,14668958.081419904,16347240.369778624,18330247.281492777,20446310.162821013,265574,280441.9897938648,297587.83950764127,318809.8324289012,343371.80041095446
33,125,17574674,19436383.32482561,20981429.04715478,22634472.267442398,24684523.46280221,318334,340220.4636522954,360852.475303455,382881.14413936436,408580.32325729437
34,109,14061082,15163464.006845469,16395830.771225616,17597446.813969277,18729265.81156176,276227,289670.4408109213,306661.5633194471,325398.12184041226,342970.6633508831
35,165,25655710,26755622.307631757,27606229.13533355,28183426.54232758,28588427.77341063,436530,458742.6442799975,480378.11151154747,497014.98488230666,510234.7365640086
36,164,25502471,26569246.030303806,27407929.986989155,27967838.67663065,28351432.676587727,432585,454129.40472773573,476013.88645543106,493375.6436547077,506516.59147083206
37,152,23391339,25040468.918077763,26417526.399287235,27590335.754968867,28540918.4562569,395572,418644.9543008487,438639.2600075761,463274.54176080046,487639.53222953825
38,119,16244797,17971724.5796877,19708608.99093126,21266410.53445512,22975481.867699843,301831,322127.2879893376,344281.52550297545,364726.42694058525,387641.44734583254
39,177,27160197,27828465.105209094,28325328.203656677,28683966.514683425,29074841.527259808,471008,489808.5090954498,504096.8864669388,515900.8023553813,527855.3650480465
40,163,25354901,26328094.23640025,27124560.294768494,27633455.691531036,27969824.010473195,428559,449902.5022712168,472085.17574553983,489673.8741164796,503071.8961154709
41,142,20945766,22504951.016564123,24298257.266160823,25797505.141084835,27038909.679848067,360043,379956.02379910974,403970.44866221683,426142.72509192093,449999.81201617216
42,174,26876208,27785337.308799624,28453287.612775154,28932367.68426374,29425202.659873046,465465,486057.165000533,501967.29768916056,514548.9319649286,527657.613618273
43,112,14733023,16289285.618416741,17978460.457069945,19765561.833229344,21297766.915404096,284200,300880.2796390006,320646.87866756343,342668.43758410506,361870.14300494984
44,140,20552726,22110045.667937845,23962283.129619773,25684045.855192788,27050819.454113815,356508,375908.98098181136,399378.0756756461,423603.65512347594,446668.2453934522
45,108,13858527,14923997.641048105,16076319.034776438,17126128.251765717,18105076.08912402,273408,286006.9102867952,302442.87456573796,320024.41913577484,337387.09896062
46,156,24156910,25601256.69079364,26784091.378047183,27753482.250211973,28458791.744813062,406254,426116.5720648287,449610.19901934295,473938.5920048025,494396.78183869453
47,131,18775207,20192145.725032542,21466700.650676694,23031906.95845683,24660566.279627472,334351,355969.9262035208,375508.49814767455,395876.99510583177,419611.402892882
48,129,18351480,19879634.12269373,21184955.417999752,22762383.483995415,24535152.23569865,328024,349437.1940010022,368839.5338852271,389028.65748825745,414038.0664638221
49,171,26496311,27585407.160402056,28350708.30266442,28919184.347585432,29399457.855413906,454246,476321.5454807476,494624.0637724465,508942.5865676602,522467.87294405437
50,107,13670310,14599459.077679131,15414615.296292577,16049312.144153103,16530653.009717729,270863,283276.2128559558,299085.4916968384,314812.46639929403,329642.5327195905
51,172,26617922,27676098.524423044,28437011.951560944,29005476.960048765,29516752.6255066,458117,479867.0516519383,497298.4709265898,511231.4750570101,525385.793949761
52,132,18872822,20350669.46497427,21768409.49290281,23556335.06840296,25224033.294231966,335750,357295.1648422355,377406.58724177384,399848.26043795387,423508.5325862156
53,175,26980195,27809249.873191413,28428194.91316939,28854596.229893707,29308037.55811471,468055,488130.3078603844,503568.36411787977,515410.7952650311,527952.2303354376
54,180,27456653,28111429.889341567,28566224.474004894,28979612.78190996,29390246.265457865,480557,497474.5335159488,509944.50818014424,522781.49936636415,533678.7633109385
55,106,13509740,14621791.150996909,15714694.805908857,16756668.76074705,17715868.238186073,269517,282441.6535576059,298950.2558147117,316163.96388722153,333261.04032342683
56,169,26245805,27272383.82816908,27989878.9255539,28520383.751063004,28891123.10042812,448743,470818.4253450532,490077.23649937194,505239.77239983476,517205.3184243904
57,154,23835726,25750020.24241048,27197735.910832144,28431385.8888031,29466795.619077884,402884,424845.1280416283,448238.612539858,471712.5534019302,497083.4541649258
58,116,15555920,17073276.29389674,18721595.94956007,20353360.60197518,21789552.366174217,292967,310129.92479492043,332475.0652279979,352576.9895715107,374603.051405132
59,155,24013519,25387084.218250114,26461224.476649664,27364391.492791943,28026699.737031534,404748,425378.52683533385,447570.22518818016,470602.2295514391,491073.2058128619
60,138,20098800,21654476.501258705,23440747.14174617,25246209.94968896,26695302.608297467,351861,372471.324525862,393495.79635795427,418208.3154625036,439284.4210179993
61,102,12893465,14505843.816559069,16076699.028627213,18071865.450719602,20196304.80284073,264188,278462.65012103046,293928.8514112394,315083.4567386898,339162.3643670563
62,141,20761467,22374354.38199185,24188150.73921142,25805008.773117192,27073609.578313388,357948,378157.43593733595,402118.55959655746,425840.7033165536,449297.8785763306
63,137,19863235,21213181.10900848,22841999.963846788,24595453.292471796,25986018.629508995,348416,369065.6405464455,388891.3522785552,413313.0475172486,432351.73719875136
64,144,21436203,23205100.110122696,25119996.229131617,26666049.896595106,27986830.894737832,367654,388346.72515010566,413952.91069300973,435473.5221869276,461543.8804927034
65,159,24710602,25863252.378979422,26866460.794421542,27619715.588725656,28152330.26974417,417557,436420.43726596097,460534.2066469674,482675.72821251355,497886.75119303714
66,114,15108895,16460189.1838411,17985080.421830676,19564943.23906447,20812822.763789147,287163,303339.982792012,324196.0122105224,345068.71757361636,364128.9478420619
67,111,14517477,16122689.320580976,17885285.964222558,19782436.12588567,21372918.845555764,281855,297996.23640427185,317629.31706833816,339358.6369202154,359924.6010711344
68,104,13213975,14697985.239686776,16265402.950787013,18037077.579064276,19860667.43620798,267123,281141.2512141278,298339.01896955067,318571.73170218745,340289.3547457075
69,166,25824970,26811627.962049216,27522335.483393148,28020498.992987357,28320713.61834533,440546,462323.5340739531,483045.8795847791,498721.3856015052,510472.1337704676
70,122,16836417,18350370.20659249,19945713.694852833,21275458.249781225,22897864.226802416,308212,328077.16110276233,349972.63005149615,369396.17831272434,390203.92171464645
71,161,25071901,26326878.605173107,27327467.68819869,28057483.231141444,28622617.308012404,424705,446045.39727175597,469171.8497763415,489441.6257110367,505031.3844148965
72,176,27069854,27722074.375121053,28203529.255197722,28515930.671556946,28854953.71073681,469410,488711.80706968746,503339.14986982883,514509.1082360733,525904.845827924
73,126,17766568,19602982.594220735,21129698.76769231,22814329.59321667,24769932.479043253,320985,342962.3733236537,362750.73515025666,384752.0076328375,410753.97671861894
74,136,19629601,21028308.46785127,22629945.31744682,24428518.861221317,25889211.989842195,344687,364898.0425233695,384492.6665418822,409329.808433464,428140.74824260874
75,101,12710178,14293150.031157168,15863404.18918658,17874991.733183913,20018141.27799523,261929,275500.9464006312,290475.9294084864,311174.95958209684,334758.1757208656
76,148,22483440,24317185.60498364,25934426.364152104,27209461.248090632,28345079.06650988,381022,404889.05337818287,426760.47566490213,450401.73252593225,475498.2531281195
77,158,24516852,25800398.408233877,26899778.157534596,27771924.423676036,28392291.949128766,413379,431698.60122997966,456983.98775342957,480348.7141527606,496750.94595908734
78,143,21180814,22818322.456806093,24685157.75406043,26204718.63989527,27481796.538810555,363732,383680.70146963507,408973.5736328302,429612.7303530169,455440.5982036091
79,151,23155725,24777090.19242933,26131468.501502734,27286169.073402926,28251491.903069403,391607,415704.321733455,434100.86123116594,458138.22196748166,483397.94006714335
80,128,18153413,19690296.556769997,20984062.49966345,22528678.853998277,24304413.98029335,324632,346242.5973552854,365415.7387575869,385769.8243383504,410201.6163295901
81,183,27708401,28179486.487357404,28450542.31593426,28757862.15015432,29024848.5246419,486756,502516.2564139282,513484.9511968616,524689.7731024583,533700.1936637064
82,185,27825319,28399538.353229657,28851090.000050172,29301289.175084006,29718278.378886,489414,504666.3655877295,517153.49488996546,529195.1230907249,538640.3372653371
83,184,27762595,28281799.859793134,28633353.866516918,29015519.65543748,29343502.28258921,487691,503212.6968441139,514904.2688100777,526767.3649159771,535647.1341717939
84,120,16432601,17966807.321742486,19567764.299622525,20935351.20170715,22520489.396718793,303457,323666.2397990938,345391.7522052027,365135.9193854809,386289.74787134095
85,134,19254759,20581621.839657772,22055320.02843888,23740033.47369844,25238922.451534823,339058,359057.56645614206,378411.4051992414,401767.28293507,423334.41861158365
