,dates,death_025_quantiles,death_975_quantiles,case_025_quantiles,case_975_quantiles
0,2021-10-02,570.0711355730554,576.8191383497905,30960.0,37528.17478112009
1,2021-10-09,574.9341315823044,585.7637293519992,32482.223411912328,39382.339824793584
2,2021-10-16,580.7926035353162,593.1878580400447,34181.12265652705,39797.38776916556
3,2021-10-23,588.5549949360524,604.0308877827471,36090.875407377505,42741.93546289956
