,dates,death_025_quantiles,death_975_quantiles,case_025_quantiles,case_975_quantiles
0,2021-11-27,509.0908049479118,846.5210902666759,43096.24190461186,43758.893284497535
1,2021-12-04,544.4285125047275,799.0674563127385,44773.90768237699,45791.255647230435
2,2021-12-11,609.9530126330967,943.1161802766542,46311.20737165115,47618.146366756824
3,2021-12-18,609.7877238279007,1107.4275615573122,47814.75874441401,49204.288353816955
