,dates,death_025_quantiles,death_975_quantiles,case_025_quantiles,case_975_quantiles
0,2021-11-13,653.1350698401804,667.2968791288629,39513.07491663845,40150.889118533654
1,2021-11-20,660.4931596233135,680.3720080587045,40927.565297488145,41626.17075959976
2,2021-11-27,673.4129489401301,695.621363255427,42494.38064976913,43299.405619779776
3,2021-12-04,685.4153740827213,710.6891088906209,43922.259667368126,44811.720198225994
