,dates,death_025_quantiles,death_975_quantiles,case_025_quantiles,case_975_quantiles
0,2021-08-28,541.1160661764856,547.4282726829139,27038.086819114353,27393.89949515747
1,2021-09-04,540.5043860100377,549.7120348348726,27529.768486509816,28013.105376775453
2,2021-09-11,540.958304632568,552.2250093347475,27993.295486884672,28704.406128177656
3,2021-09-18,541.179196339206,555.5089617502173,28568.269555070325,29314.886995091652
